VHDL TEST/maquinaEstadosUnidadControl/simulation/qsim/fsm_control.msim.vcd
$comment
	File created using the following command:
		vcd file fsm_control.msim.vcd -direction
$end
$date
	Tue Nov 19 19:51:36 2024
$end
$version
	ModelSim Version 2020.1
$end
$timescale
	1ps
$end

$scope module fsm_control_vhd_vec_tst $end
$var wire 1 ! clk $end
$var wire 1 " reset $end
$var wire 1 # state [1] $end
$var wire 1 $ state [0] $end

$scope module i1 $end
$var wire 1 % gnd $end
$var wire 1 & vcc $end
$var wire 1 ' unknown $end
$var wire 1 ( devoe $end
$var wire 1 ) devclrn $end
$var wire 1 * devpor $end
$var wire 1 + ww_devoe $end
$var wire 1 , ww_devclrn $end
$var wire 1 - ww_devpor $end
$var wire 1 . ww_clk $end
$var wire 1 / ww_reset $end
$var wire 1 0 ww_state [1] $end
$var wire 1 1 ww_state [0] $end
$var wire 1 2 \~QUARTUS_CREATED_GND~I_combout\ $end
$var wire 1 3 \clk~input_o\ $end
$var wire 1 4 \clk~inputCLKENA0_outclk\ $end
$var wire 1 5 \reset~input_o\ $end
$var wire 1 6 \current_state.WRITEBACK~q\ $end
$var wire 1 7 \current_state.FETCH~0_combout\ $end
$var wire 1 8 \current_state.FETCH~q\ $end
$var wire 1 9 \current_state.DECODE~0_combout\ $end
$var wire 1 : \current_state.DECODE~q\ $end
$var wire 1 ; \current_state.EXECUTE~q\ $end
$var wire 1 < \current_state.FETCH~DUPLICATE_q\ $end
$var wire 1 = \state~3_combout\ $end
$var wire 1 > \current_state.DECODE~DUPLICATE_q\ $end
$var wire 1 ? \state~4_combout\ $end
$var wire 1 @ \ALT_INV_current_state.FETCH~q\ $end
$var wire 1 A \ALT_INV_current_state.EXECUTE~q\ $end
$var wire 1 B \ALT_INV_state~3_combout\ $end
$var wire 1 C \ALT_INV_state~4_combout\ $end
$var wire 1 D \ALT_INV_current_state.WRITEBACK~q\ $end
$var wire 1 E \ALT_INV_reset~input_o\ $end
$var wire 1 F \ALT_INV_current_state.FETCH~DUPLICATE_q\ $end
$var wire 1 G \ALT_INV_current_state.DECODE~DUPLICATE_q\ $end
$upscope $end
$upscope $end
$enddefinitions $end
#0
$dumpvars
0!
1"
0%
1&
x'
1(
1)
1*
1+
1,
1-
0.
1/
x2
03
04
15
06
17
08
19
0:
0;
0<
1=
0>
1?
1@
1A
0B
0C
1D
0E
1F
1G
00
01
0#
0$
$end
#10000
1!
1.
13
14
#20000
0!
0"
0.
0/
05
03
04
1E
#30000
1!
1.
13
14
18
1:
1<
1>
0G
0F
0@
09
0=
1B
11
1$
#40000
0!
0.
03
04
#50000
1!
1.
13
14
0:
1;
0>
1G
0A
1=
0?
1C
0B
01
10
0$
1#
#60000
0!
0.
03
04
#70000
1!
1.
13
14
16
0;
1A
0D
07
0=
1B
11
1$
#80000
0!
0.
03
04
#90000
1!
1.
13
14
06
08
0<
1F
1@
1D
17
19
1=
1?
0C
0B
01
00
0$
0#
#100000
0!
0.
03
04
#110000
1!
1.
13
14
18
1:
1<
1>
0G
0F
0@
09
0=
1B
11
1$
#120000
0!
0.
03
04
#130000
1!
1.
13
14
0:
1;
0>
1G
0A
1=
0?
1C
0B
01
10
0$
1#
#140000
0!
0.
03
04
#150000
1!
1.
13
14
16
0;
1A
0D
07
0=
1B
11
1$
#160000
0!
0.
03
04
#170000
1!
1.
13
14
06
08
0<
1F
1@
1D
17
19
1=
1?
0C
0B
01
00
0$
0#
#180000
0!
0.
03
04
#190000
1!
1.
13
14
18
1:
1<
1>
0G
0F
0@
09
0=
1B
11
1$
#200000
0!
0.
03
04
#210000
1!
1.
13
14
0:
1;
0>
1G
0A
1=
0?
1C
0B
01
10
0$
1#
#220000
0!
0.
03
04
#230000
1!
1.
13
14
16
0;
1A
0D
07
0=
1B
11
1$
#240000
0!
0.
03
04
#250000
1!
1.
13
14
06
08
0<
1F
1@
1D
17
19
1=
1?
0C
0B
01
00
0$
0#
#260000
0!
0.
03
04
#270000
1!
1.
13
14
18
1:
1<
1>
0G
0F
0@
09
0=
1B
11
1$
#280000
0!
0.
03
04
#290000
1!
1.
13
14
0:
1;
0>
1G
0A
1=
0?
1C
0B
01
10
0$
1#
#300000
0!
0.
03
04
#310000
1!
1.
13
14
16
0;
1A
0D
07
0=
1B
11
1$
#320000
0!
0.
03
04
#330000
1!
1.
13
14
06
08
0<
1F
1@
1D
17
19
1=
1?
0C
0B
01
00
0$
0#
#340000
0!
0.
03
04
#350000
1!
1.
13
14
18
1:
1<
1>
0G
0F
0@
09
0=
1B
11
1$
#360000
0!
0.
03
04
#370000
1!
1.
13
14
0:
1;
0>
1G
0A
1=
0?
1C
0B
01
10
0$
1#
#380000
0!
0.
03
04
#390000
1!
1.
13
14
16
0;
1A
0D
07
0=
1B
11
1$
#400000
0!
0.
03
04
#410000
1!
1.
13
14
06
08
0<
1F
1@
1D
17
19
1=
1?
0C
0B
01
00
0$
0#
#420000
0!
0.
03
04
#430000
1!
1.
13
14
18
1:
1<
1>
0G
0F
0@
09
0=
1B
11
1$
#440000
0!
0.
03
04
#450000
1!
1.
13
14
0:
1;
0>
1G
0A
1=
0?
1C
0B
01
10
0$
1#
#460000
0!
0.
03
04
#470000
1!
1.
13
14
16
0;
1A
0D
07
0=
1B
11
1$
#480000
0!
0.
03
04
#490000
1!
1.
13
14
06
08
0<
1F
1@
1D
17
19
1=
1?
0C
0B
01
00
0$
0#
#500000
0!
0.
03
04
#510000
1!
1.
13
14
18
1:
1<
1>
0G
0F
0@
09
0=
1B
11
1$
#520000
0!
0.
03
04
#530000
1!
1.
13
14
0:
1;
0>
1G
0A
1=
0?
1C
0B
01
10
0$
1#
#540000
0!
0.
03
04
#550000
1!
1.
13
14
16
0;
1A
0D
07
0=
1B
11
1$
#560000
0!
0.
03
04
#570000
1!
1.
13
14
06
08
0<
1F
1@
1D
17
19
1=
1?
0C
0B
01
00
0$
0#
#580000
0!
0.
03
04
#590000
1!
1.
13
14
18
1:
1<
1>
0G
0F
0@
09
0=
1B
11
1$
#600000
0!
0.
03
04
#610000
1!
1.
13
14
0:
1;
0>
1G
0A
1=
0?
1C
0B
01
10
0$
1#
#620000
0!
0.
03
04
#630000
1!
1.
13
14
16
0;
1A
0D
07
0=
1B
11
1$
#640000
0!
0.
03
04
#650000
1!
1.
13
14
06
08
0<
1F
1@
1D
17
19
1=
1?
0C
0B
01
00
0$
0#
#660000
0!
0.
03
04
#670000
1!
1.
13
14
18
1:
1<
1>
0G
0F
0@
09
0=
1B
11
1$
#680000
0!
0.
03
04
#690000
1!
1.
13
14
0:
1;
0>
1G
0A
1=
0?
1C
0B
01
10
0$
1#
#700000
0!
0.
03
04
#710000
1!
1.
13
14
16
0;
1A
0D
07
0=
1B
11
1$
#720000
0!
0.
03
04
#730000
1!
1.
13
14
06
08
0<
1F
1@
1D
17
19
1=
1?
0C
0B
01
00
0$
0#
#740000
0!
0.
03
04
#750000
1!
1.
13
14
18
1:
1<
1>
0G
0F
0@
09
0=
1B
11
1$
#760000
0!
0.
03
04
#770000
1!
1.
13
14
0:
1;
0>
1G
0A
1=
0?
1C
0B
01
10
0$
1#
#780000
0!
0.
03
04
#790000
1!
1.
13
14
16
0;
1A
0D
07
0=
1B
11
1$
#800000
0!
0.
03
04
#810000
1!
1.
13
14
06
08
0<
1F
1@
1D
17
19
1=
1?
0C
0B
01
00
0$
0#
#820000
0!
0.
03
04
#830000
1!
1.
13
14
18
1:
1<
1>
0G
0F
0@
09
0=
1B
11
1$
#840000
0!
0.
03
04
#850000
1!
1.
13
14
0:
1;
0>
1G
0A
1=
0?
1C
0B
01
10
0$
1#
#860000
0!
0.
03
04
#870000
1!
1.
13
14
16
0;
1A
0D
07
0=
1B
11
1$
#880000
0!
0.
03
04
#890000
1!
1.
13
14
06
08
0<
1F
1@
1D
17
19
1=
1?
0C
0B
01
00
0$
0#
#900000
0!
0.
03
04
#910000
1!
1.
13
14
18
1:
1<
1>
0G
0F
0@
09
0=
1B
11
1$
#920000
0!
0.
03
04
#930000
1!
1.
13
14
0:
1;
0>
1G
0A
1=
0?
1C
0B
01
10
0$
1#
#940000
0!
0.
03
04
#950000
1!
1.
13
14
16
0;
1A
0D
07
0=
1B
11
1$
#960000
0!
0.
03
04
#970000
1!
1.
13
14
06
08
0<
1F
1@
1D
17
19
1=
1?
0C
0B
01
00
0$
0#
#980000
0!
0.
03
04
#990000
1!
1.
13
14
18
1:
1<
1>
0G
0F
0@
09
0=
1B
11
1$
