VHDL TEST/sumador8bits/simulation/qsim/sumador8bits.msim.vcd
$comment
	File created using the following command:
		vcd file sumador8bits.msim.vcd -direction
$end
$date
	Mon Nov 18 14:28:51 2024
$end
$version
	ModelSim Version 2020.1
$end
$timescale
	1ps
$end

$scope module sumador8bits_vhd_vec_tst $end
$var wire 1 ! A [7] $end
$var wire 1 " A [6] $end
$var wire 1 # A [5] $end
$var wire 1 $ A [4] $end
$var wire 1 % A [3] $end
$var wire 1 & A [2] $end
$var wire 1 ' A [1] $end
$var wire 1 ( A [0] $end
$var wire 1 ) B [7] $end
$var wire 1 * B [6] $end
$var wire 1 + B [5] $end
$var wire 1 , B [4] $end
$var wire 1 - B [3] $end
$var wire 1 . B [2] $end
$var wire 1 / B [1] $end
$var wire 1 0 B [0] $end
$var wire 1 1 SUM [7] $end
$var wire 1 2 SUM [6] $end
$var wire 1 3 SUM [5] $end
$var wire 1 4 SUM [4] $end
$var wire 1 5 SUM [3] $end
$var wire 1 6 SUM [2] $end
$var wire 1 7 SUM [1] $end
$var wire 1 8 SUM [0] $end

$scope module i1 $end
$var wire 1 9 gnd $end
$var wire 1 : vcc $end
$var wire 1 ; unknown $end
$var wire 1 < devoe $end
$var wire 1 = devclrn $end
$var wire 1 > devpor $end
$var wire 1 ? ww_devoe $end
$var wire 1 @ ww_devclrn $end
$var wire 1 A ww_devpor $end
$var wire 1 B ww_A [7] $end
$var wire 1 C ww_A [6] $end
$var wire 1 D ww_A [5] $end
$var wire 1 E ww_A [4] $end
$var wire 1 F ww_A [3] $end
$var wire 1 G ww_A [2] $end
$var wire 1 H ww_A [1] $end
$var wire 1 I ww_A [0] $end
$var wire 1 J ww_B [7] $end
$var wire 1 K ww_B [6] $end
$var wire 1 L ww_B [5] $end
$var wire 1 M ww_B [4] $end
$var wire 1 N ww_B [3] $end
$var wire 1 O ww_B [2] $end
$var wire 1 P ww_B [1] $end
$var wire 1 Q ww_B [0] $end
$var wire 1 R ww_SUM [7] $end
$var wire 1 S ww_SUM [6] $end
$var wire 1 T ww_SUM [5] $end
$var wire 1 U ww_SUM [4] $end
$var wire 1 V ww_SUM [3] $end
$var wire 1 W ww_SUM [2] $end
$var wire 1 X ww_SUM [1] $end
$var wire 1 Y ww_SUM [0] $end
$var wire 1 Z \~QUARTUS_CREATED_GND~I_combout\ $end
$var wire 1 [ \A[0]~input_o\ $end
$var wire 1 \ \B[0]~input_o\ $end
$var wire 1 ] \Add0~1_sumout\ $end
$var wire 1 ^ \B[1]~input_o\ $end
$var wire 1 _ \A[1]~input_o\ $end
$var wire 1 ` \Add0~2\ $end
$var wire 1 a \Add0~5_sumout\ $end
$var wire 1 b \A[2]~input_o\ $end
$var wire 1 c \B[2]~input_o\ $end
$var wire 1 d \Add0~6\ $end
$var wire 1 e \Add0~9_sumout\ $end
$var wire 1 f \A[3]~input_o\ $end
$var wire 1 g \B[3]~input_o\ $end
$var wire 1 h \Add0~10\ $end
$var wire 1 i \Add0~13_sumout\ $end
$var wire 1 j \A[4]~input_o\ $end
$var wire 1 k \B[4]~input_o\ $end
$var wire 1 l \Add0~14\ $end
$var wire 1 m \Add0~17_sumout\ $end
$var wire 1 n \B[5]~input_o\ $end
$var wire 1 o \A[5]~input_o\ $end
$var wire 1 p \Add0~18\ $end
$var wire 1 q \Add0~21_sumout\ $end
$var wire 1 r \B[6]~input_o\ $end
$var wire 1 s \A[6]~input_o\ $end
$var wire 1 t \Add0~22\ $end
$var wire 1 u \Add0~25_sumout\ $end
$var wire 1 v \A[7]~input_o\ $end
$var wire 1 w \B[7]~input_o\ $end
$var wire 1 x \Add0~26\ $end
$var wire 1 y \Add0~29_sumout\ $end
$var wire 1 z \ALT_INV_A[7]~input_o\ $end
$var wire 1 { \ALT_INV_B[7]~input_o\ $end
$var wire 1 | \ALT_INV_A[6]~input_o\ $end
$var wire 1 } \ALT_INV_B[6]~input_o\ $end
$var wire 1 ~ \ALT_INV_A[5]~input_o\ $end
$var wire 1 !! \ALT_INV_B[5]~input_o\ $end
$var wire 1 "! \ALT_INV_A[4]~input_o\ $end
$var wire 1 #! \ALT_INV_B[4]~input_o\ $end
$var wire 1 $! \ALT_INV_A[3]~input_o\ $end
$var wire 1 %! \ALT_INV_B[3]~input_o\ $end
$var wire 1 &! \ALT_INV_A[2]~input_o\ $end
$var wire 1 '! \ALT_INV_B[2]~input_o\ $end
$var wire 1 (! \ALT_INV_A[1]~input_o\ $end
$var wire 1 )! \ALT_INV_B[1]~input_o\ $end
$var wire 1 *! \ALT_INV_A[0]~input_o\ $end
$var wire 1 +! \ALT_INV_B[0]~input_o\ $end
$upscope $end
$upscope $end
$enddefinitions $end
#0
$dumpvars
09
1:
x;
1<
1=
1>
1?
1@
1A
xZ
0[
0\
0]
1^
0_
0`
1a
1b
1c
0d
0e
1f
1g
1h
1i
1j
1k
1l
1m
0n
1o
1p
0q
0r
1s
1t
0u
1v
1w
1x
1y
0z
0{
0|
1}
0~
1!!
0"!
0#!
0$!
0%!
0&!
0'!
1(!
0)!
1*!
1+!
1!
1"
1#
1$
1%
1&
0'
0(
1)
0*
0+
1,
1-
1.
1/
00
1B
1C
1D
1E
1F
1G
0H
0I
1J
0K
0L
1M
1N
1O
1P
0Q
1R
0S
0T
1U
1V
0W
1X
0Y
11
02
03
14
15
06
17
08
$end
#10000
0!
0$
0%
1'
0)
1+
0,
10
1H
0F
0E
0B
1Q
0M
1L
0J
0w
1n
0k
1\
0v
0j
0f
1_
0(!
1$!
1"!
1z
0+!
1#!
0!!
1{
1q
1]
0p
0i
0a
1d
1e
0q
0X
0V
1Y
1T
18
07
05
13
0T
1W
16
03
#20000
1$
0'
00
0"
1*
0/
0H
1E
0C
0Q
0P
1K
1r
0^
0\
0s
1j
0_
1(!
0"!
1|
1+!
1)!
0}
0]
0m
1p
0d
0e
1q
0U
0Y
08
04
1T
0W
06
13
#30000
0$
10
1"
0*
1!
1%
0+
1(
0-
1I
1F
0E
1C
1B
1Q
0N
0L
0K
0r
0n
0g
1\
1v
1s
0j
1f
1[
0*!
0$!
1"!
0|
0z
0+!
1%!
1!!
1}
0q
0y
1m
0p
1`
1a
1q
0t
1u
0x
1U
0R
0T
1y
14
03
01
1T
1X
17
13
1S
12
1R
11
#40000
0"
1*
0(
1'
0&
0.
0I
1H
0G
0C
0O
1K
1r
0c
0s
0b
1_
0[
1*!
0(!
1&!
1|
1'!
0}
0h
0a
1d
1]
0`
1a
0d
1e
1i
0l
0m
0e
1Y
0X
18
07
1V
1W
1X
17
16
15
0W
0U
06
04
#50000
0*
1.
1$
00
0!
0%
1+
1-
1/
1)
0#
0Q
1P
1O
1N
1L
0K
1J
0F
1E
0D
0B
0v
0o
1j
0f
1w
0r
1n
1g
1c
1^
0\
1+!
0)!
0'!
0%!
0!!
1}
0{
1$!
0"!
1~
1z
1m
0u
1e
0a
1d
0]
0e
1h
0i
1l
0Y
0X
1W
0S
1U
0m
1p
08
07
16
14
02
0W
0q
1t
06
0V
1u
05
0U
04
0T
03
1S
12
#60000
1*
0$
1!
1%
0+
0/
0)
1(
0'
1&
0P
0L
1K
0J
1I
0H
1G
1F
0E
1B
1v
0j
1f
1b
0_
1[
0w
1r
0n
0^
1)!
1!!
0}
1{
0*!
1(!
0&!
0$!
1"!
0z
1m
0p
1i
1e
1]
0u
1x
1q
0t
0d
0e
1u
0x
0y
0q
1y
1T
0S
1Y
1W
1V
1U
18
16
15
14
13
02
0T
0R
1S
0W
06
03
12
01
1R
11
#70000
0*
0%
1+
1)
0(
10
0-
1,
1Q
0N
1M
1L
0K
1J
0I
0F
0f
0[
1w
0r
1n
1k
0g
1\
0+!
1%!
0#!
0!!
1}
0{
1*!
1$!
0y
0u
1q
0m
1p
0l
1m
0p
0q
1t
1u
1q
0t
0U
1T
0S
0R
0u
04
13
02
01
0T
1U
14
03
1T
1S
13
12
0S
02
#80000
1*
0,
0!
1'
0.
0O
0M
1K
1H
0B
0v
1_
1r
0k
0c
1'!
1#!
0}
0(!
1z
1y
1a
1u
0m
1e
0h
0i
1W
0U
1S
1X
1R
17
16
04
12
11
0V
05
#90000
0*
1,
1!
0'
1%
0+
0)
1/
0&
1"
1P
1M
0L
0K
0J
0H
0G
1F
1C
1B
1v
1s
1f
0b
0_
0w
0r
0n
1k
1^
0)!
0#!
1!!
1}
1{
1(!
1&!
0$!
0|
0z
1i
0e
0q
1m
1U
0T
0W
1V
06
15
14
03
#100000
0,
0!
1'
0%
1+
1)
0/
1&
0"
1.
1(
00
1#
0Q
0P
1O
0M
1L
1J
1I
1H
1G
0F
1D
0C
0B
0v
0s
1o
0f
1b
1_
1[
1w
1n
0k
1c
0^
0\
1+!
1)!
0'!
1#!
0!!
0{
0*!
0(!
0&!
1$!
0~
1|
1z
0u
0i
1t
0m
1h
1i
1u
0U
0V
0S
05
04
02
1S
1V
15
12
#110000
1,
1/
0.
0(
10
0#
1$
1Q
1P
0O
1M
0I
1E
0D
0o
1j
0[
1k
0c
1^
1\
0+!
0)!
1'!
0#!
1*!
0"!
1~
1q
0t
1p
1e
0h
0a
1d
0e
1h
0i
0q
1t
0u
1u
1i
0X
1W
1T
07
16
13
0S
0T
0V
0W
06
05
03
02
1V
1S
15
12
#120000
0,
1(
00
1#
1!
1%
0+
1*
0Q
0M
0L
1K
1I
1F
1D
1B
1v
1o
1f
1[
1r
0n
0k
0\
1+!
1#!
1!!
0}
0*!
0$!
0~
0z
0y
0i
1l
0u
1x
1m
0p
1q
0t
1y
0m
1p
0q
1t
1u
0x
1U
0S
0V
0R
0y
0u
1x
05
14
02
01
0U
1R
1T
1y
04
13
11
1S
0T
03
12
0S
0R
02
01
1R
11
#130000
1,
0(
0*
0/
1.
0&
1-
0P
1O
1N
1M
0K
0I
0G
0b
0[
0r
1k
1g
1c
0^
1)!
0'!
0%!
0#!
1}
1*!
1&!
0]
1u
0x
1m
1i
1a
0d
1e
0h
0y
0i
1X
1V
1U
1S
0Y
08
17
15
14
12
0R
1W
16
01
0V
05
#140000
1(
1*
1/
0-
10
0#
1+
1"
1I
0D
1C
1Q
1P
0N
1L
1K
1r
1n
0g
1^
1\
1s
0o
1[
0*!
1~
0|
0+!
0)!
1%!
0!!
0}
1i
0l
0a
1d
1x
1`
1a
1y
0e
1h
0m
0i
1l
0X
1V
1m
07
15
0U
0W
1R
1X
17
06
04
11
0V
05
1U
14
#150000
0(
0*
0/
1-
0+
0"
0.
1&
0!
0'
0)
0I
0H
1G
0C
0B
0P
0O
1N
0L
0K
0J
0w
0r
0n
1g
0c
0^
0v
0s
1b
0_
0[
1*!
1(!
0&!
1|
1z
1)!
1'!
0%!
1!!
1}
1{
1q
0t
1i
0x
0d
1]
0`
0a
1e
0h
0y
0u
0i
1Y
1V
1T
18
15
13
0S
0R
1W
0X
07
16
02
01
0V
05
#160000
1*
0-
1.
0&
1!
1'
1)
00
1#
0,
0%
0Q
1O
0N
0M
1K
1J
1H
0G
0F
1D
1B
1v
1o
0f
0b
1_
1w
1r
0k
0g
1c
0\
1+!
0'!
1%!
1#!
0}
0{
0(!
1&!
1$!
0~
0z
0q
1t
1a
1u
0m
0l
0]
1m
0p
0u
1x
1y
1q
0t
0Y
0U
1S
1X
0T
1u
0x
08
17
04
03
12
0S
1U
0y
14
02
1T
1R
13
11
1S
12
0R
01
#170000
0.
1&
0!
0'
0)
1,
1%
1/
1P
0O
1M
0J
0H
1G
1F
0B
0v
1f
1b
0_
0w
1k
0c
1^
0)!
1'!
0#!
1{
1(!
0&!
0$!
1z
1i
0m
1p
0q
1t
0u
1x
0U
1V
1y
15
04
0T
03
0S
02
1R
11
#180000
1.
1'
0,
0/
10
1+
1"
1Q
0P
1O
0M
1L
1H
1C
1s
1_
1n
0k
1c
0^
1\
0+!
1)!
0'!
1#!
0!!
0(!
0|
1u
1q
1m
0p
0e
1h
1]
0i
1l
0q
0m
1p
1Y
0W
1U
1T
1S
1q
18
06
14
13
12
0T
0V
05
03
0U
04
1T
13
#190000
0'
00
0%
0#
1(
0$
1I
0H
0F
0E
0D
0Q
0\
0o
0j
0f
0_
1[
0*!
1(!
1$!
1"!
1~
1+!
0q
1m
0p
1i
0l
0a
0m
1q
0t
0u
0X
1V
1U
0T
07
15
14
03
1T
0U
04
13
0S
02
#200000
0(
1$
0&
1)
0*
1-
0I
0G
1E
1N
0K
1J
1w
0r
1g
1j
0b
0[
1*!
1&!
0"!
0%!
1}
0{
0y
1u
0x
0i
1l
1m
1e
0h
0]
1i
0l
0m
1p
1y
0q
1t
1m
0p
0Y
1W
1U
0V
1S
0R
1q
0t
0u
1x
08
16
05
14
12
01
1R
0U
1V
0y
1u
0x
15
04
11
1U
0T
1y
14
03
0S
1T
13
02
1S
0R
12
01
1R
11
#210000
1(
0$
1&
1*
1%
1#
0.
1,
1I
1G
1F
0E
1D
0O
1M
1K
1r
1k
0c
1o
0j
1f
1b
1[
0*!
0&!
0$!
1"!
0~
1'!
0#!
0}
0u
1x
0q
1t
0i
1l
1]
0m
1p
1u
0y
1q
1Y
0V
0T
0S
18
05
03
02
0R
1S
0U
04
12
01
1T
13
#220000
0(
0&
0*
0#
1.
0)
1/
0"
1!
0I
0G
0D
0C
1B
1P
1O
0K
0J
0w
0r
1c
1^
1v
0s
0o
0b
0[
1*!
1&!
1~
1|
0z
0)!
0'!
1}
1{
1a
0x
0q
0]
1y
0Y
0T
1X
08
17
03
1R
11
#230000
1&
0/
1"
0!
1$
1'
1H
1G
1E
1C
0B
0P
0^
0v
1s
1j
1b
1_
0(!
0&!
0"!
0|
1z
1)!
0y
0u
1x
1m
0e
1h
1i
1y
0W
1U
0S
0R
06
14
02
01
1R
1V
15
11
#240000
0&
0"
1!
0$
0'
1(
1#
1)
0,
10
1I
0H
0G
0E
1D
0C
1B
1Q
0M
1J
1w
0k
1\
1v
0s
1o
0j
0b
0_
1[
0*!
1(!
1&!
1"!
0~
1|
0z
0+!
1#!
0{
1u
0x
1q
0p
1e
0h
0a
1`
1a
0i
0q
0y
0X
1W
1T
1S
07
16
13
12
0R
0T
0V
1X
17
05
03
01
#250000
1&
1"
0!
1$
0(
0#
0)
0%
0-
0I
1G
0F
1E
0D
1C
0B
0N
0J
0w
0g
0v
1s
0o
1j
0f
1b
0[
1*!
0&!
1$!
0"!
1~
0|
1z
1%!
1{
0u
1x
1q
0t
0m
1p
0l
0e
1h
1]
0`
0a
1i
1m
0p
0q
1t
1u
0x
1y
0y
0u
1x
1q
0t
1Y
0W
0U
1T
0S
1u
0x
1y
18
06
04
13
02
1R
1S
0T
1U
1V
0X
0y
07
15
14
03
12
11
1T
0S
0R
13
02
01
1R
1S
12
11
0R
01
#260000
0"
1!
1)
1'
00
1/
1*
0+
1H
0C
1B
0Q
1P
0L
1K
1J
1w
1r
0n
1^
0\
1v
0s
1_
0(!
1|
0z
1+!
0)!
1!!
0}
0{
0q
0]
1d
1e
0Y
0T
08
03
1W
16
#270000
0)
0'
10
0/
0*
0$
1(
1%
1Q
0P
0K
0J
1I
0H
1F
0E
0j
1f
0_
1[
0w
0r
0^
1\
0+!
1)!
1}
1{
0*!
1(!
0$!
1"!
0m
0i
1l
1y
0u
0d
1`
1a
0e
1m
0S
1R
0V
0U
05
04
02
11
1U
0W
1X
17
06
14
#280000
1)
1'
1/
1*
1$
1"
0!
0&
1-
1,
1P
1N
1M
1K
1J
1H
0G
1E
1C
0B
0v
1s
1j
0b
1_
1w
1r
1k
1g
1^
0)!
0%!
0#!
0}
0{
0(!
1&!
0"!
0|
1z
1e
0h
1x
1p
1i
1d
0e
1h
1q
0y
0i
1i
1V
1W
16
15
0V
0R
1T
0W
06
05
13
01
1V
15
#290000
0'
0"
0-
0,
00
0%
1+
0H
0F
0C
0Q
0N
0M
1L
1n
0k
0g
0\
0s
0f
0_
1(!
1$!
1|
1+!
1%!
1#!
0!!
0q
1t
0m
1]
0`
1u
0x
0l
0a
1m
0p
1y
1a
0d
0u
1x
0y
1e
0h
1q
0t
0X
1S
1Y
0U
0T
1u
0x
0i
18
07
04
03
12
0S
1X
1R
1U
1y
17
14
02
11
1T
1W
0R
16
13
01
0V
1S
05
12
1R
11
#300000
1-
1,
10
0+
0*
0$
1&
1#
1Q
1N
1M
0L
0K
1G
0E
1D
1o
0j
1b
0r
0n
1k
1g
1\
0+!
0%!
0#!
1!!
1}
0&!
1"!
0~
0e
1h
0u
1i
0]
1`
0a
1d
0i
1l
0m
1p
1e
0Y
1V
0S
0W
0q
1t
08
06
15
02
0V
0X
1u
07
05
1W
0U
16
04
0T
03
1S
12
#310000
0,
00
1*
0&
0#
1'
1"
0Q
0M
1K
1H
0G
0D
1C
1s
0o
0b
1_
1r
0k
0\
1+!
1#!
0}
0(!
1&!
1~
0|
1q
0t
0e
1a
1x
1m
0p
1]
0`
0a
0q
0y
0u
1Y
1U
1X
0W
1T
18
17
06
14
13
0S
0R
0T
0X
07
03
02
01
#320000
1,
10
1#
0'
0-
1+
0)
0(
0.
1Q
0O
0N
1M
1L
0J
0I
0H
1D
1o
0_
0[
0w
1n
1k
0g
0c
1\
0+!
1'!
1%!
0#!
0!!
1{
1*!
1(!
0~
1a
0d
1y
1t
0m
1p
1i
0l
1e
0h
0i
1m
0p
1q
1u
0e
0q
1W
1V
0U
1R
1X
17
16
15
04
11
0W
1S
1T
1U
0V
06
05
14
13
12
0T
03
#330000
00
0#
1-
1(
1&
0/
0Q
0P
1N
1I
1G
0D
0o
1b
1[
1g
0^
0\
1+!
1)!
0%!
0*!
0&!
1~
1q
0t
1e
1i
0a
0u
0X
1V
1W
1T
07
16
15
13
0S
02
#340000
0(
1'
1.
0*
1%
0I
1H
1F
1O
0K
0r
1c
1f
1_
0[
1*!
0(!
0$!
0'!
1}
1u
0x
0e
1h
0i
1l
1a
0]
0m
1p
1i
0y
0q
1t
0Y
1X
0V
0W
1S
0u
1x
08
17
06
05
12
0R
1V
0U
1y
15
04
01
0T
03
0S
02
1R
11
#350000
0'
1*
0%
10
1#
0&
0,
1)
1$
1!
0H
0G
0F
1E
1D
1B
1Q
0M
1K
1J
1w
1r
0k
1\
1v
1o
1j
0f
0b
0_
1(!
1&!
1$!
0"!
0~
0z
0+!
1#!
0}
0{
1u
1]
1q
0i
1e
0h
0a
1i
0l
1m
0p
0X
1W
0V
1T
1Y
1S
0q
18
07
16
05
13
12
1V
15
1U
14
0T
03
#360000
1'
1,
0.
0-
0"
1H
0C
0O
0N
1M
1k
0g
0c
0s
1_
0(!
1|
1'!
1%!
0#!
0m
1p
0i
0e
0u
1a
1q
1X
0S
0W
0V
0U
17
06
05
04
02
1T
13
#370000
1.
1-
0*
1%
0!
1(
1O
1N
0K
1I
1F
0B
0v
1f
1[
0r
1g
1c
0'!
0%!
1}
0*!
0$!
1z
0y
0]
1`
1u
0x
1l
1e
1m
1y
0a
1d
0e
1h
1W
1S
0Y
0R
1i
08
16
12
01
0X
1R
1U
07
14
11
0W
06
1V
15
#380000
1*
1!
1"
00
1&
1/
0Q
1P
1K
1G
1C
1B
1v
1s
1b
1r
1^
0\
1+!
0)!
0}
0&!
0|
0z
0y
1e
1x
1a
1]
0`
0a
1y
1Y
1X
1W
0R
18
17
16
01
1R
0X
07
11
#390000
10
0%
0,
0$
0+
1Q
0M
0L
0F
0E
0j
0f
0n
0k
1\
0+!
1#!
1!!
1$!
1"!
0i
0q
0p
0]
1`
1a
1q
0t
0u
0Y
0T
0V
08
05
03
1T
1X
17
13
0S
02
#400000
00
1,
1$
1+
0!
0&
0/
0-
0(
0)
0Q
0P
0N
1M
1L
0J
0I
0G
1E
0B
0v
1j
0b
0[
0w
1n
1k
0g
0^
0\
1+!
1)!
1%!
0#!
0!!
1{
1*!
1&!
0"!
1z
0e
0q
1t
1p
1i
0l
0a
0`
1a
0d
0m
1q
1u
1e
0h
0X
1V
0T
0W
0i
07
06
15
03
1S
1T
0U
1X
17
04
13
12
1W
16
0V
05
#410000
0,
1-
1(
0.
0'
0O
1N
0M
1I
0H
0_
1[
0k
1g
0c
1'!
0%!
1#!
0*!
1(!
0a
1]
1m
0p
1i
0e
0q
0W
1V
1U
1Y
0X
18
07
06
15
14
0T
03
#420000
0-
1'
0+
1/
1%
0"
0#
1P
0N
0L
1H
1F
0D
0C
0s
0o
1f
1_
0n
0g
1^
0)!
1%!
1!!
0(!
0$!
1~
1|
0u
0t
1d
1e
1u
0x
0y
0S
02
1S
1W
16
12
0R
01
#430000
1-
1+
0%
1"
1#
1,
1.
10
1)
1Q
1O
1N
1M
1L
1J
0F
1D
1C
1s
1o
0f
1w
1n
1k
1g
1c
1\
0+!
0'!
0%!
0#!
0!!
0{
1$!
0~
0|
0u
1x
1y
1t
0m
1p
0e
1h
0]
1`
1a
0i
1l
1q
1u
0y
1m
0Y
0W
0U
1R
0S
08
06
04
02
11
0R
1S
1T
0V
1X
17
05
13
12
01
1U
14
#440000
0-
0+
1%
0,
0.
00
0)
0'
0/
1&
0*
0Q
0P
0O
0N
0M
0L
0K
0J
0H
1G
1F
1f
1b
0_
0w
0r
0n
0k
0g
0c
0^
0\
1+!
1)!
1'!
1%!
1#!
1!!
1}
1{
1(!
0&!
0$!
1y
0u
0q
0m
0d
1]
0`
0a
1e
0h
1i
0l
1Y
0U
0T
0S
1R
1m
0p
18
04
03
02
11
1W
0X
1q
0t
07
16
1V
1u
0x
15
1U
0y
14
1T
13
1S
12
0R
01
#450000
1-
1,
10
1*
0#
0$
1!
1Q
1N
1M
1K
0E
0D
1B
1v
0o
0j
1r
1k
1g
1\
0+!
0%!
0#!
0}
1"!
1~
0z
1y
0q
0u
1x
0i
1l
0]
1`
1a
0m
1p
0y
1q
0Y
0V
0S
0T
1R
08
05
03
02
11
0R
0U
1X
17
04
01
1T
13
#460000
0-
0,
00
1)
1/
0&
0"
0(
0Q
1P
0N
0M
1J
0I
0G
0C
0s
0b
0[
1w
0k
0g
1^
0\
1+!
0)!
1%!
1#!
0{
1*!
1&!
1|
1u
0x
0e
1y
1m
0p
1i
0l
0a
1d
0`
1a
0d
1e
0m
0q
0y
0e
0X
1V
1U
1R
0W
1S
07
06
15
14
12
11
0R
0T
0U
1W
1X
17
16
04
03
01
0W
06
#470000
1-
10
0)
0/
1(
0*
1+
1.
1'
1Q
0P
1O
1N
1L
0K
0J
1I
1H
1_
1[
0w
0r
1n
1g
1c
0^
1\
0+!
1)!
0'!
0%!
0!!
1}
1{
0*!
0(!
1y
0u
1q
0i
1l
1e
1`
0a
1d
1m
0e
1h
1W
0V
1T
0S
1R
1i
16
05
13
02
11
1U
0X
07
14
0W
06
1V
15
#480000
0-
1/
0+
0.
1,
1&
1$
0!
1P
0O
0N
1M
0L
1G
1E
0B
0v
1j
1b
0n
1k
0g
0c
1^
0)!
1'!
1%!
0#!
1!!
0&!
0"!
1z
0y
0q
1p
0i
1a
1q
1X
0V
0T
0R
17
05
03
01
1T
13
#490000
0/
1.
0,
0&
0$
1!
0(
1*
1#
0%
0P
1O
0M
1K
0I
0G
0F
0E
1D
1B
1v
1o
0j
0f
0b
0[
1r
0k
1c
0^
1)!
0'!
1#!
0}
1*!
1&!
1$!
1"!
0~
0z
1y
0q
1t
1i
0l
1]
0`
1u
0p
0a
1q
0t
1a
0d
0m
0u
1x
0y
1e
0h
1u
0x
0X
1S
1Y
1V
0T
1R
1y
0i
18
07
15
03
12
11
0S
0U
1X
1T
17
04
13
02
1S
1W
0R
16
12
01
0V
1R
05
11
#500000
1/
1$
1-
1P
1N
1E
1j
1g
1^
0)!
0%!
0"!
1m
1i
0a
1d
0e
1h
0i
1l
0X
1V
1U
0m
1p
07
15
14
0W
0q
1t
06
0V
0u
1x
05
0U
0y
04
0T
03
0S
02
0R
01
#510000
0/
1,
1(
00
1)
1"
0Q
0P
1M
1J
1I
1C
1s
1[
1w
1k
0^
0\
1+!
1)!
0#!
0{
0*!
0|
1u
1y
1m
1a
0d
1e
0h
1i
0l
1X
1U
1R
1S
0m
17
14
12
11
1W
16
1V
15
0U
04
#520000
1/
0,
0(
0"
0$
1&
0*
1+
0'
1P
0M
1L
0K
0I
0H
1G
0E
0C
0s
0j
1b
0_
0[
0r
1n
0k
1^
0)!
1#!
0!!
1}
1*!
1(!
0&!
1"!
1|
0e
1h
0]
0x
1q
0p
0q
0y
0i
1l
1m
1T
0Y
0W
08
06
13
0V
0R
0T
05
03
01
1U
14
#530000
1,
1(
0&
0!
1%
1M
1I
0G
1F
0B
0v
1f
0b
1[
1k
0#!
0*!
1&!
0$!
1z
1y
1i
1e
0h
1]
0m
1p
1q
0i
0U
1Y
1W
1V
1R
18
16
15
04
11
0V
1T
05
13
#540000
1"
1*
0+
1'
0)
0-
0#
1H
0D
1C
0N
0L
1K
0J
0w
1r
0n
0g
1s
0o
1_
0(!
1~
0|
1%!
1!!
0}
1{
0y
1i
0l
1x
0t
0a
1d
0e
1h
0u
1y
1m
0p
0q
0i
1l
0X
1V
0R
0m
1p
07
15
01
1U
1R
0S
0W
1q
06
14
02
11
0V
0T
05
03
0U
04
1T
13
#550000
0*
1+
0'
1-
1#
0(
1&
0/
10
0.
1Q
0P
0O
1N
1L
0K
0I
0H
1G
1D
1o
1b
0_
0[
0r
1n
1g
0c
0^
1\
0+!
1)!
1'!
0%!
0!!
1}
1*!
1(!
0&!
0~
1u
0x
1t
1i
0d
1e
0h
0u
1x
0y
1y
0i
1V
1S
15
12
0R
0S
1W
16
02
01
0V
1R
05
11
#560000
1'
0-
1(
1/
00
1.
0"
1)
0,
0%
1$
1I
1H
0F
1E
0C
0Q
1P
1O
0N
0M
1J
1w
0k
0g
1c
1^
0\
0s
1j
0f
1_
1[
0*!
0(!
1$!
0"!
1|
1+!
0)!
0'!
1%!
1#!
0{
0y
0e
1h
1u
0x
0l
1d
1e
1m
0p
1y
1i
0q
1S
0W
0R
06
12
01
1V
1R
1U
1W
16
15
14
11
0T
03
#570000
0'
0(
0/
0.
1,
1*
0#
1!
0I
0H
0D
1B
0P
0O
1M
1K
1r
1k
0c
0^
1v
0o
0_
0[
1*!
1(!
1~
0z
1)!
1'!
0#!
0}
0u
1x
0m
1p
0e
0y
1q
0t
0d
0]
1e
0h
1u
0x
0q
1t
1y
0u
1x
0y
0i
0Y
1T
0R
0W
0U
0S
1y
08
06
04
13
02
01
1R
0T
1S
1W
16
03
12
11
0V
0R
0S
05
02
01
1R
11
#580000
1(
1.
1"
1%
0$
1I
1F
0E
1C
1O
1c
1s
0j
1f
1[
0*!
0$!
1"!
0|
0'!
0e
1h
1u
1m
0p
1i
1]
1q
0t
0i
1l
0m
1p
0u
1Y
1V
1U
1S
0W
0q
1t
18
06
15
14
12
0V
1T
1u
05
13
0S
0U
04
02
0T
03
1S
12
#590000
0(
0.
0"
1$
1'
1/
0,
0*
10
0)
0I
1H
1E
0C
1Q
1P
0O
0M
0K
0J
0w
0r
0k
0c
1^
1\
0s
1j
1_
0[
1*!
0(!
0"!
1|
0+!
0)!
1'!
1#!
1}
1{
0y
1e
0h
0x
1d
0e
1h
1y
1i
0l
1m
0p
0i
1l
1W
0R
0m
1p
1q
0t
16
01
1V
1R
0W
0u
0q
1t
06
15
11
0V
1U
1u
05
14
1T
0U
04
13
0T
0S
03
02
1S
12
#600000
1"
0$
0'
1*
00
1)
1#
0H
0E
1D
1C
0Q
1K
1J
1w
1r
0\
1s
1o
0j
0_
1(!
1"!
0~
0|
1+!
0}
0{
0y
0]
1x
1q
1m
0p
1a
0d
1e
0h
0q
1y
1i
0l
1X
1U
1T
0Y
0R
0m
08
17
14
13
01
1R
0T
1W
16
03
11
1V
15
0U
04
#610000
1$
1'
10
1.
0/
1-
1H
1E
1Q
0P
1O
1N
1g
1c
0^
1\
1j
1_
0(!
0"!
0+!
1)!
0'!
0%!
0i
1l
0e
1h
1]
1m
1i
0m
1p
1q
1U
1Y
0W
0V
18
06
05
14
0U
1V
15
04
1T
13
#620000
0'
0.
1/
0-
0)
0#
0&
0H
0G
0D
1P
0O
0N
0J
0w
0g
0c
1^
0o
0b
0_
1(!
1&!
1~
0)!
1'!
1%!
1{
0y
0i
0q
0h
1i
0l
1m
0p
0T
0V
0R
1q
0t
05
03
01
1V
0u
15
1U
14
1T
13
0S
02
#630000
1'
1.
1-
1#
1&
0"
0%
0!
1H
1G
0F
1D
0C
0B
1O
1N
1g
1c
0v
0s
1o
0f
1b
1_
0(!
0&!
1$!
0~
1|
1z
0'!
0%!
1y
1u
0x
0q
1t
1h
0a
1d
1e
0i
1l
0u
1x
0y
1y
0m
1p
0X
0T
1S
1R
1q
07
03
12
11
0R
0S
0V
1W
16
05
02
01
0U
1R
04
11
1T
13
#640000
0.
0#
0&
1"
1%
0/
0$
00
0*
1,
0+
0Q
0P
0O
1M
0L
0K
0G
1F
0E
0D
1C
1s
0o
0j
1f
0b
0r
0n
1k
0c
0^
0\
1+!
1)!
1'!
0#!
1!!
1}
1&!
0$!
1"!
1~
0|
1i
0t
0h
1a
0d
0]
0e
0i
1u
0x
0y
0Y
1X
1V
08
17
15
1S
0V
0W
06
05
12
0R
01
#650000
1#
0"
1/
10
1+
0'
0-
1!
1(
1I
0H
1D
0C
1B
1Q
1P
0N
1L
1n
0g
1^
1\
1v
0s
1o
0_
1[
0*!
1(!
0~
1|
0z
0+!
0)!
1%!
0!!
1i
0l
1y
0u
1t
1`
0a
1d
1u
1m
0p
0q
1e
0S
1R
1V
15
02
11
1U
1S
0X
07
14
12
1W
0T
16
03
