VHDL TEST/estadoFetch/simulation/qsim/fetch_state.msim.vcd
$comment
	File created using the following command:
		vcd file fetch_state.msim.vcd -direction
$end
$date
	Tue Nov 19 20:16:18 2024
$end
$version
	ModelSim Version 2020.1
$end
$timescale
	1ps
$end

$scope module fetch_state_vhd_vec_tst $end
$var wire 1 ! addr_out [4] $end
$var wire 1 " addr_out [3] $end
$var wire 1 # addr_out [2] $end
$var wire 1 $ addr_out [1] $end
$var wire 1 % addr_out [0] $end
$var wire 1 & clk $end
$var wire 1 ' fetch_done $end
$var wire 1 ( reset $end

$scope module i1 $end
$var wire 1 ) gnd $end
$var wire 1 * vcc $end
$var wire 1 + unknown $end
$var wire 1 , devoe $end
$var wire 1 - devclrn $end
$var wire 1 . devpor $end
$var wire 1 / ww_devoe $end
$var wire 1 0 ww_devclrn $end
$var wire 1 1 ww_devpor $end
$var wire 1 2 ww_clk $end
$var wire 1 3 ww_reset $end
$var wire 1 4 ww_addr_out [4] $end
$var wire 1 5 ww_addr_out [3] $end
$var wire 1 6 ww_addr_out [2] $end
$var wire 1 7 ww_addr_out [1] $end
$var wire 1 8 ww_addr_out [0] $end
$var wire 1 9 ww_fetch_done $end
$var wire 1 : \~QUARTUS_CREATED_GND~I_combout\ $end
$var wire 1 ; \clk~input_o\ $end
$var wire 1 < \clk~inputCLKENA0_outclk\ $end
$var wire 1 = \addr[0]~4_combout\ $end
$var wire 1 > \reset~input_o\ $end
$var wire 1 ? \addr[1]~0_combout\ $end
$var wire 1 @ \addr[1]~DUPLICATE_q\ $end
$var wire 1 A \addr[2]~1_combout\ $end
$var wire 1 B \addr[2]~DUPLICATE_q\ $end
$var wire 1 C \addr[3]~2_combout\ $end
$var wire 1 D \addr[4]~3_combout\ $end
$var wire 1 E \fetch_done~reg0feeder_combout\ $end
$var wire 1 F \fetch_done~reg0_q\ $end
$var wire 1 G addr [4] $end
$var wire 1 H addr [3] $end
$var wire 1 I addr [2] $end
$var wire 1 J addr [1] $end
$var wire 1 K addr [0] $end
$var wire 1 L ALT_INV_addr [4] $end
$var wire 1 M ALT_INV_addr [3] $end
$var wire 1 N ALT_INV_addr [2] $end
$var wire 1 O ALT_INV_addr [1] $end
$var wire 1 P ALT_INV_addr [0] $end
$var wire 1 Q \ALT_INV_addr[1]~DUPLICATE_q\ $end
$var wire 1 R \ALT_INV_reset~input_o\ $end
$upscope $end
$upscope $end
$enddefinitions $end
#0
$dumpvars
0&
0'
0(
0)
1*
x+
1,
1-
1.
1/
10
11
02
03
09
x:
0;
0<
1=
0>
0?
0@
0A
0B
0C
0D
1E
0F
1Q
1R
04
05
06
07
08
0G
0H
0I
0J
0K
1L
1M
1N
1O
1P
0!
0"
0#
0$
0%
$end
#10000
1&
12
1;
1<
1K
1F
0P
0=
1?
19
18
1'
1%
#20000
0&
02
0;
0<
#30000
1&
12
1;
1<
0K
1J
1@
0Q
0O
1P
1=
17
08
0%
1$
#40000
0&
02
0;
0<
#50000
1&
12
1;
1<
1K
0P
0=
0?
1A
18
1%
#60000
0&
02
0;
0<
#70000
1&
12
1;
1<
0K
0J
1I
0@
1B
1Q
0N
1O
1P
1=
16
07
08
0%
0$
1#
#80000
0&
02
0;
0<
#90000
1&
12
1;
1<
1K
0P
0=
1?
18
1%
#100000
0&
02
0;
0<
#110000
1&
12
1;
1<
0K
1J
1@
0Q
0O
1P
1=
17
08
0%
1$
#120000
0&
02
0;
0<
#130000
1&
12
1;
1<
1K
0P
0=
0?
0A
1C
18
1%
#140000
0&
02
0;
0<
#150000
1&
12
1;
1<
0K
0J
0I
0@
0B
1H
0M
1Q
1N
1O
1P
1=
15
06
07
08
0%
0$
0#
1"
#160000
0&
02
0;
0<
#170000
1&
12
1;
1<
1K
0P
0=
1?
18
1%
#180000
0&
02
0;
0<
#190000
1&
12
1;
1<
0K
1J
1@
0Q
0O
1P
1=
17
08
0%
1$
#200000
0&
02
0;
0<
#210000
1&
12
1;
1<
1K
0P
0=
0?
1A
18
1%
#220000
0&
02
0;
0<
#230000
1&
12
1;
1<
0K
0J
1I
0@
1B
1Q
0N
1O
1P
1=
16
07
08
0%
0$
1#
#240000
0&
02
0;
0<
#250000
1&
12
1;
1<
1K
0P
0=
1?
18
1%
#260000
0&
02
0;
0<
#270000
1&
12
1;
1<
0K
1J
1@
0Q
0O
1P
1=
17
08
0%
1$
#280000
0&
02
0;
0<
#290000
1&
12
1;
1<
1K
0P
0=
0?
0A
0C
1D
18
1%
#300000
0&
02
0;
0<
#310000
1&
12
1;
1<
0K
0J
0I
0@
0B
0H
1G
0L
1M
1Q
1N
1O
1P
1=
14
05
06
07
08
0%
0$
0#
0"
1!
#320000
0&
02
0;
0<
#330000
1&
12
1;
1<
1K
0P
0=
1?
18
1%
#340000
0&
02
0;
0<
#350000
1&
12
1;
1<
0K
1J
1@
0Q
0O
1P
1=
17
08
0%
1$
#360000
0&
02
0;
0<
#370000
1&
12
1;
1<
1K
0P
0=
0?
1A
18
1%
#380000
0&
02
0;
0<
#390000
1&
12
1;
1<
0K
0J
1I
0@
1B
1Q
0N
1O
1P
1=
16
07
08
0%
0$
1#
#400000
0&
02
0;
0<
#410000
1&
12
1;
1<
1K
0P
0=
1?
18
1%
#420000
0&
02
0;
0<
#430000
1&
12
1;
1<
0K
1J
1@
0Q
0O
1P
1=
17
08
0%
1$
#440000
0&
02
0;
0<
#450000
1&
12
1;
1<
1K
0P
0=
0?
0A
1C
18
1%
#460000
0&
02
0;
0<
#470000
1&
12
1;
1<
0K
0J
0I
0@
0B
1H
0M
1Q
1N
1O
1P
1=
15
06
07
08
0%
0$
0#
1"
#480000
0&
02
0;
0<
#490000
1&
12
1;
1<
1K
0P
0=
1?
18
1%
#500000
0&
02
0;
0<
#510000
1&
12
1;
1<
0K
1J
1@
0Q
0O
1P
1=
17
08
0%
1$
#520000
0&
02
0;
0<
#530000
1&
12
1;
1<
1K
0P
0=
0?
1A
18
1%
#540000
0&
02
0;
0<
#550000
1&
12
1;
1<
0K
0J
1I
0@
1B
1Q
0N
1O
1P
1=
16
07
08
0%
0$
1#
#560000
0&
02
0;
0<
#570000
1&
12
1;
1<
1K
0P
0=
1?
18
1%
#580000
0&
02
0;
0<
#590000
1&
12
1;
1<
0K
1J
1@
0Q
0O
1P
1=
17
08
0%
1$
#600000
0&
02
0;
0<
#610000
1&
12
1;
1<
1K
0P
0=
0?
0A
0C
0D
18
1%
#620000
0&
02
0;
0<
#630000
1&
12
1;
1<
0K
0J
0I
0@
0B
0H
0G
1L
1M
1Q
1N
1O
1P
1=
04
05
06
07
08
0%
0$
0#
0"
0!
#640000
0&
02
0;
0<
#650000
1&
12
1;
1<
1K
0P
0=
1?
18
1%
#660000
0&
02
0;
0<
#670000
1&
12
1;
1<
0K
1J
1@
0Q
0O
1P
1=
17
08
0%
1$
#680000
0&
02
0;
0<
#690000
1&
12
1;
1<
1K
0P
0=
0?
1A
18
1%
#700000
0&
02
0;
0<
#710000
1&
12
1;
1<
0K
0J
1I
0@
1B
1Q
0N
1O
1P
1=
16
07
08
0%
0$
1#
#720000
0&
02
0;
0<
#730000
1&
12
1;
1<
1K
0P
0=
1?
18
1%
#740000
0&
02
0;
0<
#750000
1&
12
1;
1<
0K
1J
1@
0Q
0O
1P
1=
17
08
0%
1$
#760000
0&
02
0;
0<
#770000
1&
12
1;
1<
1K
0P
0=
0?
0A
1C
18
1%
#780000
0&
02
0;
0<
#790000
1&
12
1;
1<
0K
0J
0I
0@
0B
1H
0M
1Q
1N
1O
1P
1=
15
06
07
08
0%
0$
0#
1"
#800000
0&
02
0;
0<
#810000
1&
12
1;
1<
1K
0P
0=
1?
18
1%
#820000
0&
02
0;
0<
#830000
1&
12
1;
1<
0K
1J
1@
0Q
0O
1P
1=
17
08
0%
1$
#840000
0&
02
0;
0<
#850000
1&
12
1;
1<
1K
0P
0=
0?
1A
18
1%
#860000
0&
02
0;
0<
#870000
1&
12
1;
1<
0K
0J
1I
0@
1B
1Q
0N
1O
1P
1=
16
07
08
0%
0$
1#
#880000
0&
02
0;
0<
#890000
1&
12
1;
1<
1K
0P
0=
1?
18
1%
#900000
0&
02
0;
0<
#910000
1&
12
1;
1<
0K
1J
1@
0Q
0O
1P
1=
17
08
0%
1$
#920000
0&
02
0;
0<
#930000
1&
12
1;
1<
1K
0P
0=
0?
0A
0C
1D
18
1%
#940000
0&
02
0;
0<
#950000
1&
12
1;
1<
0K
0J
0I
0@
0B
0H
1G
0L
1M
1Q
1N
1O
1P
1=
14
05
06
07
08
0%
0$
0#
0"
1!
#960000
0&
02
0;
0<
#970000
1&
12
1;
1<
1K
0P
0=
1?
18
1%
#980000
0&
02
0;
0<
#990000
1&
12
1;
1<
0K
1J
1@
0Q
0O
1P
1=
17
08
0%
1$
