VHDL TEST/desplazamiento8bits/simulation/qsim/desplazamiento8bits.msim.vcd
$comment
	File created using the following command:
		vcd file desplazamiento8bits.msim.vcd -direction
$end
$date
	Mon Nov 18 14:52:24 2024
$end
$version
	ModelSim Version 2020.1
$end
$timescale
	1ps
$end

$scope module desplazamiento8bits_vhd_vec_tst $end
$var wire 1 ! clk $end
$var wire 1 " data_in [7] $end
$var wire 1 # data_in [6] $end
$var wire 1 $ data_in [5] $end
$var wire 1 % data_in [4] $end
$var wire 1 & data_in [3] $end
$var wire 1 ' data_in [2] $end
$var wire 1 ( data_in [1] $end
$var wire 1 ) data_in [0] $end
$var wire 1 * data_out [7] $end
$var wire 1 + data_out [6] $end
$var wire 1 , data_out [5] $end
$var wire 1 - data_out [4] $end
$var wire 1 . data_out [3] $end
$var wire 1 / data_out [2] $end
$var wire 1 0 data_out [1] $end
$var wire 1 1 data_out [0] $end
$var wire 1 2 en $end
$var wire 1 3 reset $end
$var wire 1 4 shift_in $end

$scope module i1 $end
$var wire 1 5 gnd $end
$var wire 1 6 vcc $end
$var wire 1 7 unknown $end
$var wire 1 8 devoe $end
$var wire 1 9 devclrn $end
$var wire 1 : devpor $end
$var wire 1 ; ww_devoe $end
$var wire 1 < ww_devclrn $end
$var wire 1 = ww_devpor $end
$var wire 1 > ww_clk $end
$var wire 1 ? ww_en $end
$var wire 1 @ ww_reset $end
$var wire 1 A ww_data_in [7] $end
$var wire 1 B ww_data_in [6] $end
$var wire 1 C ww_data_in [5] $end
$var wire 1 D ww_data_in [4] $end
$var wire 1 E ww_data_in [3] $end
$var wire 1 F ww_data_in [2] $end
$var wire 1 G ww_data_in [1] $end
$var wire 1 H ww_data_in [0] $end
$var wire 1 I ww_shift_in $end
$var wire 1 J ww_data_out [7] $end
$var wire 1 K ww_data_out [6] $end
$var wire 1 L ww_data_out [5] $end
$var wire 1 M ww_data_out [4] $end
$var wire 1 N ww_data_out [3] $end
$var wire 1 O ww_data_out [2] $end
$var wire 1 P ww_data_out [1] $end
$var wire 1 Q ww_data_out [0] $end
$var wire 1 R \data_in[0]~input_o\ $end
$var wire 1 S \~QUARTUS_CREATED_GND~I_combout\ $end
$var wire 1 T \clk~input_o\ $end
$var wire 1 U \clk~inputCLKENA0_outclk\ $end
$var wire 1 V \data_in[1]~input_o\ $end
$var wire 1 W \reg_data[0]~feeder_combout\ $end
$var wire 1 X \en~input_o\ $end
$var wire 1 Y \reset~input_o\ $end
$var wire 1 Z \reg_data[7]~0_combout\ $end
$var wire 1 [ \data_in[2]~input_o\ $end
$var wire 1 \ \data_in[3]~input_o\ $end
$var wire 1 ] \reg_data[2]~feeder_combout\ $end
$var wire 1 ^ \data_in[4]~input_o\ $end
$var wire 1 _ \reg_data[3]~feeder_combout\ $end
$var wire 1 ` \data_in[5]~input_o\ $end
$var wire 1 a \reg_data[4]~feeder_combout\ $end
$var wire 1 b \data_in[6]~input_o\ $end
$var wire 1 c \reg_data[5]~feeder_combout\ $end
$var wire 1 d \data_in[7]~input_o\ $end
$var wire 1 e \reg_data[6]~feeder_combout\ $end
$var wire 1 f \shift_in~input_o\ $end
$var wire 1 g \reg_data[7]~feeder_combout\ $end
$var wire 1 h reg_data [7] $end
$var wire 1 i reg_data [6] $end
$var wire 1 j reg_data [5] $end
$var wire 1 k reg_data [4] $end
$var wire 1 l reg_data [3] $end
$var wire 1 m reg_data [2] $end
$var wire 1 n reg_data [1] $end
$var wire 1 o reg_data [0] $end
$var wire 1 p \ALT_INV_data_in[1]~input_o\ $end
$var wire 1 q \ALT_INV_reset~input_o\ $end
$var wire 1 r \ALT_INV_en~input_o\ $end
$var wire 1 s \ALT_INV_data_in[3]~input_o\ $end
$var wire 1 t \ALT_INV_data_in[4]~input_o\ $end
$var wire 1 u \ALT_INV_data_in[5]~input_o\ $end
$var wire 1 v \ALT_INV_data_in[6]~input_o\ $end
$var wire 1 w \ALT_INV_data_in[7]~input_o\ $end
$var wire 1 x \ALT_INV_shift_in~input_o\ $end
$var wire 1 y \ALT_INV_reg_data[7]~0_combout\ $end
$upscope $end
$upscope $end
$enddefinitions $end
#0
$dumpvars
0!
12
03
14
05
16
x7
18
19
1:
1;
1<
1=
0>
1?
0@
1I
0R
xS
0T
0U
0V
0W
1X
0Y
0Z
1[
0\
0]
0^
0_
0`
0a
0b
0c
0d
0e
1f
1g
1p
1q
0r
1s
1t
1u
1v
1w
0x
1y
0"
0#
0$
0%
0&
1'
0(
0)
0A
0B
0C
0D
0E
1F
0G
0H
0J
0K
0L
0M
0N
0O
0P
0Q
0h
0i
0j
0k
0l
0m
0n
0o
0*
0+
0,
0-
0.
0/
00
01
$end
#10000
1!
1"
1#
1%
1&
1(
1)
1>
1H
1G
1E
1D
1B
1A
1d
1b
1^
1\
1V
1R
1T
1U
0p
0s
0t
0v
0w
1e
1c
1_
1]
1W
1n
1h
1J
1P
10
1*
#20000
0!
0%
0(
0'
04
0>
0G
0F
0D
0I
0f
0^
0[
0V
0T
0U
1p
1t
1x
0g
0_
0W
#30000
1!
1'
0"
0&
0)
1$
02
1>
0H
1F
0E
1C
0A
0?
0X
0d
1`
0\
1[
0R
1T
1U
1s
0u
1w
1r
1Z
0e
1a
0]
1m
1j
1i
0h
0y
0n
0m
0j
0i
0J
1K
1L
1O
1/
1,
1+
0*
0K
0L
0O
0P
00
0/
0,
0+
#40000
0!
0'
0$
1%
1(
0#
0>
1G
0F
1D
0C
0B
0b
0`
1^
0[
1V
0T
0U
0p
0t
1u
1v
0c
0a
1_
1W
#50000
1!
1#
1>
1B
1b
1T
1U
0v
1c
#60000
0!
0#
1'
0%
0(
1"
0>
0G
1F
0D
0B
1A
1d
0b
0^
1[
0V
0T
0U
1p
1t
1v
0w
1e
0c
0_
0W
#70000
1!
0'
1%
1&
1>
0F
1E
1D
1^
1\
0[
1T
1U
0s
0t
1_
1]
#80000
0!
0%
0&
1$
0>
0E
0D
1C
1`
0^
0\
0T
0U
1s
1t
0u
1a
0_
0]
#90000
1!
1%
1'
1#
0"
1>
1F
1D
1B
0A
0d
1b
1^
1[
1T
1U
0t
0v
1w
0e
1c
1_
#100000
0!
0'
0#
1&
1(
0>
1G
0F
1E
0B
0b
1\
0[
1V
0T
0U
0p
0s
1v
0c
1]
1W
#110000
1!
1'
1#
1"
1)
1>
1H
1F
1B
1A
1d
1b
1[
1R
1T
1U
0v
0w
1e
1c
#120000
0!
0)
0&
0>
0H
0E
0\
0R
0T
0U
1s
0]
#130000
1!
1>
1T
1U
#140000
0!
1)
1&
0"
0(
0%
0>
1H
0G
1E
0D
0A
0d
0^
1\
0V
1R
0T
0U
1p
0s
1t
1w
0e
0_
1]
0W
#150000
1!
0)
0&
1"
1%
0'
1>
0H
0F
0E
1D
1A
1d
1^
0\
0[
0R
1T
1U
1s
0t
0w
1e
1_
0]
#160000
0!
1&
0%
1(
0>
1G
1E
0D
0^
1\
1V
0T
0U
0p
0s
1t
0_
1]
1W
#170000
1!
0&
0(
1)
1>
1H
0G
0E
0\
0V
1R
1T
1U
1p
1s
0]
0W
#180000
0!
0"
0$
0>
0C
0A
0d
0`
0T
0U
1u
1w
0e
0a
#190000
1!
1$
1(
1>
1G
1C
1`
1V
1T
1U
0p
0u
1a
1W
#200000
0!
0$
0(
0)
1%
1'
0>
0H
0G
1F
1D
0C
0`
1^
1[
0V
0R
0T
0U
1p
0t
1u
0a
1_
0W
#210000
1!
1)
0%
1"
0#
1>
1H
0D
0B
1A
1d
0b
0^
1R
1T
1U
1t
1v
0w
1e
0c
0_
#220000
0!
0"
0>
0A
0d
0T
0U
1w
0e
#230000
1!
0)
1#
1(
0'
1&
1>
0H
1G
0F
1E
1B
1b
1\
0[
1V
0R
1T
1U
0p
0s
0v
1c
1]
1W
#240000
0!
1)
1%
0>
1H
1D
1^
1R
0T
0U
0t
1_
#250000
1!
0%
0#
0(
1'
1$
1>
0G
1F
0D
1C
0B
0b
1`
0^
1[
0V
1T
1U
1p
1t
0u
1v
0c
1a
0_
0W
#260000
0!
1#
1(
0'
0$
0&
0>
1G
0F
0E
0C
1B
1b
0`
0\
0[
1V
0T
0U
0p
1s
1u
0v
1c
0a
0]
1W
#270000
1!
1'
1$
1%
0)
1"
1>
0H
1F
1D
1C
1A
1d
1`
1^
1[
0R
1T
1U
0t
0u
0w
1e
1a
1_
#280000
0!
0$
0%
0"
0#
0(
0>
0G
0D
0C
0B
0A
0d
0b
0`
0^
0V
0T
0U
1p
1t
1u
1v
1w
0e
0c
0a
0_
0W
#290000
1!
1%
1#
1)
1>
1H
1D
1B
1b
1^
1R
1T
1U
0t
0v
1c
1_
#300000
0!
0%
1"
0'
0>
0F
0D
1A
1d
0^
0[
0T
0U
1t
0w
1e
0_
#310000
1!
0"
1'
0#
0)
1$
1>
0H
1F
1C
0B
0A
0d
0b
1`
1[
0R
1T
1U
0u
1v
1w
0e
0c
1a
#320000
0!
0'
0$
1(
0>
1G
0F
0C
0`
0[
1V
0T
0U
0p
1u
0a
1W
#330000
1!
1'
1#
1%
1>
1F
1D
1B
1b
1^
1[
1T
1U
0t
0v
1c
1_
#340000
0!
0'
0#
0(
1"
0>
0G
0F
0B
1A
1d
0b
0[
0V
0T
0U
1p
1v
0w
1e
0c
0W
#350000
1!
1(
0"
1&
1>
1G
1E
0A
0d
1\
1V
1T
1U
0p
0s
1w
0e
1]
1W
#360000
0!
1"
1'
1#
0%
1$
0>
1F
0D
1C
1B
1A
1d
1b
1`
0^
1[
0T
0U
1t
0u
0v
0w
1e
1c
1a
0_
#370000
1!
0'
0#
1%
0$
0(
1>
0G
0F
1D
0C
0B
0b
0`
1^
0[
0V
1T
1U
1p
0t
1u
1v
0c
0a
1_
0W
#380000
0!
1'
0&
1)
0>
1H
1F
0E
0\
1[
1R
0T
0U
1s
0]
#390000
1!
1&
0)
1$
0"
1>
0H
1E
1C
0A
0d
1`
1\
0R
1T
1U
0s
0u
1w
0e
1a
1]
#400000
0!
0&
0$
0%
1(
0>
1G
0E
0D
0C
0`
0^
0\
1V
0T
0U
0p
1s
1t
1u
0a
0_
0]
1W
#410000
1!
0(
0'
1#
1>
0G
0F
1B
1b
0[
0V
1T
1U
1p
0v
1c
0W
#420000
0!
1(
1'
0#
0>
1G
1F
0B
0b
1[
1V
0T
0U
0p
1v
0c
1W
#430000
1!
0(
0'
1#
1%
1"
1>
0G
0F
1D
1B
1A
1d
1b
1^
0[
0V
1T
1U
1p
0t
0v
0w
1e
1c
1_
0W
#440000
0!
0%
1)
0>
1H
0D
0^
1R
0T
0U
1t
0_
#450000
1!
1%
0)
1'
0#
0"
1>
0H
1F
1D
0B
0A
0d
0b
1^
1[
0R
1T
1U
0t
1v
1w
0e
0c
1_
#460000
0!
0%
0'
1#
1(
0>
1G
0F
0D
1B
1b
0^
0[
1V
0T
0U
0p
1t
0v
1c
0_
1W
#470000
1!
1'
0#
1)
1>
1H
1F
0B
0b
1[
1R
1T
1U
1v
0c
#480000
0!
0'
0)
0>
0H
0F
0[
0R
0T
0U
#490000
1!
1'
1"
1>
1F
1A
1d
1[
1T
1U
0w
1e
#500000
0!
1%
0>
1D
1^
0T
0U
0t
1_
#510000
1!
0'
1)
1#
1$
1>
1H
0F
1C
1B
1b
1`
0[
1R
1T
1U
0u
0v
1c
1a
#520000
0!
1'
0#
0"
0(
0>
0G
1F
0B
0A
0d
0b
1[
0V
0T
0U
1p
1v
1w
0e
0c
0W
#530000
1!
1#
1"
1(
0$
0%
1&
1>
1G
1E
0D
0C
1B
1A
1d
1b
0`
0^
1\
1V
1T
1U
0p
0s
1t
1u
0v
0w
1e
1c
0a
0_
1]
1W
#540000
0!
0#
0"
0&
0'
0>
0F
0E
0B
0A
0d
0b
0\
0[
0T
0U
1s
1v
1w
0e
0c
0]
#550000
1!
1"
1&
1'
0(
0)
1>
0H
0G
1F
1E
1A
1d
1\
1[
0V
0R
1T
1U
1p
0s
0w
1e
1]
0W
#560000
0!
0"
0&
1(
1)
1$
0>
1H
1G
0E
1C
0A
0d
1`
0\
1V
1R
0T
0U
0p
1s
0u
1w
0e
1a
0]
1W
#570000
1!
1#
1>
1B
1b
1T
1U
0v
1c
#580000
0!
0#
1&
0$
0'
1%
0>
0F
1E
1D
0C
0B
0b
0`
1^
1\
0[
0T
0U
0s
0t
1u
1v
0c
0a
1_
1]
#590000
1!
1$
1'
1"
0)
1>
0H
1F
1C
1A
1d
1`
1[
0R
1T
1U
0u
0w
1e
1a
#600000
0!
0'
0"
1#
0(
0>
0G
0F
1B
0A
0d
1b
0[
0V
0T
0U
1p
0v
1w
0e
1c
0W
#610000
1!
1"
0#
0$
1)
0&
1>
1H
0E
0C
0B
1A
1d
0b
0`
0\
1R
1T
1U
1s
1u
1v
0w
1e
0c
0a
0]
#620000
0!
1'
0>
1F
1[
0T
0U
#630000
1!
0"
1&
1(
1>
1G
1E
0A
0d
1\
1V
1T
1U
0p
0s
1w
0e
1]
1W
#640000
0!
0(
0%
0>
0G
0D
0^
0V
0T
0U
1p
1t
0_
0W
#650000
1!
1(
1%
1"
0&
0'
1#
1$
1>
1G
0F
0E
1D
1C
1B
1A
1d
1b
1`
1^
0\
0[
1V
1T
1U
0p
1s
0t
0u
0v
0w
1e
1c
1a
1_
0]
1W
#660000
0!
0(
0"
1'
0$
0)
0>
0H
0G
1F
0C
0A
0d
0`
1[
0V
0R
0T
0U
1p
1u
1w
0e
0a
0W
#670000
1!
1(
0'
1)
0%
1&
1>
1H
1G
0F
1E
0D
0^
1\
0[
1V
1R
1T
1U
0p
0s
1t
0_
1]
1W
#680000
0!
0(
0)
1%
0&
1$
0>
0H
0G
0E
1D
1C
1`
1^
0\
0V
0R
0T
0U
1p
1s
0t
0u
1a
1_
0]
0W
#690000
1!
1(
1)
0%
0$
1'
0#
1>
1H
1G
1F
0D
0C
0B
0b
0`
0^
1[
1V
1R
1T
1U
0p
1t
1u
1v
0c
0a
0_
1W
#700000
0!
0)
1%
1$
1"
0>
0H
1D
1C
1A
1d
1`
1^
0R
0T
0U
0t
0u
0w
1e
1a
1_
#710000
1!
1)
0%
0"
0(
1#
1&
1>
1H
0G
1E
0D
1B
0A
0d
1b
0^
1\
0V
1R
1T
1U
1p
0s
1t
0v
1w
0e
1c
0_
1]
0W
#720000
0!
1(
0$
0'
0>
1G
0F
0C
0`
0[
1V
0T
0U
0p
1u
0a
1W
#730000
1!
0(
1$
0)
1%
0#
1>
0H
0G
1D
1C
0B
0b
1`
1^
0V
0R
1T
1U
1p
0t
0u
1v
0c
1a
1_
0W
#740000
0!
1(
0$
1)
1'
1"
0&
0>
1H
1G
1F
0E
0C
1A
1d
0`
0\
1[
1V
1R
0T
0U
0p
1s
1u
0w
1e
0a
0]
1W
#750000
1!
0"
1&
1>
1E
0A
0d
1\
1T
1U
0s
1w
0e
1]
#760000
0!
1"
0)
1#
0>
0H
1B
1A
1d
1b
0R
0T
0U
0v
0w
1e
1c
#770000
1!
0#
0&
0(
1$
0'
1>
0G
0F
0E
1C
0B
0b
1`
0\
0[
0V
1T
1U
1p
1s
0u
1v
0c
1a
0]
0W
#780000
0!
1#
1(
0$
1)
0%
0>
1H
1G
0D
0C
1B
1b
0`
0^
1V
1R
0T
0U
0p
1t
1u
0v
1c
0a
0_
1W
#790000
1!
0#
0(
1&
0"
1>
0G
1E
0B
0A
0d
0b
1\
0V
1T
1U
1p
0s
1v
1w
0e
0c
1]
0W
#800000
0!
1#
1"
0)
1'
0>
0H
1F
1B
1A
1d
1b
1[
0R
0T
0U
0v
0w
1e
1c
#810000
1!
0#
0"
1(
0&
1$
1%
1>
1G
0E
1D
1C
0B
0A
0d
0b
1`
1^
0\
1V
1T
1U
0p
1s
0t
0u
1v
1w
0e
0c
1a
1_
0]
1W
#820000
0!
1#
0(
0$
0%
0'
0>
0G
0F
0D
0C
1B
1b
0`
0^
0[
0V
0T
0U
1p
1t
1u
0v
1c
0a
0_
0W
#830000
1!
0#
1%
1'
1&
1)
1>
1H
1F
1E
1D
0B
0b
1^
1\
1[
1R
1T
1U
0s
0t
1v
0c
1_
1]
#840000
0!
1#
0%
0'
0&
0)
1"
0>
0H
0F
0E
0D
1B
1A
1d
1b
0^
0\
0[
0R
0T
0U
1s
1t
0v
0w
1e
1c
0_
0]
#850000
1!
1%
1'
1&
1)
1(
1$
1>
1H
1G
1F
1E
1D
1C
1`
1^
1\
1[
1V
1R
1T
1U
0p
0s
0t
0u
1a
1_
1]
1W
#860000
0!
0%
0&
0$
0#
0>
0E
0D
0C
0B
0b
0`
0^
0\
0T
0U
1s
1t
1u
1v
0c
0a
0_
0]
#870000
1!
1%
1&
0'
0)
0(
1>
0H
0G
0F
1E
1D
1^
1\
0[
0V
0R
1T
1U
1p
0s
0t
1_
1]
0W
#880000
0!
0&
1'
1(
1#
0>
1G
1F
0E
1B
1b
0\
1[
1V
0T
0U
0p
1s
0v
1c
0]
1W
#890000
1!
0(
0#
1)
1$
1>
1H
0G
1C
0B
0b
1`
0V
1R
1T
1U
1p
0u
1v
0c
1a
0W
#900000
0!
1#
0)
0$
1&
0'
0%
0"
0>
0H
0F
1E
0D
0C
1B
0A
0d
1b
0`
0^
1\
0[
0R
0T
0U
0s
1t
1u
0v
1w
0e
1c
0a
0_
1]
#910000
1!
1$
1'
1%
1"
1(
1>
1G
1F
1D
1C
1A
1d
1`
1^
1[
1V
1T
1U
0p
0t
0u
0w
1e
1a
1_
1W
#920000
0!
0$
0'
0%
0"
0(
1)
0&
0>
1H
0G
0F
0E
0D
0C
0A
0d
0`
0^
0\
0[
0V
1R
0T
0U
1p
1s
1t
1u
1w
0e
0a
0_
0]
0W
#930000
1!
1$
1%
1(
1>
1G
1D
1C
1`
1^
1V
1T
1U
0p
0t
0u
1a
1_
1W
#940000
0!
0$
0%
0(
1"
0)
1&
0#
0>
0H
0G
1E
0D
0C
0B
1A
1d
0b
0`
0^
1\
0V
0R
0T
0U
1p
0s
1t
1u
1v
0w
1e
0c
0a
0_
1]
0W
#950000
1!
1(
0"
1)
0&
1'
1>
1H
1G
1F
0E
0A
0d
0\
1[
1V
1R
1T
1U
0p
1s
1w
0e
0]
1W
#960000
0!
1$
0>
1C
1`
0T
0U
0u
1a
#970000
1!
0(
1"
1>
0G
1A
1d
0V
1T
1U
1p
0w
1e
0W
#980000
0!
1(
0"
0$
1%
0>
1G
1D
0C
0A
0d
0`
1^
1V
0T
0U
0p
0t
1u
1w
0e
0a
1_
1W
#990000
1!
0(
1$
0%
0)
1&
0'
1>
0H
0G
0F
1E
0D
1C
1`
0^
1\
0[
0V
0R
1T
1U
1p
0s
1t
0u
1a
0_
1]
0W
