VHDL TEST/andgate8Bits/simulation/qsim/andgate8bits.msim.vcd
$comment
	File created using the following command:
		vcd file andgate8bits.msim.vcd -direction
$end
$date
	Mon Nov 18 14:20:33 2024
$end
$version
	ModelSim Version 2020.1
$end
$timescale
	1ps
$end

$scope module andgate8bits_vhd_vec_tst $end
$var wire 1 ! A [7] $end
$var wire 1 " A [6] $end
$var wire 1 # A [5] $end
$var wire 1 $ A [4] $end
$var wire 1 % A [3] $end
$var wire 1 & A [2] $end
$var wire 1 ' A [1] $end
$var wire 1 ( A [0] $end
$var wire 1 ) B [7] $end
$var wire 1 * B [6] $end
$var wire 1 + B [5] $end
$var wire 1 , B [4] $end
$var wire 1 - B [3] $end
$var wire 1 . B [2] $end
$var wire 1 / B [1] $end
$var wire 1 0 B [0] $end
$var wire 1 1 C [7] $end
$var wire 1 2 C [6] $end
$var wire 1 3 C [5] $end
$var wire 1 4 C [4] $end
$var wire 1 5 C [3] $end
$var wire 1 6 C [2] $end
$var wire 1 7 C [1] $end
$var wire 1 8 C [0] $end

$scope module i1 $end
$var wire 1 9 gnd $end
$var wire 1 : vcc $end
$var wire 1 ; unknown $end
$var wire 1 < devoe $end
$var wire 1 = devclrn $end
$var wire 1 > devpor $end
$var wire 1 ? ww_devoe $end
$var wire 1 @ ww_devclrn $end
$var wire 1 A ww_devpor $end
$var wire 1 B ww_A [7] $end
$var wire 1 C ww_A [6] $end
$var wire 1 D ww_A [5] $end
$var wire 1 E ww_A [4] $end
$var wire 1 F ww_A [3] $end
$var wire 1 G ww_A [2] $end
$var wire 1 H ww_A [1] $end
$var wire 1 I ww_A [0] $end
$var wire 1 J ww_B [7] $end
$var wire 1 K ww_B [6] $end
$var wire 1 L ww_B [5] $end
$var wire 1 M ww_B [4] $end
$var wire 1 N ww_B [3] $end
$var wire 1 O ww_B [2] $end
$var wire 1 P ww_B [1] $end
$var wire 1 Q ww_B [0] $end
$var wire 1 R ww_C [7] $end
$var wire 1 S ww_C [6] $end
$var wire 1 T ww_C [5] $end
$var wire 1 U ww_C [4] $end
$var wire 1 V ww_C [3] $end
$var wire 1 W ww_C [2] $end
$var wire 1 X ww_C [1] $end
$var wire 1 Y ww_C [0] $end
$var wire 1 Z \~QUARTUS_CREATED_GND~I_combout\ $end
$var wire 1 [ \A[0]~input_o\ $end
$var wire 1 \ \B[0]~input_o\ $end
$var wire 1 ] \C~0_combout\ $end
$var wire 1 ^ \B[1]~input_o\ $end
$var wire 1 _ \A[1]~input_o\ $end
$var wire 1 ` \C~1_combout\ $end
$var wire 1 a \A[2]~input_o\ $end
$var wire 1 b \B[2]~input_o\ $end
$var wire 1 c \C~2_combout\ $end
$var wire 1 d \A[3]~input_o\ $end
$var wire 1 e \B[3]~input_o\ $end
$var wire 1 f \C~3_combout\ $end
$var wire 1 g \A[4]~input_o\ $end
$var wire 1 h \B[4]~input_o\ $end
$var wire 1 i \C~4_combout\ $end
$var wire 1 j \A[5]~input_o\ $end
$var wire 1 k \B[5]~input_o\ $end
$var wire 1 l \C~5_combout\ $end
$var wire 1 m \B[6]~input_o\ $end
$var wire 1 n \A[6]~input_o\ $end
$var wire 1 o \C~6_combout\ $end
$var wire 1 p \A[7]~input_o\ $end
$var wire 1 q \B[7]~input_o\ $end
$var wire 1 r \C~7_combout\ $end
$var wire 1 s \ALT_INV_A[0]~input_o\ $end
$var wire 1 t \ALT_INV_B[0]~input_o\ $end
$var wire 1 u \ALT_INV_A[1]~input_o\ $end
$var wire 1 v \ALT_INV_B[1]~input_o\ $end
$var wire 1 w \ALT_INV_A[2]~input_o\ $end
$var wire 1 x \ALT_INV_A[3]~input_o\ $end
$var wire 1 y \ALT_INV_B[2]~input_o\ $end
$var wire 1 z \ALT_INV_B[3]~input_o\ $end
$var wire 1 { \ALT_INV_A[4]~input_o\ $end
$var wire 1 | \ALT_INV_B[4]~input_o\ $end
$var wire 1 } \ALT_INV_A[5]~input_o\ $end
$var wire 1 ~ \ALT_INV_B[5]~input_o\ $end
$var wire 1 !! \ALT_INV_A[6]~input_o\ $end
$var wire 1 "! \ALT_INV_B[6]~input_o\ $end
$var wire 1 #! \ALT_INV_A[7]~input_o\ $end
$var wire 1 $! \ALT_INV_B[7]~input_o\ $end
$upscope $end
$upscope $end
$enddefinitions $end
#0
$dumpvars
09
1:
x;
1<
1=
1>
1?
1@
1A
xZ
0[
0\
0]
1^
1_
1`
0a
1b
0c
1d
1e
1f
1g
1h
1i
1j
1k
1l
1m
0n
0o
1p
1q
1r
1s
1t
0u
0v
1w
0x
0y
0z
0{
0|
0}
0~
1!!
0"!
0#!
0$!
1!
0"
1#
1$
1%
0&
1'
0(
1)
1*
1+
1,
1-
1.
1/
00
1B
0C
1D
1E
1F
0G
1H
0I
1J
1K
1L
1M
1N
1O
1P
0Q
1R
0S
1T
1U
1V
0W
1X
0Y
11
02
13
14
15
06
17
08
$end
#10000
0!
1"
0#
0%
1&
0)
0*
0,
0/
1G
0F
0D
1C
0B
0P
0M
0K
0J
0q
0m
0h
0^
0p
1n
0j
0d
1a
0w
1x
1}
0!!
1#!
1v
1|
1"!
1$!
0i
0`
0r
0l
0f
1c
1W
0V
0T
0R
0X
0U
07
16
05
04
03
01
#20000
1!
0"
1#
1%
0&
1,
1/
0+
0.
0G
1F
1D
0C
1B
1P
0O
1M
0L
0k
1h
0b
1^
1p
0n
1j
1d
0a
1w
0x
0}
1!!
0#!
0v
1y
0|
1~
1i
1`
1f
0c
0W
1V
1X
1U
17
06
15
14
#30000
0%
1&
0,
0/
1+
1*
0'
0H
1G
0F
0P
0M
1L
1K
1m
1k
0h
0^
0d
1a
0_
1u
0w
1x
1v
1|
0~
0"!
1l
0i
0f
0`
0X
0V
0U
1T
07
05
04
13
#40000
1%
1,
0*
0#
1)
0$
1(
0-
1I
1F
0E
0D
0N
1M
0K
1J
1q
0m
1h
0e
0j
0g
1d
1[
0s
0x
1{
1}
1z
0|
1"!
0$!
1r
0l
0T
1R
03
11
#50000
1#
0)
1-
0+
0!
1"
1.
1D
1C
0B
1O
1N
0L
0J
0q
0k
1e
1b
0p
1n
1j
0}
0!!
1#!
0y
0z
1~
1$!
1f
1c
0r
0R
1W
1V
16
15
01
#60000
0#
1)
1!
0.
0,
1$
10
1E
0D
1B
1Q
0O
0M
1J
1q
0h
0b
1\
1p
0j
1g
0{
1}
0#!
0t
1y
1|
0$!
0c
1]
1r
1R
1Y
0W
18
06
11
#70000
0$
0-
1+
0"
0%
0(
1/
0I
0F
0E
0C
1P
0N
1L
1k
0e
1^
0n
0g
0d
0[
1s
1x
1{
1!!
0v
1z
0~
0f
0]
0Y
0V
08
05
#80000
1$
0+
1"
1(
0/
1.
1'
1I
1H
1E
1C
0P
1O
0L
0k
1b
0^
1n
1g
1_
1[
0s
0u
0{
0!!
1v
0y
1~
1c
1]
1Y
1W
18
16
#90000
0$
1+
1%
0)
0!
00
1*
1F
0E
0B
0Q
1L
1K
0J
0q
1m
1k
0\
0p
0g
1d
0x
1{
1#!
1t
0~
0"!
1$!
1o
0]
0r
0R
0Y
1S
08
12
01
#100000
1)
1!
0*
0"
1/
0.
1-
1#
0&
1P
0O
1N
0K
1J
0G
1D
0C
1B
1p
0n
1j
0a
1q
0m
1e
0b
1^
0v
1y
0z
1"!
0$!
1w
0}
1!!
0#!
1l
1r
0o
1f
0c
1`
1X
0W
1V
0S
1R
1T
17
06
15
13
02
11
#110000
0)
0!
1"
1.
0-
1&
1$
0+
0%
0'
1O
0N
0L
0J
0H
1G
0F
1E
1C
0B
0p
1n
1g
0d
1a
0_
0q
0k
0e
1b
0y
1z
1~
1$!
1u
0w
1x
0{
0!!
1#!
0`
0r
0l
0f
1c
1W
0V
0T
0R
0X
07
16
05
03
01
#120000
1)
0.
1+
1%
10
0(
1,
1Q
0O
1M
1L
1J
0I
1F
1d
0[
1q
1k
1h
0b
1\
0t
1y
0|
0~
0$!
1s
0x
1l
1i
0c
0W
1U
1T
06
14
13
#130000
0)
1.
0%
1!
1-
0&
1*
0#
1O
1N
1K
0J
0G
0F
0D
1B
1p
0j
0d
0a
0q
1m
1e
1b
0y
0z
0"!
1$!
1w
1x
1}
0#!
0l
1o
1S
0T
03
12
#140000
0.
1%
0!
0*
0+
00
1(
0"
0/
0Q
0P
0O
0L
0K
1I
1F
0C
0B
0p
0n
1d
1[
0m
0k
0b
0^
0\
1t
1v
1y
1~
1"!
0s
0x
1!!
1#!
1f
0o
0S
1V
15
02
#150000
1.
1!
1/
1)
0-
1&
1P
1O
0N
1J
1G
1B
1p
1a
1q
0e
1b
1^
0v
0y
1z
0$!
0w
0#!
1r
0f
1c
1W
0V
1R
16
05
11
#160000
0.
0!
0)
1-
0%
1*
1+
10
0(
1"
1Q
0O
1N
1L
1K
0J
0I
0F
1C
0B
0p
1n
0d
0[
0q
1m
1k
1e
0b
1\
0t
1y
0z
0~
0"!
1$!
1s
1x
0!!
1#!
0r
1o
0c
0W
1S
0R
06
12
01
#170000
1.
1!
1%
0+
00
1(
0&
1#
0,
0Q
1O
0M
0L
1I
0G
1F
1D
1B
1p
1j
1d
0a
1[
0k
0h
1b
0\
1t
0y
1|
1~
0s
1w
0x
0}
0#!
1f
0i
0U
1V
15
04
#180000
0.
0!
0%
10
0(
1,
0-
0*
0/
0$
1'
1Q
0P
0O
0N
1M
0K
0I
1H
0F
0E
0B
0p
0g
0d
1_
0[
0m
1h
0e
0b
0^
1\
0t
1v
1y
1z
0|
1"!
1s
0u
1x
1{
1#!
0o
0f
0V
0S
05
02
#190000
1%
1(
1/
1$
0'
1+
0#
0"
1I
0H
1F
1E
0D
0C
1P
1L
1k
1^
0n
0j
1g
1d
0_
1[
0s
1u
0x
0{
1}
1!!
0v
0~
1i
1]
1Y
1U
18
14
#200000
1#
1.
00
1D
0Q
1O
1b
0\
1j
0}
1t
0y
0]
1l
1T
0Y
08
13
#210000
0#
0(
1-
0I
0D
1N
1e
0j
0[
1s
1}
0z
1f
0l
0T
1V
15
03
#220000
1#
10
0/
0$
0,
1*
1)
0E
1D
1Q
0P
0M
1K
1J
1q
1m
0h
0^
1\
1j
0g
1{
0}
0t
1v
1|
0"!
0$!
1l
0i
0U
1T
04
13
#230000
0#
1/
1$
0*
0)
1(
0-
0.
0%
1I
0F
1E
0D
1P
0O
0N
0K
0J
0q
0m
0e
0b
1^
0j
1g
0d
1[
0s
1x
0{
1}
0v
1y
1z
1"!
1$!
0l
0f
1]
1Y
0V
0T
18
05
03
#240000
1#
1*
1)
0(
1-
1%
1,
1'
1"
1!
0I
1H
1F
1D
1C
1B
1N
1M
1K
1J
1q
1m
1h
1e
1p
1n
1j
1d
1_
0[
1s
0u
0x
0}
0!!
0#!
0z
0|
0"!
0$!
1i
1r
1o
1l
1f
1`
0]
0Y
1X
1V
1T
1S
1R
1U
08
17
15
14
13
12
11
#250000
0#
0-
0%
0,
0'
0!
00
1&
0H
1G
0F
0D
0B
0Q
0N
0M
0h
0e
0\
0p
0j
0d
1a
0_
1u
0w
1x
1}
1#!
1t
1z
1|
0i
0r
0l
0f
0`
0X
0V
0T
0R
0U
07
05
04
03
01
#260000
1%
1'
0&
0)
1(
0"
0$
1.
1I
1H
0G
1F
0E
0C
1O
0J
0q
1b
0n
0g
1d
0a
1_
1[
0s
0u
1w
0x
1{
1!!
0y
1$!
0o
1`
1X
0S
17
02
#270000
0%
0'
0(
1#
1-
1!
0/
0+
0I
0H
0F
1D
1B
0P
1N
0L
0k
1e
0^
1p
1j
0d
0_
0[
1s
1u
1x
0}
0#!
1v
0z
1~
0`
0X
07
#280000
1%
0#
0-
1+
1&
1)
1$
1,
10
1G
1F
1E
0D
1Q
0N
1M
1L
1J
1q
1k
1h
0e
1\
0j
1g
1d
1a
0w
0x
0{
1}
0t
1z
0|
0~
0$!
1r
1i
1c
1W
1U
1R
16
14
11
#290000
0%
1#
1-
0+
0)
00
1'
0!
1/
1"
0.
1H
0F
1D
1C
0B
0Q
1P
0O
1N
0L
0J
0q
0k
1e
0b
1^
0\
0p
1n
1j
0d
1_
0u
1x
0}
0!!
1#!
1t
0v
1y
0z
1~
1$!
0c
0r
1o
1`
1X
1S
0R
0W
17
06
12
01
#300000
0-
1+
1!
0/
0"
0$
0*
0P
0N
1L
0K
0E
0C
1B
1p
0n
0g
0m
1k
0e
0^
1v
1z
0~
1"!
1{
1!!
0#!
0i
0o
1l
0`
0X
1T
0S
0U
07
04
13
02
#310000
1-
0+
0!
1"
1$
1)
10
1.
1(
1Q
1O
1N
0L
1J
1I
1E
1C
0B
0p
1n
1g
1[
1q
0k
1e
1b
1\
0t
0y
0z
1~
0$!
0s
0{
0!!
1#!
1i
0l
1c
1]
1Y
1W
0T
1U
18
16
14
03
#320000
0-
1+
1!
0"
0$
0.
1/
1*
0,
1P
0O
0N
0M
1L
1K
0E
0C
1B
1p
0n
0g
1m
1k
0h
0e
0b
1^
0v
1y
1z
1|
0~
0"!
1{
1!!
0#!
1r
1l
0i
0c
1`
1X
0W
0U
1T
1R
17
06
04
13
11
#330000
0!
1"
1$
1.
0/
1,
0)
0(
0&
0I
0G
1E
1C
0B
0P
1O
1M
0J
0q
1h
1b
0^
0p
1n
1g
0a
0[
1s
1w
0{
0!!
1#!
1v
0y
0|
1$!
0`
0r
1o
1i
0]
0Y
1U
1S
0R
0X
08
07
14
12
01
#340000
0"
0$
0,
1(
1&
0+
0'
1I
0H
1G
0E
0C
0M
0L
0k
0h
0n
0g
1a
0_
1[
0s
1u
0w
1{
1!!
1|
1~
0l
0o
0i
1c
1]
1Y
1W
0U
0S
0T
18
16
04
03
02
#350000
1"
1,
0&
1+
1'
1!
0.
1/
1)
1-
0*
00
0#
1H
0G
0D
1C
1B
0Q
1P
0O
1N
1M
1L
0K
1J
1q
0m
1k
1h
1e
0b
1^
0\
1p
1n
0j
0a
1_
0u
1w
1}
0!!
0#!
1t
0v
1y
0z
0|
0~
1"!
0$!
0]
1r
0c
1`
1X
0W
1R
0Y
08
17
06
11
#360000
1&
0+
0'
1.
0/
10
1#
0(
1%
0I
0H
1G
1F
1D
1Q
0P
1O
0L
0k
1b
0^
1\
1j
1d
1a
0_
0[
1s
1u
0w
0x
0}
0t
1v
0y
1~
1f
1c
0`
0X
1W
1V
07
16
15
#370000
1'
0#
1(
0%
0,
0)
0-
1*
1I
1H
0F
0D
0N
0M
1K
0J
0q
1m
0h
0e
0j
0d
1_
1[
0s
0u
1x
1}
1z
1|
0"!
1$!
0r
1o
0f
1]
1Y
0V
1S
0R
18
05
12
01
#380000
0'
1#
1%
1)
0*
1+
00
0!
0H
1F
1D
0B
0Q
1L
0K
1J
1q
0m
1k
0\
0p
1j
1d
0_
1u
0x
0}
1#!
1t
0~
1"!
0$!
0o
0]
1l
1T
0Y
0S
08
13
02
#390000
1'
0%
0)
1*
10
1!
1,
0&
0.
1H
0G
0F
1B
1Q
0O
1M
1K
0J
0q
1m
1h
0b
1\
1p
0d
0a
1_
0u
1w
1x
0#!
0t
1y
0|
0"!
1$!
1o
1]
0c
0W
1Y
1S
18
06
12
#400000
0'
1%
0*
00
0!
0,
1.
0#
0+
1-
0H
1F
0D
0B
0Q
1O
1N
0M
0L
0K
0m
0k
0h
1e
1b
0\
0p
0j
1d
0_
1u
0x
1}
1#!
1t
0y
0z
1|
1~
1"!
0o
0]
0l
1f
1V
0T
0Y
0S
08
15
03
02
#410000
1'
0%
10
1!
0.
1#
0-
0(
1/
0"
0I
1H
0F
1D
0C
1B
1Q
1P
0O
0N
0e
0b
1^
1\
1p
0n
1j
0d
1_
0[
1s
0u
1x
0}
1!!
0#!
0t
0v
1y
1z
0f
1`
1X
0V
17
05
#420000
1%
0#
1(
0/
1+
1)
1$
1I
1F
1E
0D
0P
1L
1J
1q
1k
0^
0j
1g
1d
1[
0s
0x
0{
1}
1v
0~
0$!
1r
0`
1]
1Y
0X
1R
18
07
11
#430000
0%
1#
1/
0)
0$
00
0!
1"
1,
0F
0E
1D
1C
0B
0Q
1P
1M
0J
0q
1h
1^
0\
0p
1n
1j
0g
0d
1x
1{
0}
0!!
1#!
1t
0v
0|
1$!
1`
0]
0r
1l
1T
0R
0Y
1X
08
17
13
01
#440000
0#
0/
1)
1!
0,
1*
0D
1B
0P
0M
1K
1J
1q
1m
0h
0^
1p
0j
1}
0#!
1v
1|
0"!
0$!
1o
0`
1r
0l
0T
1R
0X
1S
07
03
12
11
#450000
1/
1,
0*
1%
0(
0+
1-
1&
1P
1N
1M
0L
0K
0I
1G
1F
1d
1a
0[
0m
0k
1h
1e
1^
0v
0z
0|
1~
1"!
1s
0w
0x
0o
1f
1`
1X
1V
0S
17
15
02
#460000
0/
0,
0%
1+
0-
0&
0!
1$
10
0"
1.
1Q
0P
1O
0N
0M
1L
0G
0F
1E
0C
0B
0p
0n
1g
0d
0a
1k
0h
0e
1b
0^
1\
0t
1v
0y
1z
1|
0~
1w
1x
0{
1!!
1#!
0r
0f
0`
0X
0V
0R
07
05
01
#470000
1/
1,
0+
1-
1!
0.
1(
1#
1P
0O
1N
1M
0L
1I
1D
1B
1p
1j
1[
0k
1h
1e
0b
1^
0v
1y
0z
0|
1~
0s
0}
0#!
1r
1]
1i
1`
1X
1U
1Y
1R
18
17
14
11
#480000
1.
0(
0#
1%
1&
0$
1"
1*
0)
1O
1K
0J
0I
1G
1F
0E
0D
1C
1n
0j
0g
1d
1a
0[
0q
1m
1b
0y
0"!
1$!
1s
0w
0x
1{
1}
0!!
0i
1f
0]
0r
1o
1c
1W
1S
0R
0Y
1V
0U
08
16
15
04
12
01
#490000
0.
1(
1#
1$
0"
0*
1)
0/
0-
0P
0O
0N
0K
1J
1I
1E
1D
0C
0n
1j
1g
1[
1q
0m
0e
0b
0^
1v
1y
1z
1"!
0$!
0s
0{
0}
1!!
1i
1]
1r
0o
0f
0c
0`
0X
0W
0V
0S
1R
1Y
1U
18
07
06
05
14
02
11
#500000
1.
0(
0#
1*
0)
1-
0%
0&
1+
0'
1O
1N
1L
1K
0J
0I
0H
0G
0F
0D
0j
0d
0a
0_
0[
0q
1m
1k
1e
1b
0y
0z
0~
0"!
1$!
1s
1u
1w
1x
1}
0]
0r
0R
0Y
08
01
#510000
0.
1(
1)
0-
1%
1'
1/
0!
00
0Q
1P
0O
0N
1J
1I
1H
1F
0B
0p
1d
1_
1[
1q
0e
0b
1^
0\
1t
0v
1y
1z
0$!
0s
0u
0x
1#!
1`
1X
17
#520000
1.
1-
1!
1#
0*
0+
0,
1O
1N
0M
0L
0K
1D
1B
1p
1j
0m
0k
0h
1e
1b
0y
0z
1|
1~
1"!
0}
0#!
1r
0i
1f
1V
0U
1R
15
04
11
#530000
0!
0#
1+
1,
0)
0'
0/
1"
0H
0D
1C
0B
0P
1M
1L
0J
0q
1k
1h
0^
0p
1n
0j
0_
1u
1}
0!!
1#!
1v
0|
0~
1$!
1i
0r
0`
0X
0R
1U
07
14
01
#540000
1!
1#
0+
1/
0"
0.
0%
1&
0$
1G
0F
0E
1D
0C
1B
1P
0O
0L
0k
0b
1^
1p
0n
1j
0g
0d
1a
0w
1x
1{
0}
1!!
0#!
0v
1y
1~
0i
0f
0V
0U
05
04
#550000
1+
0/
1%
0&
1$
1)
1'
10
1Q
0P
1L
1J
1H
0G
1F
1E
1g
1d
0a
1_
1q
1k
0^
1\
0t
1v
0~
0$!
0u
1w
0x
0{
1i
1f
1r
1l
1]
1Y
1T
1R
1V
1U
18
15
14
13
11
#560000
0+
0%
0$
0)
00
0#
1.
0-
0Q
1O
0N
0L
0J
0F
0E
0D
0j
0g
0d
0q
0k
0e
1b
0\
1t
0y
1z
1~
1$!
1x
1{
1}
0i
0r
0l
0f
0]
0Y
0V
0T
0R
0U
08
05
04
03
01
#570000
1%
1$
1#
1-
1/
0!
1"
1*
1F
1E
1D
1C
0B
1P
1N
1K
1m
1e
1^
0p
1n
1j
1g
1d
0x
0{
0}
0!!
1#!
0v
0z
0"!
1`
1o
1i
1f
1V
1U
1S
1X
17
15
14
12
#580000
0%
0#
0-
1!
0"
1+
1)
10
1&
0(
0I
1G
0F
0D
0C
1B
1Q
0N
1L
1J
1q
1k
0e
1\
1p
0n
0j
0d
1a
0[
1s
0w
1x
1}
1!!
0#!
0t
1z
0~
0$!
1r
0o
0f
1c
1W
0V
0S
1R
16
05
02
11
#590000
1%
1"
0)
0&
0*
0.
0,
0G
1F
1C
0O
0M
0K
0J
0q
0m
0h
0b
1n
1d
0a
1w
0x
0!!
1y
1|
1"!
1$!
0r
0i
0c
0W
0U
0R
06
04
01
#600000
1&
1*
1#
1(
0$
1I
1G
0E
1D
1K
1m
1j
0g
1a
1[
0s
0w
1{
0}
0"!
1o
1l
1]
1Y
1T
1S
18
13
12
#610000
0&
0*
0(
1$
0%
1)
1.
1,
0!
0+
0/
0'
0I
0H
0G
0F
1E
0B
0P
1O
1M
0L
0K
1J
1q
0m
0k
1h
1b
0^
0p
1g
0d
0a
0_
0[
1s
1u
1w
1x
0{
1#!
1v
0y
0|
1~
1"!
0$!
0o
0l
1i
0`
0]
0Y
0X
1U
0T
0S
08
07
14
03
02
#620000
1%
1/
1'
0#
0"
00
1H
1F
0D
0C
0Q
1P
1^
0\
0n
0j
1d
1_
0u
0x
1}
1!!
1t
0v
1`
1X
17
#630000
0/
0'
1#
1"
1(
0)
1+
1-
0P
1N
1L
0J
1I
0H
1D
1C
1n
1j
0_
1[
0q
1k
1e
0^
1v
0z
0~
1$!
0s
1u
0}
0!!
1l
1f
0`
0X
1V
1T
07
15
13
#640000
0"
0(
1)
0-
10
1&
1*
0$
0.
0,
1!
0I
1G
0E
0C
1B
1Q
0O
0N
0M
1K
1J
1q
1m
0h
0e
0b
1\
1p
0n
0g
1a
0[
1s
0w
1{
1!!
0#!
0t
1y
1z
1|
0"!
0$!
0f
1r
0i
0U
1R
0V
05
04
11
#650000
1(
0)
0&
0*
1.
1,
0!
1/
1'
0#
0%
1I
1H
0G
0F
0D
0B
1P
1O
1M
0K
0J
0q
0m
1h
1b
1^
0p
0j
0d
0a
1_
1[
0s
0u
1w
1x
1}
1#!
0v
0y
0|
1"!
1$!
0r
0l
1`
1]
1Y
1X
0T
0R
18
17
03
01
#660000
1&
1*
0.
0/
1"
1-
0+
1G
1C
0P
0O
1N
0L
1K
1m
0k
1e
0b
0^
1n
1a
0w
0!!
1v
1y
0z
1~
0"!
0`
1o
1S
0X
07
12
#670000
0&
0*
0"
1+
0(
1!
1#
1%
1$
0I
0G
1F
1E
1D
0C
1B
1L
0K
0m
1k
1p
0n
1j
1g
1d
0a
0[
1s
1w
0x
0{
0}
1!!
0#!
0~
1"!
0o
1l
1i
1f
0]
0Y
1V
1U
1T
0S
08
15
14
13
02
#680000
1&
1*
0+
0!
0#
0%
1.
1/
0,
0'
0H
1G
0F
0D
0B
1P
1O
0M
0L
1K
1m
0k
0h
1b
1^
0p
0j
0d
1a
0_
1u
0w
1x
1}
1#!
0v
0y
1|
1~
0"!
0i
0l
0f
1c
1W
0V
0T
0U
16
05
04
03
#690000
0&
0*
1+
1#
0.
1"
1(
1)
1I
0G
1D
1C
0O
1L
0K
1J
1q
0m
1k
0b
1n
1j
0a
1[
0s
1w
0}
0!!
1y
0~
1"!
0$!
1l
0c
1]
1Y
0W
1T
18
06
13
#700000
1&
0#
1.
0"
0(
0)
1%
0/
1,
1'
0I
1H
1G
1F
0D
0C
0P
1O
1M
0J
0q
1h
1b
0^
0n
0j
1d
1a
1_
0[
1s
0u
0w
0x
1}
1!!
1v
0y
0|
1$!
1i
0l
1f
1c
0]
0Y
1W
1V
0T
1U
08
16
15
14
03
#710000
1)
1/
0,
0+
1!
0-
00
0Q
1P
0N
0M
0L
1J
1B
1p
1q
0k
0h
0e
1^
0\
1t
0v
1z
1|
1~
0$!
0#!
1r
0i
0f
1`
1X
0V
0U
1R
17
05
04
11
#720000
0)
0/
1+
10
0&
1#
0'
1Q
0P
1L
0J
0H
0G
1D
1j
0a
0_
0q
1k
0^
1\
0t
1v
0~
1$!
1u
1w
0}
0c
0r
1l
0`
0X
1T
0R
0W
07
06
13
01
#730000
1)
0+
0#
0!
1-
0.
1"
1(
0$
0O
1N
0L
1J
1I
0E
0D
1C
0B
0p
1n
0j
0g
1[
1q
0k
1e
0b
1y
0z
1~
0$!
0s
1{
1}
0!!
1#!
1]
0l
1f
1V
0T
1Y
18
15
03
#740000
1+
1#
1!
0-
1.
0"
1$
1/
1&
1,
1*
1P
1O
0N
1M
1L
1K
1G
1E
1D
0C
1B
1p
0n
1j
1g
1a
1m
1k
1h
0e
1b
1^
0v
0y
1z
0|
0~
0"!
0w
0{
0}
1!!
0#!
1r
1l
1i
0f
1c
1W
0V
1U
1T
1R
16
05
14
13
11
#750000
0.
0$
0/
0&
0,
0(
00
0Q
0P
0O
0M
0I
0G
0E
0g
0a
0[
0h
0b
0^
0\
1t
1v
1y
1|
1s
1w
1{
0i
0c
0]
0Y
0W
0U
08
06
04
#760000
1$
1/
1&
1(
0#
1"
1I
1G
1E
0D
1C
1P
1^
1n
0j
1g
1a
1[
0s
0w
0{
1}
0!!
0v
1o
0l
0T
1S
03
12
#770000
0/
0(
1#
1.
0+
0!
0*
0)
1'
0P
1O
0L
0K
0J
0I
1H
1D
0B
0p
1j
1_
0[
0q
0m
0k
1b
0^
1v
0y
1~
1"!
1$!
1s
0u
0}
1#!
0r
0o
1c
1W
0S
0R
16
02
01
#780000
1/
0.
1+
1!
1)
0"
1P
0O
1L
1J
0C
1B
1p
0n
1q
1k
0b
1^
0v
1y
0~
0$!
1!!
0#!
1r
1l
0c
1`
1X
0W
1T
1R
17
06
13
11
#790000
0/
0#
10
1-
0%
1Q
0P
1N
0F
0D
0j
0d
1e
0^
1\
0t
1v
0z
1x
1}
0l
0`
0X
0T
07
03
#800000
1/
1#
00
1%
1.
1"
0'
0$
0Q
1P
1O
0H
1F
0E
1D
1C
1n
1j
0g
1d
0_
1b
1^
0\
1t
0v
0y
1u
0x
1{
0}
0!!
1l
1f
1c
1W
1V
1T
16
15
13
#810000
0#
10
1$
0!
1(
1,
1I
1E
0D
0B
1Q
1M
1h
1\
0p
0j
1g
1[
0s
0{
1}
1#!
0t
0|
0r
0l
1i
1]
1Y
1U
0T
0R
18
14
03
01
#820000
1#
0(
0,
0"
0+
0)
0I
1D
0C
0M
0L
0J
0q
0k
0h
0n
1j
0[
1s
0}
1!!
1|
1~
1$!
0i
0]
0Y
0U
08
04
#830000
00
0%
0.
1'
1*
0Q
0O
1K
1H
0F
0d
1_
1m
0b
0\
1t
1y
0"!
0u
1x
0f
1`
0c
0W
1X
0V
17
06
05
#840000
1%
0*
1(
1+
1!
1I
1F
1B
1L
0K
0m
1k
1p
1d
1[
0s
0x
0#!
0~
1"!
1l
1f
1V
1T
15
13
#850000
1*
0(
0+
0!
10
1.
0'
0#
1,
1"
1)
0$
0-
0&
1Q
1O
0N
1M
0L
1K
1J
0I
0H
0G
0E
0D
1C
0B
0p
1n
0j
0g
0a
0_
0[
1q
1m
0k
1h
0e
1b
1\
0t
0y
1z
0|
1~
0"!
0$!
1s
1u
1w
1{
1}
0!!
1#!
0`
1o
0l
0f
0V
0T
1S
0X
07
05
03
12
#860000
1!
00
1'
1&
0%
0/
1H
1G
0F
1B
0Q
0P
0^
0\
1p
0d
1a
1_
0u
0w
1x
0#!
1t
1v
1r
1c
1W
1R
16
11
#870000
0&
0*
0"
1-
0G
0C
1N
0K
0m
1e
0n
0a
1w
1!!
0z
1"!
0o
0c
0W
0S
06
02
#880000
1&
1*
10
1%
1/
1(
1+
1$
1I
1G
1F
1E
1Q
1P
1L
1K
1m
1k
1^
1\
1g
1d
1a
1[
0s
0w
0x
0{
0t
0v
0~
0"!
1`
1i
1f
1c
1]
1Y
1W
1V
1U
1X
18
17
16
15
14
#890000
0&
0/
0$
0-
0!
0'
1#
0)
0H
0G
0E
1D
0B
0P
0N
0J
0q
0e
0^
0p
1j
0g
0a
0_
1u
1w
1{
0}
1#!
1v
1z
1$!
0f
0r
1l
0i
0c
0`
0X
0W
0U
1T
0R
0V
07
06
05
04
13
01
#900000
1&
1-
1'
0#
00
0%
0(
0+
0.
0I
1H
1G
0F
0D
0Q
0O
1N
0L
0k
1e
0b
0\
0j
0d
1a
1_
0[
1s
0u
0w
1x
1}
1t
1y
0z
1~
0l
0]
0Y
0T
08
03
#910000
0&
0'
1%
1+
1.
1$
0*
1"
0,
0H
0G
1F
1E
1C
1O
0M
1L
0K
0m
1k
0h
1b
1n
1g
1d
0a
0_
1u
1w
0x
0{
0!!
0y
1|
0~
1"!
1f
1V
15
#920000
0+
0$
1*
0"
1,
0-
10
1(
1/
1Q
1P
0N
1M
0L
1K
1I
0E
0C
0n
0g
1[
1m
0k
1h
0e
1^
1\
0t
0v
1z
0|
1~
0"!
0s
1{
1!!
0f
1]
1Y
0V
18
05
#930000
1+
1$
1"
0,
1-
0/
0%
0P
1N
0M
1L
0F
1E
1C
1n
1g
0d
1k
0h
1e
0^
1v
0z
1|
0~
1x
0{
0!!
1o
1S
12
#940000
0"
1,
0-
1/
00
0(
0.
1!
0I
0C
1B
0Q
1P
0O
0N
1M
1h
0e
0b
1^
0\
1p
0n
0[
1s
1!!
0#!
1t
0v
1y
1z
0|
1i
0o
0]
0Y
0S
1U
08
14
02
#950000
1"
0,
0/
0+
0$
0*
1&
1'
1H
1G
0E
1C
0P
0M
0L
0K
0m
0k
0h
0^
1n
0g
1a
1_
0u
0w
1{
0!!
1v
1|
1~
1"!
0i
0U
04
#960000
0"
1/
1$
0&
10
1(
0!
1#
1I
0G
1E
1D
0C
0B
1Q
1P
1^
1\
0p
0n
1j
1g
0a
1[
0s
1w
0{
0}
1!!
1#!
0t
0v
1`
1]
1Y
1X
18
17
