VHDL/demux1to2/simulation/qsim/Demux1to2.msim.vcd
$comment
	File created using the following command:
		vcd file Demux1to2.msim.vcd -direction
$end
$date
	Tue Nov 12 20:51:57 2024
$end
$version
	ModelSim Version 2020.1
$end
$timescale
	1ps
$end

$scope module demux1to2_vhd_vec_tst $end
$var wire 1 ! A $end
$var wire 1 " Sel $end
$var wire 1 # Y0 $end
$var wire 1 $ Y1 $end

$scope module i1 $end
$var wire 1 % gnd $end
$var wire 1 & vcc $end
$var wire 1 ' unknown $end
$var wire 1 ( devoe $end
$var wire 1 ) devclrn $end
$var wire 1 * devpor $end
$var wire 1 + ww_devoe $end
$var wire 1 , ww_devclrn $end
$var wire 1 - ww_devpor $end
$var wire 1 . ww_A $end
$var wire 1 / ww_Sel $end
$var wire 1 0 ww_Y0 $end
$var wire 1 1 ww_Y1 $end
$var wire 1 2 \Y0~output_o\ $end
$var wire 1 3 \Y1~output_o\ $end
$var wire 1 4 \Sel~input_o\ $end
$var wire 1 5 \A~input_o\ $end
$var wire 1 6 \Y0~0_combout\ $end
$var wire 1 7 \Y1~0_combout\ $end
$upscope $end
$upscope $end
$enddefinitions $end
#0
$dumpvars
0!
1"
0#
0$
0%
1&
x'
1(
1)
1*
1+
1,
1-
0.
1/
00
01
02
03
14
05
06
07
$end
#10000
1!
0"
1.
0/
04
15
16
12
10
1#
#30000
0!
0.
05
06
02
00
0#
#40000
1"
1/
14
#60000
0"
1!
0/
1.
15
04
16
12
10
1#
#70000
1"
1/
14
06
17
13
02
11
00
1$
0#
#80000
0!
0.
05
07
03
01
0$
#90000
1!
1.
15
17
13
11
1$
#100000
0"
0/
04
16
07
03
12
01
10
0$
1#
#110000
1"
0!
1/
0.
05
14
06
02
00
0#
#120000
0"
1!
0/
1.
15
04
16
12
10
1#
#130000
1"
1/
14
06
17
13
02
11
00
1$
0#
#140000
0"
0/
04
16
07
03
12
01
10
0$
1#
#160000
1"
0!
1/
0.
05
14
06
02
00
0#
#170000
0"
0/
04
#180000
1"
1!
1/
1.
15
14
17
13
11
1$
#190000
0"
0!
0/
0.
05
04
07
03
01
0$
#210000
1!
1.
15
16
12
10
1#
#220000
0!
1"
0.
1/
14
05
06
02
00
0#
#230000
0"
0/
04
#240000
1!
1.
15
16
12
10
1#
#260000
0!
1"
0.
1/
14
05
06
02
00
0#
#270000
0"
0/
04
#290000
1!
1.
15
16
12
10
1#
#310000
1"
1/
14
06
17
13
02
11
00
1$
0#
#320000
0"
0!
0/
0.
05
04
07
03
01
0$
#330000
1"
1!
1/
1.
15
14
17
13
11
1$
#340000
0"
0/
04
16
07
03
12
01
10
0$
1#
#350000
1"
0!
1/
0.
05
14
06
02
00
0#
#360000
0"
1!
0/
1.
15
04
16
12
10
1#
#370000
1"
1/
14
06
17
13
02
11
00
1$
0#
#380000
0"
0!
0/
0.
05
04
07
03
01
0$
#390000
1"
1/
14
#400000
0"
1!
0/
1.
15
04
16
12
10
1#
#410000
1"
0!
1/
0.
05
14
06
02
00
0#
#420000
1!
1.
15
17
13
11
1$
#430000
0!
0.
05
07
03
01
0$
#450000
1!
0"
1.
0/
04
15
16
12
10
1#
#470000
0!
0.
05
06
02
00
0#
#480000
1"
1/
14
#490000
0"
0/
04
#500000
1"
1/
14
#520000
0"
0/
04
#530000
1!
1.
15
16
12
10
1#
#550000
0!
1"
0.
1/
14
05
06
02
00
0#
#560000
1!
1.
15
17
13
11
1$
#570000
0!
0.
05
07
03
01
0$
#590000
1!
0"
1.
0/
04
15
16
12
10
1#
#600000
1"
1/
14
06
17
13
02
11
00
1$
0#
#610000
0!
0.
05
07
03
01
0$
#620000
0"
0/
04
#630000
1"
1!
1/
1.
15
14
17
13
11
1$
#640000
0"
0/
04
16
07
03
12
01
10
0$
1#
#660000
1"
1/
14
06
17
13
02
11
00
1$
0#
#670000
0"
0!
0/
0.
05
04
07
03
01
0$
#680000
1"
1/
14
#690000
1!
1.
15
17
13
11
1$
#700000
0!
0"
0.
0/
04
05
07
03
01
0$
#710000
1!
1"
1.
1/
14
15
17
13
11
1$
#720000
0"
0/
04
16
07
03
12
01
10
0$
1#
#730000
0!
0.
05
06
02
00
0#
#740000
1!
1"
1.
1/
14
15
17
13
11
1$
#750000
0!
0"
0.
0/
04
05
07
03
01
0$
#760000
1!
1.
15
16
12
10
1#
#780000
0!
0.
05
06
02
00
0#
#790000
1!
1.
15
16
12
10
1#
#830000
1"
1/
14
06
17
13
02
11
00
1$
0#
#840000
0"
0/
04
16
07
03
12
01
10
0$
1#
#850000
1"
1/
14
06
17
13
02
11
00
1$
0#
#860000
0"
0/
04
16
07
03
12
01
10
0$
1#
#870000
1"
0!
1/
0.
05
14
06
02
00
0#
#900000
0"
0/
04
#910000
1!
1.
15
16
12
10
1#
#920000
0!
1"
0.
1/
14
05
06
02
00
0#
#930000
0"
0/
04
#940000
1"
1/
14
#950000
0"
0/
04
#980000
1!
1.
15
16
12
10
1#
#990000
0!
0.
05
06
02
00
0#
