VHDL TEST/executeState/simulation/qsim/execute_state.msim.vcd
$comment
	File created using the following command:
		vcd file execute_state.msim.vcd -direction
$end
$date
	Tue Nov 19 20:31:20 2024
$end
$version
	ModelSim Version 2020.1
$end
$timescale
	1ps
$end

$scope module execute_state_vhd_vec_tst $end
$var wire 1 ! exec_done $end
$var wire 1 " opcode [2] $end
$var wire 1 # opcode [1] $end
$var wire 1 $ opcode [0] $end
$var wire 1 % operand [4] $end
$var wire 1 & operand [3] $end
$var wire 1 ' operand [2] $end
$var wire 1 ( operand [1] $end
$var wire 1 ) operand [0] $end
$var wire 1 * result [7] $end
$var wire 1 + result [6] $end
$var wire 1 , result [5] $end
$var wire 1 - result [4] $end
$var wire 1 . result [3] $end
$var wire 1 / result [2] $end
$var wire 1 0 result [1] $end
$var wire 1 1 result [0] $end

$scope module i1 $end
$var wire 1 2 gnd $end
$var wire 1 3 vcc $end
$var wire 1 4 unknown $end
$var wire 1 5 devoe $end
$var wire 1 6 devclrn $end
$var wire 1 7 devpor $end
$var wire 1 8 ww_devoe $end
$var wire 1 9 ww_devclrn $end
$var wire 1 : ww_devpor $end
$var wire 1 ; ww_opcode [2] $end
$var wire 1 < ww_opcode [1] $end
$var wire 1 = ww_opcode [0] $end
$var wire 1 > ww_operand [4] $end
$var wire 1 ? ww_operand [3] $end
$var wire 1 @ ww_operand [2] $end
$var wire 1 A ww_operand [1] $end
$var wire 1 B ww_operand [0] $end
$var wire 1 C ww_result [7] $end
$var wire 1 D ww_result [6] $end
$var wire 1 E ww_result [5] $end
$var wire 1 F ww_result [4] $end
$var wire 1 G ww_result [3] $end
$var wire 1 H ww_result [2] $end
$var wire 1 I ww_result [1] $end
$var wire 1 J ww_result [0] $end
$var wire 1 K ww_exec_done $end
$var wire 1 L \~QUARTUS_CREATED_GND~I_combout\ $end
$var wire 1 M \opcode[2]~input_o\ $end
$var wire 1 N \operand[0]~input_o\ $end
$var wire 1 O \opcode[1]~input_o\ $end
$var wire 1 P \Mux4~0_combout\ $end
$var wire 1 Q \operand[1]~input_o\ $end
$var wire 1 R \opcode[0]~input_o\ $end
$var wire 1 S \Mux3~0_combout\ $end
$var wire 1 T \operand[2]~input_o\ $end
$var wire 1 U \Mux2~0_combout\ $end
$var wire 1 V \operand[3]~input_o\ $end
$var wire 1 W \Add0~0_combout\ $end
$var wire 1 X \Mux1~0_combout\ $end
$var wire 1 Y \operand[4]~input_o\ $end
$var wire 1 Z \Add0~1_combout\ $end
$var wire 1 [ \Mux0~0_combout\ $end
$var wire 1 \ \ALT_INV_operand[4]~input_o\ $end
$var wire 1 ] \ALT_INV_operand[3]~input_o\ $end
$var wire 1 ^ \ALT_INV_operand[2]~input_o\ $end
$var wire 1 _ \ALT_INV_operand[1]~input_o\ $end
$var wire 1 ` \ALT_INV_opcode[0]~input_o\ $end
$var wire 1 a \ALT_INV_opcode[2]~input_o\ $end
$var wire 1 b \ALT_INV_opcode[1]~input_o\ $end
$var wire 1 c \ALT_INV_operand[0]~input_o\ $end
$var wire 1 d \ALT_INV_Add0~1_combout\ $end
$var wire 1 e \ALT_INV_Add0~0_combout\ $end
$var wire 1 f \ALT_INV_Mux4~0_combout\ $end
$upscope $end
$upscope $end
$enddefinitions $end
#0
$dumpvars
1!
02
13
x4
15
16
17
18
19
1:
1K
xL
0M
1N
0O
1P
0Q
0R
1S
1T
1U
0V
0W
0X
0Y
0Z
0[
1\
1]
0^
1_
1`
1a
1b
0c
1d
1e
0f
0"
0#
0$
0%
0&
1'
0(
1)
0;
0<
0=
0>
0?
1@
0A
1B
0C
0D
0E
0F
0G
1H
1I
0J
0*
0+
0,
0-
0.
1/
10
01
$end
#10000
1$
1&
1(
0)
1=
0B
1A
1?
1V
1Q
0N
1R
0`
1c
0_
0]
0P
0S
1W
1Z
1[
0d
0e
1f
1X
0[
1F
0I
1J
00
1-
11
0F
1G
1.
0-
#20000
0$
0&
0(
1)
1#
0'
0=
1<
1B
0A
0@
0?
0V
0T
0Q
1N
1O
0R
1`
0b
0c
1_
1^
1]
1P
0X
0U
0W
0Z
1d
1e
0f
0H
0G
0J
0/
0.
01
#30000
1$
1&
1(
0)
1'
1%
1=
0B
1A
1@
1?
1>
1Y
1V
1T
1Q
0N
1R
0`
1c
0_
0^
0]
0\
1W
1Z
0d
0e
#40000
0$
0(
0'
0%
0#
1"
0=
0<
1;
0A
0@
0>
0Y
0T
0Q
1M
0O
0R
1`
1b
0a
1_
1^
1\
0Z
1d
#50000
1$
1(
1'
1%
0&
1)
1=
1B
1A
1@
0?
1>
1Y
0V
1T
1Q
1N
1R
0`
0c
0_
0^
1]
0\
0W
1Z
0d
1e
#60000
0$
0(
0%
1#
0=
1<
0A
0>
0Y
0Q
1O
0R
1`
0b
1_
1\
0Z
1d
#70000
1$
1&
0)
1=
0B
1?
1V
0N
1R
0`
1c
0]
1W
1Z
0d
0e
#80000
0$
0#
0"
0=
0<
0;
0M
0O
0R
1`
1b
1a
0P
1X
1U
0Z
1[
1d
1f
0[
1F
1H
1G
1J
1/
1.
1-
11
0F
0-
#90000
1$
0&
1(
1%
1=
1A
0?
1>
1Y
0V
1Q
1R
0`
0_
1]
0\
0W
1Z
0d
1e
0X
1[
1F
0G
0.
1-
#100000
0$
1&
0(
1#
0=
1<
0A
1?
1V
0Q
1O
0R
1`
0b
1_
0]
1P
0U
1W
0Z
0[
1d
0e
0f
0F
0H
0J
0/
0-
01
#110000
1$
1(
0'
1=
1A
0@
0T
1Q
1R
0`
0_
1^
1Z
0d
#120000
0$
1'
0#
0%
1"
0=
0<
1;
1@
0>
0Y
1T
1M
0O
0R
1`
1b
0a
0^
1\
0Z
1d
#130000
1$
0(
0&
1)
1=
1B
0A
0?
0V
0Q
1N
1R
0`
0c
1_
1]
0W
1Z
0d
1e
#140000
0$
1(
0)
0'
1#
1%
0=
1<
0B
1A
0@
1>
1Y
0T
1Q
0N
1O
0R
1`
0b
1c
0_
1^
0\
0Z
1d
#150000
1$
0(
0%
1&
1=
0A
1?
0>
0Y
1V
0Q
1R
0`
1_
0]
1\
1Z
0d
#160000
0$
1(
1%
0&
0#
0"
0=
0<
0;
1A
0?
1>
1Y
0V
1Q
0M
0O
0R
1`
1b
1a
0_
1]
0\
0P
1S
0Z
1d
1f
1[
1I
1J
10
11
1F
1-
#170000
1$
0(
0%
1'
1=
0A
1@
0>
0Y
1T
0Q
1R
0`
1_
0^
1\
1Z
0d
0[
0F
0-
#180000
0$
1(
1&
1#
0=
1<
1A
1?
1V
1Q
1O
0R
1`
0b
0_
0]
1P
0S
1W
0Z
1d
0e
0f
0I
0J
00
01
#190000
1$
0'
1)
1=
1B
0@
0T
1N
1R
0`
0c
1^
1Z
0d
#200000
0$
1'
0)
0&
0#
1%
1"
0=
0<
1;
0B
1@
0?
1>
1Y
0V
1T
0N
1M
0O
0R
1`
1b
0a
1c
0^
1]
0\
0W
0Z
1d
1e
#210000
1$
0%
1=
0>
0Y
1R
0`
1\
1Z
0d
#220000
0$
0'
1)
1#
0(
0=
1<
1B
0A
0@
0T
0Q
1N
1O
0R
1`
0b
0c
1_
1^
0Z
1d
#230000
1$
1(
1&
1=
1A
1?
1V
1Q
1R
0`
0_
0]
1W
1Z
0d
0e
#240000
0$
0&
1'
0#
1%
0"
0=
0<
0;
1@
0?
1>
1Y
0V
1T
0M
0O
0R
1`
1b
1a
0^
1]
0\
1X
0Z
1d
1[
1G
1.
1F
1-
#250000
1$
0'
0%
0(
1=
0A
0@
0>
0Y
0T
0Q
1R
0`
1_
1^
1\
0W
1Z
0d
1e
0X
0[
0F
0G
0.
0-
#260000
0$
1%
1#
0=
1<
1>
1Y
1O
0R
1`
0b
0\
0Z
1d
#270000
1$
1'
1(
1&
0)
1=
0B
1A
1@
1?
1V
1T
1Q
0N
1R
0`
1c
0_
0^
0]
1W
1Z
0d
0e
#280000
0$
0'
0(
0&
1)
0%
0#
1"
0=
0<
1;
1B
0A
0@
0?
0>
0Y
0V
0T
0Q
1N
1M
0O
0R
1`
1b
0a
0c
1_
1^
1]
1\
0W
0Z
1d
1e
#290000
1$
1'
1&
1%
1=
1@
1?
1>
1Y
1V
1T
1R
0`
0^
0]
0\
1W
1Z
0d
0e
#300000
0$
0'
0&
1(
0)
1#
0=
1<
0B
1A
0@
0?
0V
0T
1Q
0N
1O
0R
1`
0b
1c
0_
1^
1]
0W
0Z
1d
1e
#310000
1$
1&
1=
1?
1V
1R
0`
0]
1W
1Z
0d
0e
#320000
0$
1'
0(
0#
0"
0=
0<
0;
0A
1@
1T
0Q
0M
0O
0R
1`
1b
1a
1_
0^
0P
1X
1U
0Z
1d
1f
1[
1H
1G
1J
1/
1.
11
1F
1-
#330000
1$
1(
0&
1)
0%
1=
1B
1A
0?
0>
0Y
0V
1Q
1N
1R
0`
0c
0_
1]
1\
1P
1S
0W
1Z
0d
1e
0f
0X
0[
1I
0J
10
01
0F
0G
0.
0-
#340000
0$
0)
0'
1#
0=
1<
0B
0@
0T
0N
1O
0R
1`
0b
1c
1^
0S
0U
0Z
1d
0H
0I
00
0/
#350000
1$
0(
1&
1%
1=
0A
1?
1>
1Y
1V
0Q
1R
0`
1_
0]
0\
1Z
0d
#360000
0$
1)
1'
0#
1"
0=
0<
1;
1B
1@
1T
1N
1M
0O
0R
1`
1b
0a
0c
0^
1W
0Z
1d
0e
#370000
1$
0'
0&
0%
1=
0@
0?
0>
0Y
0V
0T
1R
0`
1^
1]
1\
0W
1Z
0d
1e
#380000
0$
1&
1#
1(
0=
1<
1A
1?
1V
1Q
1O
0R
1`
0b
0_
0]
1W
0Z
1d
0e
#390000
1$
0&
0(
1%
0)
1=
0B
0A
0?
1>
1Y
0V
0Q
0N
1R
0`
1c
1_
1]
0\
#400000
0$
1&
0#
1'
0"
0=
0<
0;
1@
1?
1V
1T
0M
0O
0R
1`
1b
1a
0^
0]
0P
1X
1U
1[
1f
1F
1H
1G
1J
1/
1.
1-
11
#410000
1$
0'
1(
0%
1)
1=
1B
1A
0@
0>
0Y
0T
1Q
1N
1R
0`
0c
0_
1^
1\
1P
1S
0U
1Z
0d
0f
0[
0H
1I
0J
10
0/
01
0F
0-
#420000
0$
0(
0)
1#
0=
1<
0B
0A
0Q
0N
1O
0R
1`
0b
1c
1_
0X
0S
0Z
1d
0I
0G
00
0.
#430000
1$
1)
1'
0&
1=
1B
1@
0?
0V
1T
1N
1R
0`
0c
0^
1]
0W
1Z
0d
1e
#440000
0$
0)
0'
1&
1(
0#
1"
0=
0<
1;
0B
1A
0@
1?
1V
0T
1Q
0N
1M
0O
0R
1`
1b
0a
1c
0_
1^
0]
1W
0Z
1d
0e
#450000
1$
0(
1=
0A
0Q
1R
0`
1_
0W
1Z
0d
1e
#460000
0$
1(
1)
0&
1#
0=
1<
1B
1A
0?
0V
1Q
1N
1O
0R
1`
0b
0c
0_
1]
0Z
1d
#470000
1$
0)
1'
1%
1=
0B
1@
1>
1Y
1T
0N
1R
0`
1c
0^
0\
1Z
0d
#480000
0$
1)
0'
0(
0#
0"
0=
0<
0;
1B
0A
0@
0T
0Q
1N
0M
0O
0R
1`
1b
1a
0c
1_
1^
1S
0Z
1d
1[
1I
10
1F
1-
#490000
1$
0)
1'
1&
1=
0B
1@
1?
1V
1T
0N
1R
0`
1c
0^
0]
0P
1W
1Z
0[
0d
0e
1f
1X
1[
0F
1J
0-
11
1F
1G
1.
1-
#500000
0$
0'
1(
1#
0%
0=
1<
1A
0@
0>
0Y
0T
1Q
1O
0R
1`
0b
0_
1^
1\
1P
0X
0S
0Z
0[
1d
0f
0F
0I
0G
0J
00
0.
0-
01
#510000
1$
0&
1=
0?
0V
1R
0`
1]
0W
1Z
0d
1e
#520000
0$
1&
0#
1)
1"
0=
0<
1;
1B
1?
1V
1N
1M
0O
0R
1`
1b
0a
0c
0]
1W
0Z
1d
0e
#530000
1$
1%
1=
1>
1Y
1R
0`
0\
1Z
0d
#540000
0$
1#
0(
0=
1<
0A
0Q
1O
0R
1`
0b
1_
0Z
1d
#550000
1$
1(
0&
0)
1=
0B
1A
0?
0V
1Q
0N
1R
0`
1c
0_
1]
0W
1Z
0d
1e
#560000
0$
1&
1)
0#
0%
0"
0=
0<
0;
1B
1?
0>
0Y
1V
1N
0M
0O
0R
1`
1b
1a
0c
0]
1\
1U
1W
0Z
1[
1d
0e
1X
0[
1F
1H
1/
1-
0F
1G
1.
0-
#570000
1$
0&
0)
1%
1=
0B
0?
1>
1Y
0V
0N
1R
0`
1c
1]
0\
0P
0U
0W
1Z
0d
1e
1f
0X
1[
0H
1J
0/
11
1F
0G
0.
1-
#580000
0$
1)
0%
1#
0(
1'
0=
1<
1B
0A
1@
0>
0Y
1T
0Q
1N
1O
0R
1`
0b
0c
1_
0^
1\
1P
0Z
0[
1d
0f
0F
0J
0-
01
#590000
1$
1%
1(
1&
1=
1A
1?
1>
1Y
1V
1Q
1R
0`
0_
0]
0\
1W
1Z
0d
0e
#600000
0$
0)
0#
1"
0=
0<
1;
0B
0N
1M
0O
0R
1`
1b
0a
1c
0Z
1d
#610000
1$
0%
0&
0'
1=
0@
0?
0>
0Y
0V
0T
1R
0`
1^
1]
1\
0W
1Z
0d
1e
#620000
0$
1%
1&
1'
1#
0(
0=
1<
0A
1@
1?
1>
1Y
1V
1T
0Q
1O
0R
1`
0b
1_
0^
0]
0\
1W
0Z
1d
0e
#630000
1$
0%
0&
1=
0?
0>
0Y
0V
1R
0`
1]
1\
0W
1Z
0d
1e
#640000
0$
0'
0#
1)
0"
0=
0<
0;
1B
0@
0T
1N
0M
0O
0R
1`
1b
1a
0c
1^
1S
0Z
1[
1d
0[
1F
1I
10
1-
0F
0-
#650000
1$
1'
1(
1=
1A
1@
1T
1Q
1R
0`
0_
0^
1U
1Z
1[
0d
0[
1F
1H
1/
1-
0F
0-
#660000
0$
0(
1#
0=
1<
0A
0Q
1O
0R
1`
0b
1_
0S
0U
0Z
1d
0H
0I
00
0/
#670000
1$
0'
1=
0@
0T
1R
0`
1^
1Z
0d
#680000
0$
1'
1(
0#
0)
1"
1%
0=
0<
1;
0B
1A
1@
1>
1Y
1T
1Q
0N
1M
0O
0R
1`
1b
0a
1c
0_
0^
0\
0Z
1d
#690000
1$
0'
0%
1&
1=
0@
1?
0>
0Y
1V
0T
1R
0`
1^
0]
1\
1W
1Z
0d
0e
#700000
0$
1%
0&
1#
1)
0=
1<
1B
0?
1>
1Y
0V
1N
1O
0R
1`
0b
0c
1]
0\
0W
0Z
1d
1e
#710000
1$
0%
0)
0(
1=
0B
0A
0>
0Y
0Q
0N
1R
0`
1c
1_
1\
1W
0e
#720000
0$
1(
0#
0"
0=
0<
0;
1A
1Q
0M
0O
0R
1`
1b
1a
0_
0P
1X
1S
0W
1e
1f
0X
1I
1G
1J
10
1.
11
0G
0.
#730000
1$
1%
1)
1=
1B
1>
1Y
1N
1R
0`
0c
0\
1P
1Z
0d
0f
1[
0J
01
1F
1-
#740000
0$
0%
1#
0=
1<
0>
0Y
1O
0R
1`
0b
1\
0S
0Z
0[
1d
0F
0I
00
0-
#750000
1$
1%
1'
1=
1@
1>
1Y
1T
1R
0`
0^
0\
1Z
0d
#760000
0$
0%
0'
0#
1"
1&
0=
0<
1;
0@
1?
0>
0Y
1V
0T
1M
0O
0R
1`
1b
0a
1^
0]
1\
1W
0Z
1d
0e
#770000
1$
1=
1R
0`
1Z
0d
#780000
0$
1%
1'
1#
0&
0(
0=
1<
0A
1@
0?
1>
1Y
0V
1T
0Q
1O
0R
1`
0b
1_
0^
1]
0\
0W
0Z
1d
1e
#790000
1$
0'
1(
0)
1=
0B
1A
0@
0T
1Q
0N
1R
0`
1c
0_
1^
1Z
0d
#800000
0$
1'
1)
0#
1&
0"
0=
0<
0;
1B
1@
1?
1V
1T
1N
0M
0O
0R
1`
1b
1a
0c
0^
0]
#810000
1$
0&
0%
1=
0?
0>
0Y
0V
1R
0`
1]
1\
1S
1U
1H
1I
10
1/
#820000
0$
1%
1#
0=
1<
1>
1Y
1O
0R
1`
0b
0\
0S
0U
1W
0Z
1d
0e
0H
0I
00
0/
#830000
1$
1&
0)
1=
0B
1?
1V
0N
1R
0`
1c
0]
1Z
0d
#840000
0$
1)
0%
0#
1"
0(
0=
0<
1;
1B
0A
0>
0Y
0Q
1N
1M
0O
0R
1`
1b
0a
0c
1_
1\
0Z
1d
#850000
1$
1(
1=
1A
1Q
1R
0`
0_
1Z
0d
#860000
0$
0)
1#
0=
1<
0B
0N
1O
0R
1`
0b
1c
0Z
1d
#870000
1$
0&
0'
1=
0@
0?
0V
0T
1R
0`
1^
1]
0W
1Z
0d
1e
#880000
0$
1)
0#
0(
1%
0"
0=
0<
0;
1B
0A
1>
1Y
0Q
1N
0M
0O
0R
1`
1b
1a
0c
1_
0\
1S
0Z
1d
1[
1I
10
1F
1-
#890000
1$
0)
1(
0%
1'
1=
0B
1A
1@
0>
0Y
1T
1Q
0N
1R
0`
1c
0_
0^
1\
0P
0S
1U
1Z
0d
1f
0[
1H
0I
1J
00
1/
11
0F
0-
#900000
0$
0(
0'
1#
1&
0=
1<
0A
0@
1?
1V
0T
0Q
1O
0R
1`
0b
1_
1^
0]
1P
0U
1W
0Z
1d
0e
0f
0H
0J
0/
01
#910000
1$
1)
1=
1B
1N
1R
0`
0c
1Z
0d
#920000
0$
1(
0#
0&
1%
1"
0=
0<
1;
1A
0?
1>
1Y
0V
1Q
1M
0O
0R
1`
1b
0a
0_
1]
0\
0W
0Z
1d
1e
#930000
1$
0(
1&
0%
0)
1'
1=
0B
0A
1@
1?
0>
0Y
1V
1T
0Q
0N
1R
0`
1c
1_
0^
0]
1\
1W
1Z
0d
0e
#940000
0$
1(
0&
1)
1#
0=
1<
1B
1A
0?
0V
1Q
1N
1O
0R
1`
0b
0c
0_
1]
0Z
1d
#950000
1$
1%
1=
1>
1Y
1R
0`
0\
0W
1Z
0d
1e
#960000
0$
0(
1&
0)
0#
0'
0"
0=
0<
0;
0B
0A
0@
1?
1V
0T
0Q
0N
0M
0O
0R
1`
1b
1a
1c
1_
1^
0]
0P
1W
0Z
1d
0e
1f
1X
1[
1J
11
1F
1G
1.
1-
#970000
1$
1(
1)
1=
1B
1A
1Q
1N
1R
0`
0c
0_
1P
1S
1Z
0[
0d
0f
1[
0F
1I
0J
10
0-
01
1F
1-
#980000
0$
0(
1#
1'
0=
1<
0A
1@
1T
0Q
1O
0R
1`
0b
1_
0^
0X
0S
0Z
0[
1d
0F
0I
0G
00
0.
0-
#990000
1$
1(
0)
0&
1=
0B
1A
0?
0V
1Q
0N
1R
0`
1c
0_
1]
0W
1Z
0d
1e
