VHDL TEST/bufferLectura/simulation/qsim/instruccion_buffer.msim.vcd
$comment
	File created using the following command:
		vcd file instruccion_buffer.msim.vcd -direction
$end
$date
	Tue Nov 19 20:10:08 2024
$end
$version
	ModelSim Version 2020.1
$end
$timescale
	1ps
$end

$scope module instruccion_buffer_vhd_vec_tst $end
$var wire 1 ! clk $end
$var wire 1 " instr_in [7] $end
$var wire 1 # instr_in [6] $end
$var wire 1 $ instr_in [5] $end
$var wire 1 % instr_in [4] $end
$var wire 1 & instr_in [3] $end
$var wire 1 ' instr_in [2] $end
$var wire 1 ( instr_in [1] $end
$var wire 1 ) instr_in [0] $end
$var wire 1 * instr_out [7] $end
$var wire 1 + instr_out [6] $end
$var wire 1 , instr_out [5] $end
$var wire 1 - instr_out [4] $end
$var wire 1 . instr_out [3] $end
$var wire 1 / instr_out [2] $end
$var wire 1 0 instr_out [1] $end
$var wire 1 1 instr_out [0] $end
$var wire 1 2 load $end

$scope module i1 $end
$var wire 1 3 gnd $end
$var wire 1 4 vcc $end
$var wire 1 5 unknown $end
$var wire 1 6 devoe $end
$var wire 1 7 devclrn $end
$var wire 1 8 devpor $end
$var wire 1 9 ww_devoe $end
$var wire 1 : ww_devclrn $end
$var wire 1 ; ww_devpor $end
$var wire 1 < ww_clk $end
$var wire 1 = ww_instr_in [7] $end
$var wire 1 > ww_instr_in [6] $end
$var wire 1 ? ww_instr_in [5] $end
$var wire 1 @ ww_instr_in [4] $end
$var wire 1 A ww_instr_in [3] $end
$var wire 1 B ww_instr_in [2] $end
$var wire 1 C ww_instr_in [1] $end
$var wire 1 D ww_instr_in [0] $end
$var wire 1 E ww_load $end
$var wire 1 F ww_instr_out [7] $end
$var wire 1 G ww_instr_out [6] $end
$var wire 1 H ww_instr_out [5] $end
$var wire 1 I ww_instr_out [4] $end
$var wire 1 J ww_instr_out [3] $end
$var wire 1 K ww_instr_out [2] $end
$var wire 1 L ww_instr_out [1] $end
$var wire 1 M ww_instr_out [0] $end
$var wire 1 N \~QUARTUS_CREATED_GND~I_combout\ $end
$var wire 1 O \clk~input_o\ $end
$var wire 1 P \clk~inputCLKENA0_outclk\ $end
$var wire 1 Q \instr_in[0]~input_o\ $end
$var wire 1 R \trans[0]~feeder_combout\ $end
$var wire 1 S \load~input_o\ $end
$var wire 1 T \instr_in[1]~input_o\ $end
$var wire 1 U \trans[1]~feeder_combout\ $end
$var wire 1 V \instr_in[2]~input_o\ $end
$var wire 1 W \instr_in[3]~input_o\ $end
$var wire 1 X \trans[3]~feeder_combout\ $end
$var wire 1 Y \instr_in[4]~input_o\ $end
$var wire 1 Z \trans[4]~feeder_combout\ $end
$var wire 1 [ \instr_in[5]~input_o\ $end
$var wire 1 \ \trans[5]~feeder_combout\ $end
$var wire 1 ] \instr_in[6]~input_o\ $end
$var wire 1 ^ \instr_in[7]~input_o\ $end
$var wire 1 _ \trans[7]~feeder_combout\ $end
$var wire 1 ` trans [7] $end
$var wire 1 a trans [6] $end
$var wire 1 b trans [5] $end
$var wire 1 c trans [4] $end
$var wire 1 d trans [3] $end
$var wire 1 e trans [2] $end
$var wire 1 f trans [1] $end
$var wire 1 g trans [0] $end
$var wire 1 h \ALT_INV_instr_in[3]~input_o\ $end
$var wire 1 i \ALT_INV_instr_in[5]~input_o\ $end
$var wire 1 j \ALT_INV_instr_in[4]~input_o\ $end
$var wire 1 k \ALT_INV_instr_in[7]~input_o\ $end
$var wire 1 l \ALT_INV_instr_in[1]~input_o\ $end
$var wire 1 m \ALT_INV_instr_in[0]~input_o\ $end
$upscope $end
$upscope $end
$enddefinitions $end
#0
$dumpvars
0!
12
03
14
x5
16
17
18
19
1:
1;
0<
1E
xN
0O
0P
0Q
0R
1S
0T
0U
1V
1W
1X
0Y
0Z
1[
1\
1]
0^
0_
0h
0i
1j
1k
1l
1m
0"
1#
1$
0%
1&
1'
0(
0)
0=
1>
1?
0@
1A
1B
0C
0D
0F
0G
0H
0I
0J
0K
0L
0M
0`
0a
0b
0c
0d
0e
0f
0g
0*
0+
0,
0-
0.
0/
00
01
$end
#10000
1!
1"
0&
1)
1<
1D
0A
1=
1^
0W
1Q
1O
1P
0m
1h
0k
1_
0X
1R
1e
1d
1b
1a
1G
1H
1J
1K
1/
1.
1,
1+
#20000
0!
0"
1&
0$
1%
1(
02
0<
1C
1A
1@
0?
0=
0E
0S
0^
0[
1Y
1W
1T
0O
0P
0l
0h
0j
1i
1k
0_
0\
1Z
1X
1U
#30000
1!
1"
1$
0%
0#
1<
0@
1?
0>
1=
1^
0]
1[
0Y
1O
1P
1j
0i
0k
1_
1\
0Z
#40000
0!
0"
0$
0&
0(
0)
0'
0<
0D
0C
0B
0A
0?
0=
0^
0[
0W
0V
0T
0Q
0O
0P
1m
1l
1h
1i
1k
0_
0\
0X
0U
0R
#50000
1!
1<
1O
1P
#60000
0!
0<
0O
0P
#70000
1!
1<
1O
1P
#80000
0!
0<
0O
0P
#90000
1!
1<
1O
1P
#100000
0!
0<
0O
0P
#110000
1!
1<
1O
1P
#120000
0!
0<
0O
0P
#130000
1!
1<
1O
1P
#140000
0!
0<
0O
0P
#150000
1!
1<
1O
1P
#160000
0!
0<
0O
0P
#170000
1!
1<
1O
1P
#180000
0!
0<
0O
0P
#190000
1!
1<
1O
1P
#200000
0!
0<
0O
0P
#210000
1!
1<
1O
1P
#220000
0!
0<
0O
0P
#230000
1!
1<
1O
1P
#240000
0!
0<
0O
0P
#250000
1!
1<
1O
1P
#260000
0!
0<
0O
0P
#270000
1!
1<
1O
1P
#280000
0!
0<
0O
0P
#290000
1!
1<
1O
1P
#300000
0!
0<
0O
0P
#310000
1!
1<
1O
1P
#320000
0!
0<
0O
0P
#330000
1!
1<
1O
1P
#340000
0!
0<
0O
0P
#350000
1!
1<
1O
1P
#360000
0!
0<
0O
0P
#370000
1!
1<
1O
1P
#380000
0!
0<
0O
0P
#390000
1!
1<
1O
1P
#400000
0!
0<
0O
0P
#410000
1!
1<
1O
1P
#420000
0!
0<
0O
0P
#430000
1!
1<
1O
1P
#440000
0!
0<
0O
0P
#450000
1!
1<
1O
1P
#460000
0!
0<
0O
0P
#470000
1!
1<
1O
1P
#480000
0!
0<
0O
0P
#490000
1!
1<
1O
1P
#500000
0!
0<
0O
0P
#510000
1!
1<
1O
1P
#520000
0!
0<
0O
0P
#530000
1!
1<
1O
1P
#540000
0!
0<
0O
0P
#550000
1!
1<
1O
1P
#560000
0!
0<
0O
0P
#570000
1!
1<
1O
1P
#580000
0!
0<
0O
0P
#590000
1!
1<
1O
1P
#600000
0!
0<
0O
0P
#610000
1!
1<
1O
1P
#620000
0!
0<
0O
0P
#630000
1!
1<
1O
1P
#640000
0!
0<
0O
0P
#650000
1!
1<
1O
1P
#660000
0!
0<
0O
0P
#670000
1!
1<
1O
1P
#680000
0!
0<
0O
0P
#690000
1!
1<
1O
1P
#700000
0!
0<
0O
0P
#710000
1!
1<
1O
1P
#720000
0!
0<
0O
0P
#730000
1!
1<
1O
1P
#740000
0!
0<
0O
0P
#750000
1!
1<
1O
1P
#760000
0!
0<
0O
0P
#770000
1!
1<
1O
1P
#780000
0!
0<
0O
0P
#790000
1!
1<
1O
1P
#800000
0!
0<
0O
0P
#810000
1!
1<
1O
1P
#820000
0!
0<
0O
0P
#830000
1!
1<
1O
1P
#840000
0!
0<
0O
0P
#850000
1!
1<
1O
1P
#860000
0!
0<
0O
0P
#870000
1!
1<
1O
1P
#880000
0!
0<
0O
0P
#890000
1!
1<
1O
1P
#900000
0!
0<
0O
0P
#910000
1!
1<
1O
1P
#920000
0!
0<
0O
0P
#930000
1!
1<
1O
1P
#940000
0!
0<
0O
0P
#950000
1!
1<
1O
1P
#960000
0!
0<
0O
0P
#970000
1!
1<
1O
1P
#980000
0!
0<
0O
0P
#990000
1!
1<
1O
1P
