VHDL/and_gate/simulation/qsim/andGate.msim.vcd
$comment
	File created using the following command:
		vcd file andGate.msim.vcd -direction
$end
$date
	Tue Nov 12 20:34:34 2024
$end
$version
	ModelSim Version 2020.1
$end
$timescale
	1ps
$end

$scope module andgate_vhd_vec_tst $end
$var wire 1 ! A $end
$var wire 1 " B $end
$var wire 1 # Y $end

$scope module i1 $end
$var wire 1 $ gnd $end
$var wire 1 % vcc $end
$var wire 1 & unknown $end
$var wire 1 ' devoe $end
$var wire 1 ( devclrn $end
$var wire 1 ) devpor $end
$var wire 1 * ww_devoe $end
$var wire 1 + ww_devclrn $end
$var wire 1 , ww_devpor $end
$var wire 1 - ww_A $end
$var wire 1 . ww_B $end
$var wire 1 / ww_Y $end
$var wire 1 0 \Y~output_o\ $end
$var wire 1 1 \A~input_o\ $end
$var wire 1 2 \B~input_o\ $end
$var wire 1 3 \Y~0_combout\ $end
$upscope $end
$upscope $end
$enddefinitions $end
#0
$dumpvars
1!
1"
1#
0$
1%
x&
1'
1(
1)
1*
1+
1,
1-
1.
1/
10
11
12
13
$end
#10000
0!
0"
0-
0.
02
01
03
00
0/
0#
#20000
1"
1.
12
#30000
0"
1!
0.
1-
11
02
#50000
1"
0!
1.
0-
01
12
#60000
0"
0.
02
#70000
1"
1.
12
#80000
0"
0.
02
#90000
1!
1-
11
#100000
1"
1.
12
13
10
1/
1#
#110000
0!
0-
01
03
00
0/
0#
#120000
1!
1-
11
13
10
1/
1#
#130000
0!
0"
0-
0.
02
01
03
00
0/
0#
#140000
1!
1-
11
#160000
0!
0-
01
#170000
1!
1-
11
#180000
0!
1"
0-
1.
12
01
#190000
1!
1-
11
13
10
1/
1#
#200000
0!
0-
01
03
00
0/
0#
#210000
1!
0"
1-
0.
02
11
#230000
0!
1"
0-
1.
12
01
#240000
1!
0"
1-
0.
02
11
#280000
0!
1"
0-
1.
12
01
#290000
1!
0"
1-
0.
02
11
#300000
1"
1.
12
13
10
1/
1#
#310000
0"
0.
02
03
00
0/
0#
#320000
1"
0!
1.
0-
01
12
#330000
1!
1-
11
13
10
1/
1#
#340000
0!
0"
0-
0.
02
01
03
00
0/
0#
#350000
1!
1"
1-
1.
12
11
13
10
1/
1#
#390000
0"
0.
02
03
00
0/
0#
#420000
0!
0-
01
#430000
1!
1-
11
#450000
0!
1"
0-
1.
12
01
#460000
1!
1-
11
13
10
1/
1#
#480000
0"
0.
02
03
00
0/
0#
#490000
0!
0-
01
#500000
1!
1-
11
#510000
1"
1.
12
13
10
1/
1#
#530000
0"
0!
0.
0-
01
02
03
00
0/
0#
#550000
1"
1.
12
#560000
0"
0.
02
#570000
1!
1-
11
#580000
0!
0-
01
#590000
1!
1-
11
#600000
0!
0-
01
#610000
1!
1-
11
#630000
0!
0-
01
#660000
1!
1-
11
#670000
1"
1.
12
13
10
1/
1#
#710000
0!
0-
01
03
00
0/
0#
#740000
1!
1-
11
13
10
1/
1#
#750000
0"
0.
02
03
00
0/
0#
#760000
1"
1.
12
13
10
1/
1#
#770000
0!
0-
01
03
00
0/
0#
#780000
1!
1-
11
13
10
1/
1#
#790000
0"
0.
02
03
00
0/
0#
#800000
1"
0!
1.
0-
01
12
#810000
1!
1-
11
13
10
1/
1#
#820000
0!
0"
0-
0.
02
01
03
00
0/
0#
#830000
1"
1.
12
#840000
1!
1-
11
13
10
1/
1#
#850000
0"
0.
02
03
00
0/
0#
#860000
1"
0!
1.
0-
01
12
#870000
0"
1!
0.
1-
11
02
#880000
1"
1.
12
13
10
1/
1#
#890000
0"
0.
02
03
00
0/
0#
#900000
1"
0!
1.
0-
01
12
#910000
1!
1-
11
13
10
1/
1#
#920000
0!
0"
0-
0.
02
01
03
00
0/
0#
#930000
1!
1-
11
#940000
0!
0-
01
#970000
1"
1.
12
#980000
0"
1!
0.
1-
11
02
