VHDL TEST/registro8Bits/simulation/qsim/registro8bits.msim.vcd
$comment
	File created using the following command:
		vcd file registro8bits.msim.vcd -direction
$end
$date
	Mon Nov 18 14:50:43 2024
$end
$version
	ModelSim Version 2020.1
$end
$timescale
	1ps
$end

$scope module registro8bits_vhd_vec_tst $end
$var wire 1 ! clk $end
$var wire 1 " data_in [7] $end
$var wire 1 # data_in [6] $end
$var wire 1 $ data_in [5] $end
$var wire 1 % data_in [4] $end
$var wire 1 & data_in [3] $end
$var wire 1 ' data_in [2] $end
$var wire 1 ( data_in [1] $end
$var wire 1 ) data_in [0] $end
$var wire 1 * data_out [7] $end
$var wire 1 + data_out [6] $end
$var wire 1 , data_out [5] $end
$var wire 1 - data_out [4] $end
$var wire 1 . data_out [3] $end
$var wire 1 / data_out [2] $end
$var wire 1 0 data_out [1] $end
$var wire 1 1 data_out [0] $end
$var wire 1 2 en $end
$var wire 1 3 reset $end

$scope module i1 $end
$var wire 1 4 gnd $end
$var wire 1 5 vcc $end
$var wire 1 6 unknown $end
$var wire 1 7 devoe $end
$var wire 1 8 devclrn $end
$var wire 1 9 devpor $end
$var wire 1 : ww_devoe $end
$var wire 1 ; ww_devclrn $end
$var wire 1 < ww_devpor $end
$var wire 1 = ww_clk $end
$var wire 1 > ww_en $end
$var wire 1 ? ww_reset $end
$var wire 1 @ ww_data_in [7] $end
$var wire 1 A ww_data_in [6] $end
$var wire 1 B ww_data_in [5] $end
$var wire 1 C ww_data_in [4] $end
$var wire 1 D ww_data_in [3] $end
$var wire 1 E ww_data_in [2] $end
$var wire 1 F ww_data_in [1] $end
$var wire 1 G ww_data_in [0] $end
$var wire 1 H ww_data_out [7] $end
$var wire 1 I ww_data_out [6] $end
$var wire 1 J ww_data_out [5] $end
$var wire 1 K ww_data_out [4] $end
$var wire 1 L ww_data_out [3] $end
$var wire 1 M ww_data_out [2] $end
$var wire 1 N ww_data_out [1] $end
$var wire 1 O ww_data_out [0] $end
$var wire 1 P \reg_data[7]~0clkctrl_INCLK_bus\ [3] $end
$var wire 1 Q \reg_data[7]~0clkctrl_INCLK_bus\ [2] $end
$var wire 1 R \reg_data[7]~0clkctrl_INCLK_bus\ [1] $end
$var wire 1 S \reg_data[7]~0clkctrl_INCLK_bus\ [0] $end
$var wire 1 T \clk~inputclkctrl_INCLK_bus\ [3] $end
$var wire 1 U \clk~inputclkctrl_INCLK_bus\ [2] $end
$var wire 1 V \clk~inputclkctrl_INCLK_bus\ [1] $end
$var wire 1 W \clk~inputclkctrl_INCLK_bus\ [0] $end
$var wire 1 X \data_out[0]~output_o\ $end
$var wire 1 Y \data_out[1]~output_o\ $end
$var wire 1 Z \data_out[2]~output_o\ $end
$var wire 1 [ \data_out[3]~output_o\ $end
$var wire 1 \ \data_out[4]~output_o\ $end
$var wire 1 ] \data_out[5]~output_o\ $end
$var wire 1 ^ \data_out[6]~output_o\ $end
$var wire 1 _ \data_out[7]~output_o\ $end
$var wire 1 ` \clk~input_o\ $end
$var wire 1 a \clk~inputclkctrl_outclk\ $end
$var wire 1 b \data_in[0]~input_o\ $end
$var wire 1 c \reg_data[0]~feeder_combout\ $end
$var wire 1 d \en~input_o\ $end
$var wire 1 e \reset~input_o\ $end
$var wire 1 f \reg_data[7]~0_combout\ $end
$var wire 1 g \reg_data[7]~0clkctrl_outclk\ $end
$var wire 1 h \data_in[1]~input_o\ $end
$var wire 1 i \reg_data[1]~feeder_combout\ $end
$var wire 1 j \data_in[2]~input_o\ $end
$var wire 1 k \reg_data[2]~feeder_combout\ $end
$var wire 1 l \data_in[3]~input_o\ $end
$var wire 1 m \reg_data[3]~feeder_combout\ $end
$var wire 1 n \data_in[4]~input_o\ $end
$var wire 1 o \reg_data[4]~feeder_combout\ $end
$var wire 1 p \data_in[5]~input_o\ $end
$var wire 1 q \reg_data[5]~feeder_combout\ $end
$var wire 1 r \data_in[6]~input_o\ $end
$var wire 1 s \reg_data[6]~feeder_combout\ $end
$var wire 1 t \data_in[7]~input_o\ $end
$var wire 1 u reg_data [7] $end
$var wire 1 v reg_data [6] $end
$var wire 1 w reg_data [5] $end
$var wire 1 x reg_data [4] $end
$var wire 1 y reg_data [3] $end
$var wire 1 z reg_data [2] $end
$var wire 1 { reg_data [1] $end
$var wire 1 | reg_data [0] $end
$var wire 1 } \ALT_INV_reg_data[7]~0clkctrl_outclk\ $end
$upscope $end
$upscope $end
$enddefinitions $end
#0
$dumpvars
0!
12
03
04
15
x6
17
18
19
1:
1;
1<
0=
1>
0?
0X
0Y
0Z
0[
0\
0]
0^
0_
0`
0a
0b
0c
1d
0e
0f
0g
1h
1i
1j
1k
1l
1m
1n
1o
1p
1q
0r
0s
0t
1}
0"
0#
1$
1%
1&
1'
1(
0)
0@
0A
1B
1C
1D
1E
1F
0G
0H
0I
0J
0K
0L
0M
0N
0O
0u
0v
0w
0x
0y
0z
0{
0|
1T
1U
1V
0W
1P
1Q
1R
0S
0*
0+
0,
0-
0.
0/
00
01
$end
#10000
1!
1#
0&
0(
1)
1=
1G
0F
0D
1A
1r
0l
0h
1b
1`
1W
1c
0i
0m
1s
1a
1|
1z
1x
1w
1v
1^
1]
1\
1Z
1X
1I
1J
1K
1M
1O
11
1/
1-
1,
1+
#20000
0!
1&
02
0$
0'
0=
0E
1D
0B
0>
0d
0p
1l
0j
0`
0W
0k
1m
0q
1f
1S
0a
1g
0}
0|
0z
0x
0w
0v
0^
0]
0\
0Z
0X
0I
0J
0K
0M
0O
01
0/
0-
0,
0+
#30000
1!
0&
1$
1'
1(
1"
0%
1=
1F
1E
0D
0C
1B
1@
1t
1p
0n
0l
1j
1h
1`
1W
1i
1k
0m
0o
1q
1a
#40000
0!
0(
0"
0)
0=
0G
0F
0@
0t
0h
0b
0`
0W
0c
0i
0a
#50000
1!
1(
1"
1)
1&
0'
1%
1=
1G
1F
0E
1D
1C
1@
1t
1n
1l
0j
1h
1b
1`
1W
1c
1i
0k
1m
1o
1a
#60000
0!
0"
0)
0&
0#
0=
0G
0D
0A
0@
0t
0r
0l
0b
0`
0W
0c
0m
0s
0a
#70000
1!
1#
0(
1'
0%
1=
0F
1E
0C
1A
1r
0n
1j
0h
1`
1W
0i
1k
0o
1s
1a
#80000
0!
0#
1(
1"
1)
0=
1G
1F
0A
1@
1t
0r
1h
1b
0`
0W
1c
1i
0s
0a
#90000
1!
0)
1&
0$
1=
0G
1D
0B
0p
1l
0b
1`
1W
0c
1m
0q
1a
#100000
0!
1#
0(
0'
0=
0F
0E
1A
1r
0j
0h
0`
0W
0i
0k
1s
0a
#110000
1!
1(
1'
0&
0"
1=
1F
1E
0D
0@
0t
0l
1j
1h
1`
1W
1i
1k
0m
1a
#120000
0!
0'
1)
1%
0=
1G
0E
1C
1n
0j
1b
0`
0W
1c
0k
1o
0a
#130000
1!
1'
0)
0(
1&
1"
1$
1=
0G
0F
1E
1D
1B
1@
1t
1p
1l
1j
0h
0b
1`
1W
0c
0i
1k
1m
1q
1a
#140000
0!
1)
1(
0&
0$
0#
0=
1G
1F
0D
0B
0A
0r
0p
0l
1h
1b
0`
0W
1c
1i
0m
0q
0s
0a
#150000
1!
0)
0(
0%
1=
0G
0F
0C
0n
0h
0b
1`
1W
0c
0i
0o
1a
#160000
0!
1(
1$
0=
1F
1B
1p
1h
0`
0W
1i
1q
0a
#170000
1!
0$
1%
1#
0'
1=
0E
1C
0B
1A
1r
0p
1n
0j
1`
1W
0k
1o
0q
1s
1a
#180000
0!
1$
0#
1'
0(
1&
0=
0F
1E
1D
1B
0A
0r
1p
1l
1j
0h
0`
0W
0i
1k
1m
1q
0s
0a
#190000
1!
0$
1(
1)
1=
1G
1F
0B
0p
1h
1b
1`
1W
1c
1i
0q
1a
#200000
0!
0(
0&
0%
0=
0F
0D
0C
0n
0l
0h
0`
0W
0i
0m
0o
0a
#210000
1!
1(
1&
1%
1$
0)
0'
1=
0G
1F
0E
1D
1C
1B
1p
1n
1l
0j
1h
0b
1`
1W
0c
1i
0k
1m
1o
1q
1a
#220000
0!
0&
0%
1)
1#
0"
0=
1G
0D
0C
1A
0@
0t
1r
0n
0l
1b
0`
0W
1c
0m
0o
1s
0a
#230000
1!
1&
0)
1'
1=
0G
1E
1D
1l
1j
0b
1`
1W
0c
1k
1m
1a
#240000
0!
0&
1)
1%
0(
0=
1G
0F
0D
1C
1n
0l
0h
1b
0`
0W
1c
0i
0m
1o
0a
#250000
1!
0)
1(
1"
12
1=
0G
1F
1@
1>
1d
1t
1h
0b
1`
1W
0c
1i
0f
0S
1a
0g
1}
#260000
0!
1)
0(
0"
0%
0'
0#
0$
0=
1G
0F
0E
0C
0B
0A
0@
0t
0r
0p
0n
0j
0h
1b
0`
0W
1c
0i
0k
0o
0q
0s
0a
#270000
1!
0)
1(
1&
1=
0G
1F
1D
1l
1h
0b
1`
1W
0c
1i
1m
1a
1{
1y
1[
1Y
1L
1N
10
1.
#280000
0!
1)
0(
0&
1"
1'
1#
1$
0=
1G
0F
1E
0D
1B
1A
1@
1t
1r
1p
0l
1j
0h
1b
0`
0W
1c
0i
1k
0m
1q
1s
0a
#290000
1!
0)
1(
0'
0#
1=
0G
1F
0E
0A
0r
0j
1h
0b
1`
1W
0c
1i
0k
0s
1a
0y
1w
1u
1_
1]
0[
1H
1J
0L
0.
1,
1*
#300000
0!
0(
1#
1&
0$
0=
0F
1D
0B
1A
1r
0p
1l
0h
0`
0W
0i
1m
0q
1s
0a
#310000
1!
1(
0&
0"
1%
1=
1F
0D
1C
0@
0t
1n
0l
1h
1`
1W
1i
0m
1o
1a
1x
0w
1v
0u
0_
1^
0]
1\
0H
1I
0J
1K
1-
0,
1+
0*
#320000
0!
1&
1"
1$
0=
1D
1B
1@
1t
1p
1l
0`
0W
1m
1q
0a
#330000
1!
0$
0(
0%
1)
1=
1G
0F
0C
0B
0p
0n
0h
1b
1`
1W
1c
0i
0o
0q
1a
1|
0{
1y
0x
1u
1_
0\
1[
0Y
1X
1H
0K
1L
0N
1O
11
00
1.
0-
1*
#340000
0!
0#
0=
0A
0r
0`
0W
0s
0a
#350000
1!
1#
1$
1%
0)
02
1=
0G
1C
1B
1A
0>
0d
1r
1p
1n
0b
1`
1W
0c
1o
1q
1s
1f
1S
1a
1g
0|
1x
1w
0}
0y
0x
0w
0v
0u
1]
1\
0X
1J
1K
0O
01
1-
1,
0_
0^
0]
0\
0[
0H
0I
0J
0K
0L
0.
0-
0,
0+
0*
#360000
0!
0#
1(
0"
1'
0=
1F
1E
0A
0@
0t
0r
1j
1h
0`
0W
1i
1k
0s
0a
#370000
1!
1#
0(
0$
0%
1)
1=
1G
0F
0C
0B
1A
1r
0p
0n
0h
1b
1`
1W
1c
0i
0o
0q
1s
1a
#380000
0!
0#
1(
1%
0)
1"
0'
0=
0G
1F
0E
1C
0A
1@
1t
0r
1n
0j
1h
0b
0`
0W
0c
1i
0k
1o
0s
0a
#390000
1!
1#
0(
0%
1)
0"
1'
1=
1G
0F
1E
0C
1A
0@
0t
1r
0n
1j
0h
1b
1`
1W
1c
0i
1k
0o
1s
1a
#400000
0!
1%
0)
0'
0=
0G
0E
1C
1n
0j
0b
0`
0W
0c
0k
1o
0a
#410000
1!
0%
1'
0&
1=
1E
0D
0C
0n
0l
1j
1`
1W
1k
0m
0o
1a
#420000
0!
1&
1$
0=
1D
1B
1p
1l
0`
0W
1m
1q
0a
#430000
1!
1%
0#
1(
1"
1=
1F
1C
0A
1@
1t
0r
1n
1h
1`
1W
1i
1o
0s
1a
#440000
0!
0%
1#
0=
0C
1A
1r
0n
0`
0W
0o
1s
0a
#450000
1!
1%
0#
0(
0&
1=
0F
0D
1C
0A
0r
1n
0l
0h
1`
1W
0i
0m
1o
0s
1a
#460000
0!
0%
1#
0"
0$
0=
0C
0B
1A
0@
0t
1r
0p
0n
0`
0W
0o
0q
1s
0a
#470000
1!
0#
1$
0'
1)
1=
1G
0E
1B
0A
0r
1p
0j
1b
1`
1W
1c
0k
1q
0s
1a
#480000
0!
0$
1%
1&
0=
1D
1C
0B
0p
1n
1l
0`
0W
1m
1o
0q
0a
#490000
1!
1$
0%
1'
1=
1E
0C
1B
1p
0n
1j
1`
1W
1k
0o
1q
1a
#500000
0!
0$
1#
0)
1(
0=
0G
1F
0B
1A
1r
0p
1h
0b
0`
0W
0c
1i
0q
1s
0a
#510000
1!
0#
1)
1%
0'
1"
1=
1G
0E
1C
0A
1@
1t
0r
1n
0j
1b
1`
1W
1c
0k
1o
0s
1a
#520000
0!
1'
0(
0&
0=
0F
1E
0D
0l
1j
0h
0`
0W
0i
1k
0m
0a
#530000
1!
0'
1(
1#
0%
1=
1F
0E
0C
1A
1r
0n
0j
1h
1`
1W
1i
0k
0o
1s
1a
#540000
0!
0(
0#
1%
0=
0F
1C
0A
0r
1n
0h
0`
0W
0i
1o
0s
0a
#550000
1!
1(
0%
1'
0)
0"
1$
1=
0G
1F
1E
0C
1B
0@
0t
1p
0n
1j
1h
0b
1`
1W
0c
1i
1k
0o
1q
1a
#560000
0!
1%
0'
1)
1"
0$
0=
1G
0E
1C
0B
1@
1t
0p
1n
0j
1b
0`
0W
1c
0k
1o
0q
0a
#570000
1!
0(
1#
1=
0F
1A
1r
0h
1`
1W
0i
1s
1a
#580000
0!
0#
1'
0)
0"
1$
1&
0=
0G
1E
1D
1B
0A
0@
0t
0r
1p
1l
1j
0b
0`
0W
0c
1k
1m
1q
0s
0a
#590000
1!
1#
0'
1"
1(
1=
1F
0E
1A
1@
1t
1r
0j
1h
1`
1W
1i
0k
1s
1a
#600000
0!
0#
0"
1)
0$
0&
0%
0=
1G
0D
0C
0B
0A
0@
0t
0r
0p
0n
0l
1b
0`
0W
1c
0m
0o
0q
0s
0a
#610000
1!
1#
1"
1$
1&
1%
1'
1=
1E
1D
1C
1B
1A
1@
1t
1r
1p
1n
1l
1j
1`
1W
1k
1m
1o
1q
1s
1a
#620000
0!
0"
0$
0%
0)
0(
0=
0G
0F
0C
0B
0@
0t
0p
0n
0h
0b
0`
0W
0c
0i
0o
0q
0a
#630000
1!
1$
1%
0'
1=
0E
1C
1B
1p
1n
0j
1`
1W
0k
1o
1q
1a
#640000
0!
0%
1'
1)
0&
0=
1G
1E
0D
0C
0n
0l
1j
1b
0`
0W
1c
1k
0m
0o
0a
#650000
1!
1%
1&
0$
1"
1=
1D
1C
0B
1@
1t
0p
1n
1l
1`
1W
1m
1o
0q
1a
#660000
0!
0%
0&
0=
0D
0C
0n
0l
0`
0W
0m
0o
0a
#670000
1!
0'
0#
1=
0E
0A
0r
0j
1`
1W
0k
0s
1a
#680000
0!
1$
0)
1(
0=
0G
1F
1B
1p
1h
0b
0`
0W
0c
1i
1q
0a
#690000
1!
0$
1#
1%
1&
1=
1D
1C
0B
1A
1r
0p
1n
1l
1`
1W
1m
1o
0q
1s
1a
#700000
0!
0&
0(
1'
0=
0F
1E
0D
0l
1j
0h
0`
0W
0i
1k
0m
0a
#710000
1!
1&
1(
0'
0#
1)
1=
1G
1F
0E
1D
0A
0r
1l
0j
1h
1b
1`
1W
1c
1i
0k
1m
0s
1a
#720000
0!
0&
0(
1'
1#
1$
0%
0=
0F
1E
0D
0C
1B
1A
1r
1p
0n
0l
1j
0h
0`
0W
0i
1k
0m
0o
1q
1s
0a
#730000
1!
1&
1(
0'
1%
0"
1=
1F
0E
1D
1C
0@
0t
1n
1l
0j
1h
1`
1W
1i
0k
1m
1o
1a
#740000
0!
0&
0(
1'
0%
1"
0$
0=
0F
1E
0D
0C
0B
1@
1t
0p
0n
0l
1j
0h
0`
0W
0i
1k
0m
0o
0q
0a
#750000
1!
1&
1(
0'
0)
1=
0G
1F
0E
1D
1l
0j
1h
0b
1`
1W
0c
1i
0k
1m
1a
#760000
0!
0&
1'
1%
0"
1$
0#
0=
1E
0D
1C
1B
0A
0@
0t
0r
1p
1n
0l
1j
0`
0W
1k
0m
1o
1q
0s
0a
#770000
1!
0(
1)
1=
1G
0F
0h
1b
1`
1W
1c
0i
1a
#780000
0!
1(
0'
1#
0=
1F
0E
1A
1r
0j
1h
0`
0W
1i
0k
1s
0a
#790000
1!
0(
1'
1&
1"
0$
1=
0F
1E
1D
0B
1@
1t
0p
1l
1j
0h
1`
1W
0i
1k
1m
0q
1a
#800000
0!
0'
0&
0"
1$
0#
0)
0=
0G
0E
0D
1B
0A
0@
0t
0r
1p
0l
0j
0b
0`
0W
0c
0k
0m
1q
0s
0a
#810000
1!
1'
1&
1"
1(
0%
1=
1F
1E
1D
0C
1@
1t
0n
1l
1j
1h
1`
1W
1i
1k
1m
0o
1a
#820000
0!
1%
1)
0=
1G
1C
1n
1b
0`
0W
1c
1o
0a
#830000
1!
0%
0'
0&
0"
0(
1=
0F
0E
0D
0C
0@
0t
0n
0l
0j
0h
1`
1W
0i
0k
0m
0o
1a
#840000
0!
1%
1'
1&
1"
1(
1#
0=
1F
1E
1D
1C
1A
1@
1t
1r
1n
1l
1j
1h
0`
0W
1i
1k
1m
1o
1s
0a
#850000
1!
0#
0)
1=
0G
0A
0r
0b
1`
1W
0c
0s
1a
#860000
0!
0%
0'
0&
0=
0E
0D
0C
0n
0l
0j
0`
0W
0k
0m
0o
0a
#870000
1!
1%
1#
1)
0"
0(
0$
1=
1G
0F
1C
0B
1A
0@
0t
1r
0p
1n
0h
1b
1`
1W
1c
0i
1o
0q
1s
1a
#880000
0!
0#
0)
1"
1(
1$
0=
0G
1F
1B
0A
1@
1t
0r
1p
1h
0b
0`
0W
0c
1i
1q
0s
0a
#890000
1!
0"
0$
1=
0B
0@
0t
0p
1`
1W
0q
1a
#900000
0!
1$
0%
1'
0=
1E
0C
1B
1p
0n
1j
0`
0W
1k
0o
1q
0a
#910000
1!
1%
0'
1"
1#
0(
1&
1=
0F
0E
1D
1C
1A
1@
1t
1r
1n
1l
0j
0h
1`
1W
0i
0k
1m
1o
1s
1a
#920000
0!
0%
0#
1)
0=
1G
0C
0A
0r
0n
1b
0`
0W
1c
0o
0s
0a
#930000
1!
1%
1#
1'
0&
1=
1E
0D
1C
1A
1r
1n
0l
1j
1`
1W
1k
0m
1o
1s
1a
#940000
0!
0'
1&
0"
0$
0=
0E
1D
0B
0@
0t
0p
1l
0j
0`
0W
0k
1m
0q
0a
#950000
1!
1'
1"
1$
0%
0#
1(
1=
1F
1E
0C
1B
0A
1@
1t
0r
1p
0n
1j
1h
1`
1W
1i
1k
0o
1q
0s
1a
#960000
0!
0'
0"
0$
0(
0=
0F
0E
0B
0@
0t
0p
0j
0h
0`
0W
0i
0k
0q
0a
#970000
1!
1$
1#
1=
1B
1A
1r
1p
1`
1W
1q
1s
1a
#980000
0!
1(
1%
0&
0)
0=
0G
1F
0D
1C
1n
0l
1h
0b
0`
0W
0c
1i
0m
1o
0a
#990000
1!
0(
1)
0$
0#
1=
1G
0F
0B
0A
0r
0p
0h
1b
1`
1W
1c
0i
0q
0s
1a
