VHDL TEST/orgate8bits/simulation/qsim/orgate8bits.msim.vcd
$comment
	File created using the following command:
		vcd file orgate8bits.msim.vcd -direction
$end
$date
	Mon Nov 18 14:22:59 2024
$end
$version
	ModelSim Version 2020.1
$end
$timescale
	1ps
$end

$scope module orgate8bits_vhd_vec_tst $end
$var wire 1 ! A [7] $end
$var wire 1 " A [6] $end
$var wire 1 # A [5] $end
$var wire 1 $ A [4] $end
$var wire 1 % A [3] $end
$var wire 1 & A [2] $end
$var wire 1 ' A [1] $end
$var wire 1 ( A [0] $end
$var wire 1 ) B [7] $end
$var wire 1 * B [6] $end
$var wire 1 + B [5] $end
$var wire 1 , B [4] $end
$var wire 1 - B [3] $end
$var wire 1 . B [2] $end
$var wire 1 / B [1] $end
$var wire 1 0 B [0] $end
$var wire 1 1 C [7] $end
$var wire 1 2 C [6] $end
$var wire 1 3 C [5] $end
$var wire 1 4 C [4] $end
$var wire 1 5 C [3] $end
$var wire 1 6 C [2] $end
$var wire 1 7 C [1] $end
$var wire 1 8 C [0] $end

$scope module i1 $end
$var wire 1 9 gnd $end
$var wire 1 : vcc $end
$var wire 1 ; unknown $end
$var wire 1 < devoe $end
$var wire 1 = devclrn $end
$var wire 1 > devpor $end
$var wire 1 ? ww_devoe $end
$var wire 1 @ ww_devclrn $end
$var wire 1 A ww_devpor $end
$var wire 1 B ww_A [7] $end
$var wire 1 C ww_A [6] $end
$var wire 1 D ww_A [5] $end
$var wire 1 E ww_A [4] $end
$var wire 1 F ww_A [3] $end
$var wire 1 G ww_A [2] $end
$var wire 1 H ww_A [1] $end
$var wire 1 I ww_A [0] $end
$var wire 1 J ww_B [7] $end
$var wire 1 K ww_B [6] $end
$var wire 1 L ww_B [5] $end
$var wire 1 M ww_B [4] $end
$var wire 1 N ww_B [3] $end
$var wire 1 O ww_B [2] $end
$var wire 1 P ww_B [1] $end
$var wire 1 Q ww_B [0] $end
$var wire 1 R ww_C [7] $end
$var wire 1 S ww_C [6] $end
$var wire 1 T ww_C [5] $end
$var wire 1 U ww_C [4] $end
$var wire 1 V ww_C [3] $end
$var wire 1 W ww_C [2] $end
$var wire 1 X ww_C [1] $end
$var wire 1 Y ww_C [0] $end
$var wire 1 Z \~QUARTUS_CREATED_GND~I_combout\ $end
$var wire 1 [ \A[0]~input_o\ $end
$var wire 1 \ \B[0]~input_o\ $end
$var wire 1 ] \C~0_combout\ $end
$var wire 1 ^ \B[1]~input_o\ $end
$var wire 1 _ \A[1]~input_o\ $end
$var wire 1 ` \C~1_combout\ $end
$var wire 1 a \A[2]~input_o\ $end
$var wire 1 b \B[2]~input_o\ $end
$var wire 1 c \C~2_combout\ $end
$var wire 1 d \A[3]~input_o\ $end
$var wire 1 e \B[3]~input_o\ $end
$var wire 1 f \C~3_combout\ $end
$var wire 1 g \A[4]~input_o\ $end
$var wire 1 h \B[4]~input_o\ $end
$var wire 1 i \C~4_combout\ $end
$var wire 1 j \A[5]~input_o\ $end
$var wire 1 k \B[5]~input_o\ $end
$var wire 1 l \C~5_combout\ $end
$var wire 1 m \B[6]~input_o\ $end
$var wire 1 n \A[6]~input_o\ $end
$var wire 1 o \C~6_combout\ $end
$var wire 1 p \A[7]~input_o\ $end
$var wire 1 q \B[7]~input_o\ $end
$var wire 1 r \C~7_combout\ $end
$var wire 1 s \ALT_INV_B[1]~input_o\ $end
$var wire 1 t \ALT_INV_A[2]~input_o\ $end
$var wire 1 u \ALT_INV_A[3]~input_o\ $end
$var wire 1 v \ALT_INV_B[2]~input_o\ $end
$var wire 1 w \ALT_INV_B[3]~input_o\ $end
$var wire 1 x \ALT_INV_A[4]~input_o\ $end
$var wire 1 y \ALT_INV_B[4]~input_o\ $end
$var wire 1 z \ALT_INV_A[5]~input_o\ $end
$var wire 1 { \ALT_INV_B[5]~input_o\ $end
$var wire 1 | \ALT_INV_A[6]~input_o\ $end
$var wire 1 } \ALT_INV_B[6]~input_o\ $end
$var wire 1 ~ \ALT_INV_A[7]~input_o\ $end
$var wire 1 !! \ALT_INV_B[7]~input_o\ $end
$var wire 1 "! \ALT_INV_A[0]~input_o\ $end
$var wire 1 #! \ALT_INV_B[0]~input_o\ $end
$var wire 1 $! \ALT_INV_A[1]~input_o\ $end
$upscope $end
$upscope $end
$enddefinitions $end
#0
$dumpvars
09
1:
x;
1<
1=
1>
1?
1@
1A
xZ
0[
0\
0]
0^
0_
0`
0a
1b
1c
1d
1e
1f
1g
1h
1i
0j
1k
1l
0m
1n
1o
1p
0q
1r
1s
1t
0u
0v
0w
0x
0y
1z
0{
0|
1}
0~
1!!
1"!
1#!
1$!
1!
1"
0#
1$
1%
0&
0'
0(
0)
0*
1+
1,
1-
1.
0/
00
1B
1C
0D
1E
1F
0G
0H
0I
0J
0K
1L
1M
1N
1O
0P
0Q
1R
1S
1T
1U
1V
1W
0X
0Y
11
12
13
14
15
16
07
08
$end
#10000
0$
0%
1'
1)
1*
0,
0.
1/
1H
0F
0E
1P
0O
0M
1K
1J
1q
1m
0h
0b
1^
0g
0d
1_
0$!
1u
1x
0s
1v
1y
0}
0!!
0c
0i
1`
1X
0U
0W
17
06
04
#20000
1$
1%
0'
0)
0*
1.
1#
1&
0-
10
0H
1G
1F
1E
1D
1Q
1O
0N
0K
0J
0q
0m
0e
1b
1\
1j
1g
1d
1a
0_
1$!
0t
0u
0x
0z
0#!
0v
1w
1}
1!!
1]
1i
1c
1W
1U
1Y
18
16
14
#30000
0$
0%
0.
1-
1,
0"
1(
1I
0F
0E
0C
0O
1N
1M
1h
1e
0b
0n
0g
0d
1[
0"!
1u
1x
1|
1v
0w
0y
0o
0S
02
#40000
1.
0-
1*
0#
00
0/
0+
0Q
0P
1O
0N
0L
1K
0D
0j
1m
0k
0e
1b
0^
0\
1#!
1s
0v
1w
1{
0}
1z
1o
0l
0f
0`
0X
0V
0T
1S
07
05
03
12
#50000
0.
1-
10
1/
1+
1$
1%
1"
1Q
1P
0O
1N
1L
1F
1E
1C
1n
1g
1d
1k
1e
0b
1^
1\
0#!
0s
1v
0w
0{
0u
0x
0|
1l
1f
1`
1X
1V
1T
17
15
13
#60000
1.
0-
00
0/
0+
0$
0*
1#
1'
1)
0Q
0P
1O
0N
0L
0K
1J
1H
0E
1D
1j
0g
1_
1q
0m
0k
0e
1b
0^
0\
1#!
1s
0v
1w
1{
1}
0!!
0$!
1x
0z
#70000
0.
10
1$
1*
0#
0'
0"
0,
1Q
0O
0M
1K
0H
1E
0D
0C
0n
0j
1g
0_
1m
0h
0b
1\
0#!
1v
1y
0}
1$!
0x
1z
1|
0l
0`
0X
0T
07
03
#80000
1.
00
0$
1"
1,
1-
1+
0)
0%
0(
0&
0Q
1O
1N
1M
1L
0J
0I
0G
0F
0E
1C
1n
0g
0d
0a
0[
0q
1k
1h
1e
1b
0\
1#!
0v
0w
0y
0{
1!!
1"!
1t
1u
1x
0|
1l
0]
0Y
1T
08
13
#90000
0.
10
0"
0+
1)
1&
0*
1#
1'
1Q
0O
0L
0K
1J
1H
1G
1D
0C
0n
1j
1a
1_
1q
0m
0k
0b
1\
0#!
1v
1{
1}
0!!
0$!
0t
0z
1|
1`
0o
1]
1Y
0S
1X
18
17
02
#100000
1.
1"
1+
0)
1*
0#
0'
1$
0,
0-
1/
1P
1O
0N
0M
1L
1K
0J
0H
1E
0D
1C
1n
0j
1g
0_
0q
1m
1k
0h
0e
1b
1^
0s
0v
1w
1y
0{
0}
1!!
1$!
0x
1z
0|
1o
0f
0V
1S
05
12
#110000
0.
1'
00
1%
0Q
0O
1H
1F
1d
1_
0b
0\
1#!
1v
0$!
0u
1f
0]
0Y
1V
08
15
#120000
1.
0"
0+
1)
0*
0$
0&
1(
1O
0L
0K
1J
1I
0G
0E
0C
0n
0g
0a
1[
1q
0m
0k
1b
0v
1{
1}
0!!
0"!
1t
1x
1|
0i
1]
0o
0l
0T
0S
1Y
0U
18
04
03
02
#130000
0)
1*
1$
0(
0'
10
0%
1,
0!
1Q
1M
1K
0J
0I
0H
0F
1E
0B
0p
1g
0d
0_
0[
0q
1m
1h
1\
0#!
0y
0}
1!!
1"!
1$!
1u
0x
1~
0f
0r
1o
1i
1U
1S
0R
0V
05
14
12
01
#140000
0*
1(
1'
1!
0.
0/
0P
0O
0K
1I
1H
1B
1p
1_
1[
0m
0b
0^
1s
1v
1}
0"!
0$!
0~
1r
0o
0c
0W
0S
1R
06
02
11
#150000
1*
0'
0!
1.
00
1%
0,
1"
1&
1#
0Q
1O
0M
1K
0H
1G
1F
1D
1C
0B
0p
1n
1j
1d
1a
0_
1m
0h
1b
0\
1#!
0v
1y
0}
1$!
0t
0u
0z
0|
1~
0r
1l
1f
0`
1o
1c
1W
1S
0X
1V
1T
0R
07
16
15
13
12
01
#160000
0*
1!
0.
0%
0#
0(
1/
1)
0$
1+
1P
0O
1L
0K
1J
0I
0F
0E
0D
1B
1p
0j
0g
0d
0[
1q
0m
1k
0b
1^
0s
1v
0{
1}
0!!
1"!
1u
1x
1z
0~
0i
0f
0]
1r
1`
1X
1R
0Y
0V
0U
08
17
05
04
11
#170000
1*
0!
1%
0/
0)
0+
10
1,
0&
1-
1Q
0P
1N
1M
0L
1K
0J
0G
1F
0B
0p
1d
0a
0q
1m
0k
1h
1e
0^
1\
0#!
1s
0w
0y
1{
0}
1!!
1t
0u
1~
0c
0r
0l
1i
1f
0`
1]
1Y
0X
1V
1U
0T
0R
0W
18
07
06
15
14
03
01
#180000
0%
1)
1+
00
0,
1&
1#
1(
1$
0"
1I
1G
0F
1E
1D
0C
0Q
0M
1L
1J
1q
1k
0h
0\
0n
1j
1g
0d
1a
1[
0"!
0t
1u
0x
0z
1|
1#!
1y
0{
0!!
1r
1l
1c
1W
1T
1R
16
13
11
#190000
1%
0)
0+
10
0#
0(
0$
1"
0*
1!
1/
0-
1.
1'
0I
1H
1F
0E
0D
1C
1B
1Q
1P
1O
0N
0L
0K
0J
0q
0m
0k
0e
1b
1^
1\
1p
1n
0j
0g
1d
1_
0[
1"!
0$!
0u
1x
1z
0|
0~
0#!
0s
0v
1w
1{
1}
1!!
0l
0i
1`
1X
0U
0T
17
04
03
#200000
1(
1$
1*
0/
1,
0&
1I
0G
1E
0P
1M
1K
1m
1h
0^
1g
0a
1[
0"!
1t
0x
1s
0y
0}
1i
1U
14
#210000
0(
1&
1)
1+
00
1#
0"
0!
0.
0'
0I
0H
1G
1D
0C
0B
0Q
0O
1L
1J
1q
1k
0b
0\
0p
0n
1j
1a
0_
0[
1"!
1$!
0t
0z
1|
1~
1#!
1v
0{
0!!
1l
0`
0]
0Y
0X
1T
08
07
13
#220000
1(
0)
0+
10
1"
0$
0*
1/
1-
1I
0E
1C
1Q
1P
1N
0L
0K
0J
0q
0m
0k
1e
1^
1\
1n
0g
1[
0"!
1x
0|
0#!
0s
0w
1{
1}
1!!
0r
1`
1]
1Y
1X
0R
18
17
01
#230000
1$
0-
0#
1!
1'
0,
1H
1E
0D
1B
0N
0M
0h
0e
1p
0j
1g
1_
0$!
0x
1z
0~
1w
1y
1r
0l
0T
1R
03
11
#240000
0$
1-
1#
0!
0'
1,
0(
1+
00
0"
1*
1.
0%
0I
0H
0F
0E
1D
0C
0B
0Q
1O
1N
1M
1L
1K
1m
1k
1h
1e
1b
0\
0p
0n
1j
0g
0d
0_
0[
1"!
1$!
1u
1x
0z
1|
1~
1#!
0v
0w
0y
0{
0}
0r
1l
0]
0Y
1T
0R
08
13
01
#250000
0-
0#
1'
10
1"
0*
0.
1%
1Q
0O
0N
0K
1H
1F
0D
1C
1n
0j
1d
1_
0m
0e
0b
1\
0#!
1v
1w
1}
0$!
0u
1z
0|
1]
1Y
18
#260000
1-
1#
00
0"
1!
0+
1)
0Q
1N
0L
1J
1D
0C
1B
1p
0n
1j
1q
0k
1e
0\
1#!
0w
1{
0!!
0z
1|
0~
0o
1r
0]
0Y
1R
0S
08
02
11
#270000
0-
0#
0!
1+
0)
1*
1.
0%
0&
1O
0N
1L
1K
0J
0G
0F
0D
0B
0p
0j
0d
0a
0q
1m
1k
0e
1b
0v
1w
0{
0}
1!!
1t
1u
1z
1~
0r
1o
0f
0V
1S
0R
05
12
01
#280000
0+
1)
1%
10
1"
0'
1(
0/
1Q
0P
0L
1J
1I
0H
1F
1C
1n
1d
0_
1[
1q
0k
0^
1\
0#!
1s
1{
0!!
0"!
1$!
0u
0|
1f
1r
0l
0`
1]
1Y
0X
0T
1R
1V
18
07
15
03
11
#290000
0)
0%
1-
1#
1!
0*
0.
0,
0O
1N
0M
0K
0J
0F
1D
1B
1p
1j
0d
0q
0m
0h
1e
0b
1v
0w
1y
1}
1!!
1u
0z
0~
1l
0i
0c
0W
0U
1T
06
04
13
#300000
1)
0-
0#
1*
1.
00
1'
0(
1/
1$
0Q
1P
1O
0N
1K
1J
0I
1H
1E
0D
0j
1g
1_
0[
1q
1m
0e
1b
1^
0\
1#!
0s
0v
1w
0}
0!!
1"!
0$!
0x
1z
0l
1i
0f
1c
1`
0]
0Y
1X
1W
0V
1U
0T
08
17
16
05
14
03
#310000
0)
1#
0.
1(
1%
0!
0O
0J
1I
1F
1D
0B
0p
1j
1d
1[
0q
0b
1v
1!!
0"!
0u
0z
1~
1l
1f
1]
0r
0c
0W
0R
1Y
1V
1T
18
06
15
13
01
#320000
0#
0(
0%
0*
10
0$
1&
0I
1G
0F
0E
0D
1Q
0K
0m
1\
0j
0g
0d
1a
0[
1"!
0t
1u
1x
1z
0#!
1}
0l
0i
0f
1c
1W
0V
0U
0T
16
05
04
03
#330000
1%
1*
00
1$
0&
1)
1.
1!
0/
1+
0G
1F
1E
1B
0Q
0P
1O
1L
1K
1J
1q
1m
1k
1b
0^
0\
1p
1g
1d
0a
1t
0u
0x
0~
1#!
1s
0v
0{
0}
0!!
1l
0]
1r
1i
1f
1V
1U
1R
0Y
1T
08
15
14
13
11
#340000
0%
0*
10
0$
0)
0.
0!
1/
0+
1#
0'
1,
0"
0H
0F
0E
1D
0C
0B
1Q
1P
0O
1M
0L
0K
0J
0q
0m
0k
1h
0b
1^
1\
0p
0n
1j
0g
0d
0_
1$!
1u
1x
0z
1|
1~
0#!
0s
1v
0y
1{
1}
1!!
0c
1]
0r
0o
0f
0V
0S
0R
1Y
0W
18
06
05
02
01
#350000
1$
0,
1-
1E
1N
0M
0h
1e
1g
0x
0w
1y
1f
1V
15
#360000
1,
1*
1.
1'
1O
1M
1K
1H
1_
1m
1h
1b
0v
0y
0}
0$!
1o
1c
1W
1S
16
12
#370000
0'
1%
1)
1!
0/
0#
1"
0H
1F
0D
1C
1B
0P
1J
1q
0^
1p
1n
0j
1d
0_
1$!
0u
1z
0|
0~
1s
0!!
1r
0l
0`
0X
0T
1R
07
03
11
#380000
0%
0)
0!
1#
0,
0$
1+
0F
0E
1D
0B
0M
1L
0J
0q
1k
0h
0p
1j
0g
0d
1u
1x
0z
1~
1y
0{
1!!
0r
1l
0i
0U
1T
0R
04
13
01
#390000
1!
0#
0+
1/
0*
00
1(
1I
0D
1B
0Q
1P
0L
0K
0m
0k
1^
0\
1p
0j
1[
0"!
1z
0~
1#!
0s
1{
1}
1`
1r
0l
0T
1R
1X
17
03
11
#400000
0!
0/
1*
10
0(
1%
1)
1,
1$
1'
0.
0I
1H
1F
1E
0B
1Q
0P
0O
1M
1K
1J
1q
1m
1h
0b
0^
1\
0p
1g
1d
1_
0[
1"!
0$!
0u
0x
1~
0#!
1s
1v
0y
0}
0!!
0c
1i
1U
0W
06
14
#410000
1!
1/
0*
00
0%
1.
1#
0F
1D
1B
0Q
1P
1O
0K
0m
1b
1^
0\
1p
1j
0d
1u
0z
0~
1#!
0s
0v
1}
1c
0]
1l
1T
0Y
1W
08
16
13
#420000
0!
10
0#
1(
1+
1I
0D
0B
1Q
1L
1k
1\
0p
0j
1[
0"!
1z
1~
0#!
0{
1]
1Y
18
#430000
00
0(
1%
0.
0)
0,
0'
0"
0-
0Q
0O
0N
0M
0J
0I
0H
1F
0C
0n
1d
0_
0[
0q
0h
0e
0b
0\
1#!
1v
1w
1y
1!!
1"!
1$!
0u
1|
0o
0r
0c
0]
0Y
0W
0R
0S
08
06
02
01
#440000
1(
0%
1)
1-
1#
0/
0$
1&
1I
1G
0F
0E
1D
0P
1N
1J
1q
1e
0^
1j
0g
0d
1a
1[
0"!
0t
1u
1x
0z
1s
0w
0!!
1r
0`
0i
1c
1]
1Y
1W
0U
0X
1R
18
07
16
04
11
#450000
1%
0)
0-
1/
1$
1.
1,
1'
1"
1H
1F
1E
1C
1P
1O
0N
1M
0J
0q
1h
0e
1b
1^
1n
1g
1d
1_
0$!
0u
0x
0|
0s
0v
1w
0y
1!!
0r
1o
1i
1`
1X
1U
1S
0R
17
14
12
01
#460000
0/
0$
0,
0'
0(
0+
1*
0P
0M
0L
1K
0I
0H
0E
0g
0_
0[
1m
0k
0h
0^
1s
1y
1{
0}
1"!
1$!
1x
0]
0i
0`
0X
0U
0Y
08
07
04
#470000
1/
1$
1+
0*
1-
0"
0&
10
1Q
1P
1N
1L
0K
0G
1E
0C
0n
1g
0a
0m
1k
1e
1^
1\
0#!
0s
0w
0{
1}
1t
0x
1|
1i
0o
1`
1]
1Y
1X
0S
1U
18
17
14
02
#480000
0/
0$
0+
1*
0-
1"
00
1,
1!
0Q
0P
0N
1M
0L
1K
0E
1C
1B
1p
1n
0g
1m
0k
1h
0e
0^
0\
1#!
1s
1w
0y
1{
0}
1x
0|
0~
1r
1o
0`
0]
0Y
0X
1S
1R
08
07
12
11
#490000
1/
1+
0*
1-
0"
0,
0!
1&
1'
0%
1)
0.
1P
0O
1N
0M
1L
0K
1J
1H
1G
0F
0C
0B
0p
0n
0d
1a
1_
1q
0m
1k
0h
1e
0b
1^
0s
1v
0w
1y
0{
1}
0!!
0$!
0t
1u
1|
1~
0o
0i
1`
1X
0U
0S
17
04
02
#500000
0+
1*
1%
0)
1$
10
1Q
0L
1K
0J
1F
1E
1g
1d
0q
1m
0k
1\
0#!
1{
0}
1!!
0u
0x
1i
0r
1o
1]
1Y
1S
0R
1U
18
14
12
01
#510000
0%
0$
00
0-
1"
1!
0&
1.
0G
0F
0E
1C
1B
0Q
1O
0N
0e
1b
0\
1p
1n
0g
0d
0a
1t
1u
1x
0|
0~
1#!
0v
1w
0]
1r
0i
0f
0V
0U
1R
0Y
08
05
04
11
#520000
10
1-
1+
0*
0/
1Q
0P
1N
1L
0K
0m
1k
1e
0^
1\
0#!
1s
0w
0{
1}
1f
1]
1Y
1V
18
15
#530000
00
0+
1%
0"
0!
0.
1)
1(
0Q
0O
0L
1J
1I
1F
0C
0B
0p
0n
1d
1[
1q
0k
0b
0\
1#!
1v
1{
0!!
0"!
0u
1|
1~
0o
0c
0W
0S
06
02
#540000
0%
0)
0-
1/
1$
1&
1,
1G
0F
1E
1P
0N
1M
0J
0q
1h
0e
1^
1g
0d
1a
0t
1u
0x
0s
1w
0y
1!!
0r
1i
0f
1c
1W
0V
1U
0R
16
05
14
01
#550000
1%
1)
0/
0,
10
1+
0(
0'
0#
0I
0H
1F
0D
1Q
0P
0M
1L
1J
1q
1k
0h
0^
1\
0j
1d
0_
0[
1"!
1$!
0u
1z
0#!
1s
1y
0{
0!!
1r
1f
0`
0X
1V
1R
07
15
11
#560000
0%
0)
1,
00
1'
0&
1!
1H
0G
0F
1B
0Q
1M
0J
0q
1h
0\
1p
0d
0a
1_
0$!
1t
1u
0~
1#!
0y
1!!
0]
0f
0c
1`
1X
0W
0V
0Y
08
17
06
05
#570000
1)
0,
0!
1/
1#
0$
1"
1P
0M
1J
0E
1D
1C
0B
0p
1n
1j
0g
1q
0h
1^
0s
1y
0!!
1x
0z
0|
1~
1o
0i
0U
1S
04
12
#580000
0)
1!
1$
0"
1%
10
0'
1&
1.
1Q
1O
0J
0H
1G
1F
1E
0C
1B
1p
0n
1g
1d
1a
0_
0q
1b
1\
0#!
0v
1!!
1$!
0t
0u
0x
1|
0~
0o
1i
1f
1c
1]
1Y
1W
1V
1U
0S
18
16
15
14
02
#590000
0!
00
1'
0.
1,
0/
1(
1-
1*
1I
1H
0B
0Q
0P
0O
1N
1M
1K
1m
1h
1e
0b
0^
0\
0p
1_
1[
0"!
0$!
1~
1#!
1s
1v
0w
0y
0}
1o
0r
0R
1S
12
01
#600000
10
1)
0$
0%
0#
0+
1Q
0L
1J
0F
0E
0D
0j
0g
0d
1q
0k
1\
0#!
1{
0!!
1u
1x
1z
1r
0l
0T
1R
03
11
#610000
0)
1$
1#
1!
0'
1.
0*
1"
0&
1O
0K
0J
0H
0G
1E
1D
1C
1B
1p
1n
1j
1g
0a
0_
0q
0m
1b
0v
1}
1!!
1$!
1t
0x
0z
0|
0~
1l
0`
0X
1T
07
13
#620000
1)
0#
0!
1'
1*
1&
1+
1/
0(
1P
1L
1K
1J
0I
1H
1G
0D
0B
0p
0j
1a
1_
0[
1q
1m
1k
1^
0s
0{
0}
0!!
1"!
0$!
0t
1z
1~
1`
1X
17
#630000
0'
1(
0$
0.
0"
1%
0-
1I
0H
1F
0E
0C
0O
0N
0e
0b
0n
0g
1d
0_
1[
0"!
1$!
0u
1x
1|
1v
1w
#640000
0(
1$
1-
1#
0*
0&
0/
0I
0G
1E
1D
0P
1N
0K
0m
1e
0^
1j
1g
0a
0[
1"!
1t
0x
0z
1s
0w
1}
0o
0`
0c
0W
0X
0S
07
06
02
#650000
1(
0#
1&
1"
0%
0)
00
1I
1G
0F
0D
1C
0Q
0J
0q
0\
1n
0j
0d
1a
1[
0"!
0t
1u
1z
0|
1#!
1!!
0r
1o
1c
1W
1S
0R
16
12
01
#660000
10
0$
1'
1.
1!
0+
0,
1Q
1O
0M
0L
1H
0E
1B
1p
0g
1_
0k
0h
1b
1\
0#!
0v
1y
1{
0$!
1x
0~
1r
1`
0l
0i
0U
0T
1X
1R
17
04
03
11
#670000
0.
1+
1,
0&
1)
0O
1M
1L
1J
0G
0a
1q
1k
1h
0b
1v
0y
0{
0!!
1t
1l
1i
0c
0W
1U
1T
06
14
13
#680000
1.
1&
0)
00
0'
0!
0(
1/
0Q
1P
1O
0J
0I
0H
1G
0B
0p
1a
0_
0[
0q
1b
1^
0\
1#!
0s
0v
1!!
1"!
1$!
0t
1~
0r
1c
0]
0Y
1W
0R
08
16
01
#690000
0&
0,
0"
0-
1*
0G
0C
0N
0M
1K
1m
0h
0e
0n
0a
1t
1|
1w
1y
0}
0i
0f
0V
0U
05
04
#700000
1&
1)
0/
0+
1$
1#
1G
1E
1D
0P
0L
1J
1q
0k
0^
1j
1g
1a
0t
0x
0z
1s
1{
0!!
1r
0`
1i
1U
0X
1R
07
14
11
#710000
0&
0)
0$
0#
1"
10
1%
0G
1F
0E
0D
1C
1Q
0J
0q
1\
1n
0j
0g
1d
0a
1t
0u
1x
1z
0|
0#!
1!!
0r
1]
0l
0i
1f
1V
0U
0T
1Y
0R
18
15
04
03
01
#720000
1&
1)
1$
1#
0"
0%
1/
1-
0*
1'
1!
1(
1I
1H
1G
0F
1E
1D
0C
1B
1P
1N
0K
1J
1q
0m
1e
1^
1p
0n
1j
1g
0d
1a
1_
1[
0"!
0$!
0t
1u
0x
0z
1|
0~
0s
0w
1}
0!!
1r
0o
1l
1i
1`
1X
1U
1T
0S
1R
17
14
13
02
11
#730000
0$
0/
0-
1*
0!
0(
1,
0.
0I
0E
0B
0P
0O
0N
1M
1K
1m
1h
0e
0b
0^
0p
0g
0[
1"!
1x
1~
1s
1v
1w
0y
0}
1o
0f
0V
1S
05
12
#740000
1$
1-
1!
0)
0#
0'
0H
1E
0D
1B
1N
0J
0q
1e
1p
0j
1g
0_
1$!
0x
1z
0~
0w
1!!
1f
0l
0`
0X
0T
1V
07
15
03
#750000
0!
1)
1"
1+
1C
0B
1L
1J
1q
1k
0p
1n
0|
1~
0{
0!!
1l
1T
13
#760000
0+
0-
1'
1/
0&
00
0Q
1P
0N
0L
1H
0G
0a
1_
0k
0e
1^
0\
1#!
0s
1w
1{
0$!
1t
0c
0l
0f
1`
0]
0Y
1X
0V
0T
0W
08
17
06
05
03
#770000
0/
1&
1!
0)
0"
0$
1#
0*
1.
0P
1O
0K
0J
1G
0E
1D
0C
1B
1p
0n
1j
0g
1a
0q
0m
1b
0^
1s
0v
1}
1!!
0t
1x
0z
1|
0~
1l
0o
1c
1W
0S
1T
16
13
02
#780000
1+
0'
10
0,
1%
1Q
0M
1L
0H
1F
1d
0_
1k
0h
1\
0#!
1y
0{
1$!
0u
1f
0`
0i
1]
1Y
0U
0X
1V
18
07
15
04
#790000
00
1,
0%
1/
0&
0Q
1P
1M
0G
0F
0d
0a
1h
1^
0\
1#!
0s
0y
1t
1u
0f
1i
1`
0]
0Y
1X
1U
0V
08
17
05
14
#800000
10
1%
1&
0+
1'
0!
1"
1$
0.
1-
1(
1Q
0O
1N
0L
1I
1H
1G
1F
1E
1C
0B
0p
1n
1g
1d
1a
1_
1[
0k
1e
0b
1\
0#!
1v
0w
1{
0"!
0$!
0t
0u
0x
0|
1~
0r
1o
1f
1]
1Y
1V
1S
0R
18
15
12
01
#810000
00
1!
0"
0(
0,
0#
1*
0Q
0M
1K
0I
0D
0C
1B
1p
0n
0j
0[
1m
0h
0\
1#!
1y
0}
1"!
1z
1|
0~
1r
0l
0]
0Y
0T
1R
08
03
11
#820000
0!
1(
1#
0%
0&
1+
0$
1.
0-
1I
0G
0F
0E
1D
0B
1O
0N
1L
1k
0e
1b
0p
1j
0g
0d
0a
1[
0"!
1t
1u
1x
0z
1~
0v
1w
0{
0r
1l
0i
0f
1]
1Y
0V
0U
1T
0R
18
05
04
13
01
#830000
0(
0#
0+
1$
1-
10
1"
0'
0I
0H
1E
0D
1C
1Q
1N
0L
0k
1e
1\
1n
0j
1g
0_
0[
1"!
1$!
0x
1z
0|
0#!
0w
1{
1f
0l
1i
1U
0T
1V
15
14
03
#840000
1#
1+
0-
00
0"
1'
1!
1,
1)
1H
1D
0C
1B
0Q
0N
1M
1L
1J
1q
1k
1h
0e
0\
1p
0n
1j
1_
0$!
0z
1|
0~
1#!
1w
0y
0{
0!!
0f
0]
1r
1l
1T
1R
0Y
0V
08
05
13
11
#850000
0#
1-
10
1"
0!
0$
0E
0D
1C
0B
1Q
1N
1e
1\
0p
1n
0j
0g
1x
1z
0|
1~
0#!
0w
1f
1]
1Y
1V
18
15
#860000
1#
00
1!
1$
0,
1%
1&
0/
1G
1F
1E
1D
1B
0Q
0P
0M
0h
0^
0\
1p
1j
1g
1d
1a
0t
0u
0x
0z
0~
1#!
1s
1y
0]
0Y
08
#870000
10
0$
1,
0%
1/
0"
0+
0)
0.
0*
1Q
1P
0O
1M
0L
0K
0J
0F
0E
0C
0n
0g
0d
0q
0m
0k
1h
0b
1^
1\
0#!
0s
1v
0y
1{
1}
1!!
1u
1x
1|
0o
1]
1Y
0S
18
02
#880000
0,
0/
1+
1.
0#
0-
0P
1O
0N
0M
1L
0D
0j
1k
0h
0e
1b
0^
1s
0v
1w
1y
0{
1z
0i
0f
0V
0U
05
04
#890000
1,
0+
1#
00
1$
1%
1*
0!
0&
0'
1(
0Q
1M
0L
1K
1I
0H
0G
1F
1E
1D
0B
0p
1j
1g
1d
0a
0_
1[
1m
0k
1h
0\
1#!
0y
1{
0}
0"!
1$!
1t
0u
0x
0z
1~
0r
1f
0`
1o
1i
1U
1S
0X
1V
0R
07
15
14
12
01
#900000
1+
10
0%
0*
1&
1'
0(
1/
0.
1-
1"
1Q
1P
0O
1N
1L
0K
0I
1H
1G
0F
1C
1n
0d
1a
1_
0[
0m
1k
1e
0b
1^
1\
0#!
0s
1v
0w
0{
1}
1"!
0$!
0t
1u
0|
1`
1X
17
#910000
1*
0&
0'
1.
0-
0"
1!
1)
1O
0N
1K
1J
0H
0G
0C
1B
1p
0n
0a
0_
1q
1m
0e
1b
0v
1w
0}
0!!
1$!
1t
1|
0~
1r
0f
0V
1R
05
11
#920000
0!
00
0/
0,
0$
0E
0B
0Q
0P
0M
0h
0^
0\
0p
0g
1x
1~
1#!
1s
1y
0`
0]
0i
0U
0Y
0X
08
07
04
#930000
1!
1,
0*
1'
0.
1-
0)
1%
1(
1I
1H
1F
1B
0O
1N
1M
0K
0J
0q
0m
1h
1e
0b
1p
1d
1_
1[
0"!
0$!
0u
0~
1v
0w
0y
1}
1!!
0o
1i
0c
1f
1`
1]
1Y
1X
1V
0W
1U
0S
18
17
06
15
14
02
#940000
0!
1*
0-
1)
10
1&
1G
0B
1Q
0N
1K
1J
1q
1m
0e
1\
0p
1a
0t
1~
0#!
1w
0}
0!!
1o
1c
1W
1S
16
12
#950000
1.
0(
1"
0#
1O
0I
0D
1C
1n
0j
0[
1b
0v
1"!
1z
0|
#960000
0.
1(
0"
1#
0*
0)
00
0'
0%
0+
0Q
0O
0L
0K
0J
1I
0H
0F
1D
0C
0n
1j
0d
0_
1[
0q
0m
0k
0b
0\
1#!
1v
1{
1}
1!!
0"!
1$!
1u
0z
1|
0f
0`
0r
0o
0S
0R
0X
0V
07
05
02
01
#970000
1.
0#
1'
1%
1+
1-
1/
1P
1O
1N
1L
1H
1F
0D
0j
1d
1_
1k
1e
1b
1^
0s
0v
0w
0{
0$!
0u
1z
1f
1`
1X
1V
17
15
#980000
1#
0'
0%
0/
0(
1)
0,
1$
0I
0H
0F
1E
1D
0P
0M
1J
1q
0h
0^
1j
1g
0d
0_
0[
1"!
1$!
1u
0x
0z
1s
1y
0!!
1r
0`
0]
0Y
0X
1R
08
07
11
