VHDL TEST/notgate8bits/simulation/qsim/notgate8bits.msim.vcd
$comment
	File created using the following command:
		vcd file notgate8bits.msim.vcd -direction
$end
$date
	Mon Nov 18 14:27:00 2024
$end
$version
	ModelSim Version 2020.1
$end
$timescale
	1ps
$end

$scope module notgate8bits_vhd_vec_tst $end
$var wire 1 ! A [7] $end
$var wire 1 " A [6] $end
$var wire 1 # A [5] $end
$var wire 1 $ A [4] $end
$var wire 1 % A [3] $end
$var wire 1 & A [2] $end
$var wire 1 ' A [1] $end
$var wire 1 ( A [0] $end
$var wire 1 ) B [7] $end
$var wire 1 * B [6] $end
$var wire 1 + B [5] $end
$var wire 1 , B [4] $end
$var wire 1 - B [3] $end
$var wire 1 . B [2] $end
$var wire 1 / B [1] $end
$var wire 1 0 B [0] $end

$scope module i1 $end
$var wire 1 1 gnd $end
$var wire 1 2 vcc $end
$var wire 1 3 unknown $end
$var wire 1 4 devoe $end
$var wire 1 5 devclrn $end
$var wire 1 6 devpor $end
$var wire 1 7 ww_devoe $end
$var wire 1 8 ww_devclrn $end
$var wire 1 9 ww_devpor $end
$var wire 1 : ww_A [7] $end
$var wire 1 ; ww_A [6] $end
$var wire 1 < ww_A [5] $end
$var wire 1 = ww_A [4] $end
$var wire 1 > ww_A [3] $end
$var wire 1 ? ww_A [2] $end
$var wire 1 @ ww_A [1] $end
$var wire 1 A ww_A [0] $end
$var wire 1 B ww_B [7] $end
$var wire 1 C ww_B [6] $end
$var wire 1 D ww_B [5] $end
$var wire 1 E ww_B [4] $end
$var wire 1 F ww_B [3] $end
$var wire 1 G ww_B [2] $end
$var wire 1 H ww_B [1] $end
$var wire 1 I ww_B [0] $end
$var wire 1 J \~QUARTUS_CREATED_GND~I_combout\ $end
$var wire 1 K \A[0]~input_o\ $end
$var wire 1 L \A[1]~input_o\ $end
$var wire 1 M \A[2]~input_o\ $end
$var wire 1 N \A[3]~input_o\ $end
$var wire 1 O \A[4]~input_o\ $end
$var wire 1 P \A[5]~input_o\ $end
$var wire 1 Q \A[6]~input_o\ $end
$var wire 1 R \A[7]~input_o\ $end
$var wire 1 S \ALT_INV_A[7]~input_o\ $end
$var wire 1 T \ALT_INV_A[3]~input_o\ $end
$var wire 1 U \ALT_INV_A[4]~input_o\ $end
$var wire 1 V \ALT_INV_A[5]~input_o\ $end
$var wire 1 W \ALT_INV_A[6]~input_o\ $end
$var wire 1 X \ALT_INV_A[0]~input_o\ $end
$var wire 1 Y \ALT_INV_A[1]~input_o\ $end
$var wire 1 Z \ALT_INV_A[2]~input_o\ $end
$upscope $end
$upscope $end
$enddefinitions $end
#0
$dumpvars
01
12
x3
14
15
16
17
18
19
xJ
0K
0L
0M
1N
1O
1P
0Q
0R
1S
0T
0U
0V
1W
1X
1Y
1Z
0!
0"
1#
1$
1%
0&
0'
0(
0:
0;
1<
1=
1>
0?
0@
0A
1B
1C
0D
0E
0F
1G
1H
1I
1)
1*
0+
0,
0-
1.
1/
10
$end
#10000
0#
0$
1&
1?
0=
0<
0P
0O
1M
0Z
1U
1V
1D
1E
0G
0.
1,
1+
#20000
1#
1$
0&
1"
1'
1(
1A
1@
0?
1=
1<
1;
1Q
1P
1O
0M
1L
1K
0X
0Y
1Z
0U
0V
0W
0C
0D
0E
1G
0H
0I
00
0/
1.
0,
0+
0*
#30000
0$
0"
0=
0;
0Q
0O
1U
1W
1C
1E
1,
1*
#40000
1$
1"
0#
0(
0%
0A
0>
1=
0<
1;
1Q
0P
1O
0N
0K
1X
1T
0U
1V
0W
0C
1D
0E
1F
1I
10
1-
0,
1+
0*
#60000
1#
1%
0'
1!
0@
1>
1<
1:
1R
1P
1N
0L
1Y
0T
0V
0S
0B
0D
0F
1H
1/
0-
0+
0)
#70000
0#
1'
0"
1&
1@
1?
0<
0;
0Q
0P
1M
1L
0Y
0Z
1V
1W
1C
1D
0G
0H
0/
0.
1+
1*
#80000
0'
0!
1(
1A
0@
0:
0R
0L
1K
0X
1Y
1S
1B
1H
0I
00
1/
1)
#90000
1'
1#
0&
0%
0$
1@
0?
0>
0=
1<
1P
0O
0N
0M
1L
0Y
1Z
1T
1U
0V
0D
1E
1F
1G
0H
0/
1.
1-
1,
0+
#100000
0#
1%
1$
0(
1"
0A
1>
1=
0<
1;
1Q
0P
1O
1N
0K
1X
0T
0U
1V
0W
0C
1D
0E
0F
1I
10
0-
0,
1+
0*
#110000
0$
1&
1!
1?
0=
1:
1R
0O
1M
0Z
1U
0S
0B
1E
0G
0.
1,
0)
#120000
0&
0!
0%
1(
0'
1A
0@
0?
0>
0:
0R
0N
0M
0L
1K
0X
1Y
1Z
1T
1S
1B
1F
1G
1H
0I
00
1/
1.
1-
1)
#130000
1&
1!
1%
1$
1#
0"
1?
1>
1=
1<
0;
1:
1R
0Q
1P
1O
1N
1M
0Z
0T
0U
0V
1W
0S
0B
1C
0D
0E
0F
0G
0.
0-
0,
0+
1*
0)
#140000
0$
0#
1"
1'
1@
0=
0<
1;
1Q
0P
0O
1L
0Y
1U
1V
0W
0C
1D
1E
0H
0/
1,
1+
0*
#150000
1$
1#
0"
0'
0@
1=
1<
0;
0Q
1P
1O
0L
1Y
0U
0V
1W
1C
0D
0E
1H
1/
0,
0+
1*
#160000
0#
0%
0>
0<
0P
0N
1T
1V
1D
1F
1-
1+
#170000
1#
1%
0$
1"
0&
0?
1>
0=
1<
1;
1Q
1P
0O
1N
0M
1Z
0T
1U
0V
0W
0C
0D
1E
0F
1G
1.
0-
1,
0+
0*
#180000
0#
0%
1$
0"
0!
0(
0A
0>
1=
0<
0;
0:
0R
0Q
0P
1O
0N
0K
1X
1T
0U
1V
1W
1S
1B
1C
1D
0E
1F
1I
10
1-
0,
1+
1*
1)
#190000
1&
1'
1@
1?
1M
1L
0Y
0Z
0G
0H
0/
0.
#200000
0&
0'
1%
0@
0?
1>
1N
0M
0L
1Y
1Z
0T
0F
1G
1H
1/
1.
0-
#210000
1&
0%
1#
0$
1"
1!
1(
1A
1?
0>
0=
1<
1;
1:
1R
1Q
1P
0O
0N
1M
1K
0X
0Z
1T
1U
0V
0W
0S
0B
0C
0D
1E
1F
0G
0I
00
0.
1-
1,
0+
0*
0)
#220000
0&
1%
0#
1$
0(
1'
0A
1@
0?
1>
1=
0<
0P
1O
1N
0M
1L
0K
1X
0Y
1Z
0T
0U
1V
1D
0E
0F
1G
0H
1I
10
0/
1.
0-
0,
1+
#230000
1#
0$
1(
0'
0!
1A
0@
0=
1<
0:
0R
1P
0O
0L
1K
0X
1Y
1U
0V
1S
1B
0D
1E
1H
0I
00
1/
1,
0+
1)
#240000
0(
1!
1&
0A
1?
1:
1R
1M
0K
1X
0Z
0S
0B
0G
1I
10
0.
0)
#250000
1(
0!
0&
0#
1'
0"
1A
1@
0?
0<
0;
0:
0R
0Q
0P
0M
1L
1K
0X
0Y
1Z
1V
1W
1S
1B
1C
1D
1G
0H
0I
00
0/
1.
1+
1*
1)
#270000
1!
1&
0'
0@
1?
1:
1R
1M
0L
1Y
0Z
0S
0B
0G
1H
1/
0.
0)
#280000
0(
1#
1"
0A
1<
1;
1Q
1P
0K
1X
0V
0W
0C
0D
1I
10
0+
0*
#290000
0"
1'
1@
0;
0Q
1L
0Y
1W
1C
0H
0/
1*
#300000
0#
0!
1$
1=
0<
0:
0R
0P
1O
0U
1V
1S
1B
1D
0E
0,
1+
1)
#310000
1#
1!
0'
0&
0%
0@
0?
0>
1<
1:
1R
1P
0N
0M
0L
1Y
1Z
1T
0V
0S
0B
0D
1F
1G
1H
1/
1.
1-
0+
0)
#320000
0#
0!
0<
0:
0R
0P
1V
1S
1B
1D
1+
1)
#330000
1#
1%
1"
1(
1A
1>
1<
1;
1Q
1P
1N
1K
0X
0T
0V
0W
0C
0D
0F
0I
00
0-
0+
0*
#340000
0#
0(
1&
0A
1?
0<
0P
1M
0K
1X
0Z
1V
1D
0G
1I
10
0.
1+
#350000
1(
0&
0%
1'
1A
1@
0?
0>
0N
0M
1L
1K
0X
0Y
1Z
1T
1F
1G
0H
0I
00
0/
1.
1-
#360000
1%
0'
1#
0"
0$
0@
1>
0=
1<
0;
0Q
1P
0O
1N
0L
1Y
0T
1U
0V
1W
1C
0D
1E
0F
1H
1/
0-
1,
0+
1*
#370000
0%
0(
1&
1!
0A
1?
0>
1:
1R
0N
1M
0K
1X
0Z
1T
0S
0B
1F
0G
1I
10
0.
1-
0)
#380000
0!
1'
0#
1$
1@
1=
0<
0:
0R
0P
1O
1L
0Y
0U
1V
1S
1B
1D
0E
0H
0/
0,
1+
1)
#390000
0'
1#
1%
0&
0@
0?
1>
1<
1P
1N
0M
0L
1Y
1Z
0T
0V
0D
0F
1G
1H
1/
1.
0-
0+
#400000
1'
0%
1&
1!
0$
1(
1A
1@
1?
0>
0=
1:
1R
0O
0N
1M
1L
1K
0X
0Y
0Z
1T
1U
0S
0B
1E
1F
0G
0H
0I
00
0/
0.
1-
1,
0)
#410000
0!
1$
0(
0A
1=
0:
0R
1O
0K
1X
0U
1S
1B
0E
1I
10
0,
1)
#420000
0$
0&
1"
0?
0=
1;
1Q
0O
0M
1Z
1U
0W
0C
1E
1G
1.
1,
0*
#430000
0"
1!
0;
1:
1R
0Q
1W
0S
0B
1C
1*
0)
#440000
1(
1A
1K
0X
0I
00
#450000
0(
0!
1$
0#
0A
1=
0<
0:
0R
0P
1O
0K
1X
0U
1V
1S
1B
1D
0E
1I
10
0,
1+
1)
#460000
1!
1"
0'
1%
0@
1>
1;
1:
1R
1Q
1N
0L
1Y
0T
0W
0S
0B
0C
0F
1H
1/
0-
0*
0)
#470000
0!
0"
0%
1(
0$
1#
1A
0>
0=
1<
0;
0:
0R
0Q
1P
0O
0N
1K
0X
1T
1U
0V
1W
1S
1B
1C
0D
1E
1F
0I
00
1-
1,
0+
1*
1)
#480000
1"
1%
1>
1;
1Q
1N
0T
0W
0C
0F
0-
0*
#490000
0"
0%
0#
1'
1@
0>
0<
0;
0Q
0P
0N
1L
0Y
1T
1V
1W
1C
1D
1F
0H
0/
1-
1+
1*
#500000
1%
1#
1!
0(
1$
0A
1>
1=
1<
1:
1R
1P
1O
1N
0K
1X
0T
0U
0V
0S
0B
0D
0E
0F
1I
10
0-
0,
0+
0)
#510000
0%
0#
0!
0$
0'
0@
0>
0=
0<
0:
0R
0P
0O
0N
0L
1Y
1T
1U
1V
1S
1B
1D
1E
1F
1H
1/
1-
1,
1+
1)
#520000
1%
1$
1'
1@
1>
1=
1O
1N
1L
0Y
0T
0U
0E
0F
0H
0/
0-
0,
#530000
0%
0$
1(
1&
1A
1?
0>
0=
0O
0N
1M
1K
0X
0Z
1T
1U
1E
1F
0G
0I
00
0.
1-
1,
#540000
1%
0&
1"
0?
1>
1;
1Q
1N
0M
1Z
0T
0W
0C
0F
1G
1.
0-
0*
#550000
0"
0(
0'
0A
0@
0;
0Q
0L
0K
1X
1Y
1W
1C
1H
1I
10
1/
1*
#560000
1(
1&
1$
1#
1A
1?
1=
1<
1P
1O
1M
1K
0X
0Z
0U
0V
0D
0E
0G
0I
00
0.
0,
0+
#570000
0&
0#
0%
0?
0>
0<
0P
0N
0M
1Z
1T
1V
1D
1F
1G
1.
1-
1+
#580000
1&
1%
1"
1'
1!
1@
1?
1>
1;
1:
1R
1Q
1N
1M
1L
0Y
0Z
0T
0W
0S
0B
0C
0F
0G
0H
0/
0.
0-
0*
0)
#590000
0%
0'
0$
0@
0>
0=
0O
0N
0L
1Y
1T
1U
1E
1F
1H
1/
1-
1,
#600000
1#
1<
1P
0V
0D
0+
#610000
0#
1%
1'
0&
0(
0A
1@
0?
1>
0<
0P
1N
0M
1L
0K
1X
0Y
1Z
0T
1V
1D
0F
1G
0H
1I
10
0/
1.
0-
1+
#620000
0%
1&
0"
0!
1?
0>
0;
0:
0R
0Q
0N
1M
0Z
1T
1W
1S
1B
1C
1F
0G
0.
1-
1*
1)
#630000
0&
1#
1$
0?
1=
1<
1P
1O
0M
1Z
0U
0V
0D
0E
1G
1.
0,
0+
#640000
1&
1"
1!
0'
1(
1A
0@
1?
1;
1:
1R
1Q
1M
0L
1K
0X
1Y
0Z
0W
0S
0B
0C
0G
1H
0I
00
1/
0.
0*
0)
#650000
0"
1'
0#
1%
1@
1>
0<
0;
0Q
0P
1N
1L
0Y
0T
1V
1W
1C
1D
0F
0H
0/
0-
1+
1*
#660000
0'
1#
0&
0!
0$
0@
0?
0=
1<
0:
0R
1P
0O
0M
0L
1Y
1Z
1U
0V
1S
1B
0D
1E
1G
1H
1/
1.
1,
0+
1)
#670000
1'
1&
1!
1$
0%
1@
1?
0>
1=
1:
1R
1O
0N
1M
1L
0Y
0Z
1T
0U
0S
0B
0E
1F
0G
0H
0/
0.
1-
0,
0)
#680000
0&
0!
0$
1%
1"
0?
1>
0=
1;
0:
0R
1Q
0O
1N
0M
1Z
0T
1U
0W
1S
1B
0C
1E
0F
1G
1.
0-
1,
0*
1)
#690000
1!
0"
0#
0<
0;
1:
1R
0Q
0P
1V
1W
0S
0B
1C
1D
1+
1*
0)
#700000
1#
0%
0>
1<
1P
0N
1T
0V
0D
1F
1-
0+
#710000
0#
1&
0'
0@
1?
0<
0P
1M
0L
1Y
0Z
1V
1D
0G
1H
1/
0.
1+
#720000
0!
1"
1$
0(
0A
1=
1;
0:
0R
1Q
1O
0K
1X
0U
0W
1S
1B
0C
0E
1I
10
0,
0*
1)
#730000
0$
1(
0&
1'
1%
1A
1@
0?
1>
0=
0O
1N
0M
1L
1K
0X
0Y
1Z
0T
1U
1E
0F
1G
0H
0I
00
0/
1.
0-
1,
#740000
1$
1&
0'
0%
1!
0@
1?
0>
1=
1:
1R
1O
0N
1M
0L
1Y
0Z
1T
0U
0S
0B
0E
1F
0G
1H
1/
0.
1-
0,
0)
#750000
0&
0!
0(
0"
1#
0A
0?
1<
0;
0:
0R
0Q
1P
0M
0K
1X
1Z
0V
1W
1S
1B
1C
0D
1G
1I
10
1.
0+
1*
1)
#760000
1&
1!
1(
1"
0#
1'
1%
1A
1@
1?
1>
0<
1;
1:
1R
1Q
0P
1N
1M
1L
1K
0X
0Y
0Z
0T
1V
0W
0S
0B
0C
1D
0F
0G
0H
0I
00
0/
0.
0-
1+
0*
0)
#770000
0&
0(
0"
0'
0$
0A
0@
0?
0=
0;
0Q
0O
0M
0L
0K
1X
1Y
1Z
1U
1W
1C
1E
1G
1H
1I
10
1/
1.
1,
1*
#780000
1&
1"
0!
1?
1;
0:
0R
1Q
1M
0Z
0W
1S
1B
0C
0G
0.
0*
1)
#790000
0&
1!
0%
0?
0>
1:
1R
0N
0M
1Z
1T
0S
0B
1F
1G
1.
1-
0)
#800000
1&
0!
1%
1#
1?
1>
1<
0:
0R
1P
1N
1M
0Z
0T
0V
1S
1B
0D
0F
0G
0.
0-
0+
1)
#810000
0#
0"
1(
1'
1A
1@
0<
0;
0Q
0P
1L
1K
0X
0Y
1V
1W
1C
1D
0H
0I
00
0/
1+
1*
#820000
1"
0(
0'
0&
1!
0A
0@
0?
1;
1:
1R
1Q
0M
0L
0K
1X
1Y
1Z
0W
0S
0B
0C
1G
1H
1I
10
1/
1.
0*
0)
#830000
1&
1?
1M
0Z
0G
0.
#840000
0&
1'
1#
0%
1@
0?
0>
1<
1P
0N
0M
1L
0Y
1Z
1T
0V
0D
1F
1G
0H
0/
1.
1-
0+
#850000
0#
1$
1=
0<
0P
1O
0U
1V
1D
0E
0,
1+
#860000
0$
0'
0"
1(
0!
1A
0@
0=
0;
0:
0R
0Q
0O
0L
1K
0X
1Y
1U
1W
1S
1B
1C
1E
1H
0I
00
1/
1,
1*
1)
#870000
1$
1'
1%
1@
1>
1=
1O
1N
1L
0Y
0T
0U
0E
0F
0H
0/
0-
0,
#880000
0'
0%
1!
1#
0@
0>
1<
1:
1R
1P
0N
0L
1Y
1T
0V
0S
0B
0D
1F
1H
1/
1-
0+
0)
#890000
0#
1"
0<
1;
1Q
0P
1V
0W
0C
1D
1+
0*
#900000
0"
1'
1&
1@
1?
0;
0Q
1M
1L
0Y
0Z
1W
1C
0G
0H
0/
0.
1*
#910000
1"
0!
0$
0=
1;
0:
0R
1Q
0O
1U
0W
1S
1B
0C
1E
1,
0*
1)
#920000
1!
1$
0&
0?
1=
1:
1R
1O
0M
1Z
0U
0S
0B
0E
1G
1.
0,
0)
#930000
0!
0$
1#
0=
1<
0:
0R
1P
0O
1U
0V
1S
1B
0D
1E
1,
0+
1)
#940000
1$
0'
1%
0(
0A
0@
1>
1=
1O
1N
0L
0K
1X
1Y
0T
0U
0E
0F
1H
1I
10
1/
0-
0,
#950000
0$
1'
0%
1(
1!
1&
1A
1@
1?
0>
0=
1:
1R
0O
0N
1M
1L
1K
0X
0Y
0Z
1T
1U
0S
0B
1E
1F
0G
0H
0I
00
0/
0.
1-
1,
0)
#960000
0'
1%
0"
0@
1>
0;
0Q
1N
0L
1Y
0T
1W
1C
0F
1H
1/
0-
1*
#970000
1"
1$
0#
1=
0<
1;
1Q
0P
1O
0U
1V
0W
0C
1D
0E
0,
1+
0*
#980000
1#
1'
0%
0(
0&
0A
1@
0?
0>
1<
1P
0N
0M
1L
0K
1X
0Y
1Z
1T
0V
0D
1F
1G
0H
1I
10
0/
1.
1-
0+
#990000
1&
0"
1?
0;
0Q
1M
0Z
1W
1C
0G
0.
1*
