VHDL TEST/comparador8bits/simulation/qsim/comparador8bits.msim.vcd
$comment
	File created using the following command:
		vcd file comparador8bits.msim.vcd -direction
$end
$date
	Mon Nov 18 14:16:23 2024
$end
$version
	ModelSim Version 2020.1
$end
$timescale
	1ps
$end

$scope module comparador8bits_vhd_vec_tst $end
$var wire 1 ! A [7] $end
$var wire 1 " A [6] $end
$var wire 1 # A [5] $end
$var wire 1 $ A [4] $end
$var wire 1 % A [3] $end
$var wire 1 & A [2] $end
$var wire 1 ' A [1] $end
$var wire 1 ( A [0] $end
$var wire 1 ) Amayor $end
$var wire 1 * Amenor $end
$var wire 1 + B [7] $end
$var wire 1 , B [6] $end
$var wire 1 - B [5] $end
$var wire 1 . B [4] $end
$var wire 1 / B [3] $end
$var wire 1 0 B [2] $end
$var wire 1 1 B [1] $end
$var wire 1 2 B [0] $end
$var wire 1 3 igual $end

$scope module i1 $end
$var wire 1 4 gnd $end
$var wire 1 5 vcc $end
$var wire 1 6 unknown $end
$var wire 1 7 devoe $end
$var wire 1 8 devclrn $end
$var wire 1 9 devpor $end
$var wire 1 : ww_devoe $end
$var wire 1 ; ww_devclrn $end
$var wire 1 < ww_devpor $end
$var wire 1 = ww_A [7] $end
$var wire 1 > ww_A [6] $end
$var wire 1 ? ww_A [5] $end
$var wire 1 @ ww_A [4] $end
$var wire 1 A ww_A [3] $end
$var wire 1 B ww_A [2] $end
$var wire 1 C ww_A [1] $end
$var wire 1 D ww_A [0] $end
$var wire 1 E ww_B [7] $end
$var wire 1 F ww_B [6] $end
$var wire 1 G ww_B [5] $end
$var wire 1 H ww_B [4] $end
$var wire 1 I ww_B [3] $end
$var wire 1 J ww_B [2] $end
$var wire 1 K ww_B [1] $end
$var wire 1 L ww_B [0] $end
$var wire 1 M ww_igual $end
$var wire 1 N ww_Amayor $end
$var wire 1 O ww_Amenor $end
$var wire 1 P \~QUARTUS_CREATED_GND~I_combout\ $end
$var wire 1 Q \A[5]~input_o\ $end
$var wire 1 R \A[7]~input_o\ $end
$var wire 1 S \B[6]~input_o\ $end
$var wire 1 T \B[7]~input_o\ $end
$var wire 1 U \B[5]~input_o\ $end
$var wire 1 V \A[6]~input_o\ $end
$var wire 1 W \Equal0~1_combout\ $end
$var wire 1 X \A[4]~input_o\ $end
$var wire 1 Y \B[0]~input_o\ $end
$var wire 1 Z \A[0]~input_o\ $end
$var wire 1 [ \B[1]~input_o\ $end
$var wire 1 \ \A[1]~input_o\ $end
$var wire 1 ] \Equal0~2_combout\ $end
$var wire 1 ^ \A[2]~input_o\ $end
$var wire 1 _ \A[3]~input_o\ $end
$var wire 1 ` \B[3]~input_o\ $end
$var wire 1 a \B[2]~input_o\ $end
$var wire 1 b \Equal0~0_combout\ $end
$var wire 1 c \B[4]~input_o\ $end
$var wire 1 d \Equal0~3_combout\ $end
$var wire 1 e \LessThan0~2_combout\ $end
$var wire 1 f \LessThan0~0_combout\ $end
$var wire 1 g \LessThan0~1_combout\ $end
$var wire 1 h \Amayor~0_combout\ $end
$var wire 1 i \Amenor~0_combout\ $end
$var wire 1 j \ALT_INV_A[5]~input_o\ $end
$var wire 1 k \ALT_INV_A[6]~input_o\ $end
$var wire 1 l \ALT_INV_B[5]~input_o\ $end
$var wire 1 m \ALT_INV_B[6]~input_o\ $end
$var wire 1 n \ALT_INV_A[7]~input_o\ $end
$var wire 1 o \ALT_INV_B[7]~input_o\ $end
$var wire 1 p \ALT_INV_A[0]~input_o\ $end
$var wire 1 q \ALT_INV_B[0]~input_o\ $end
$var wire 1 r \ALT_INV_B[1]~input_o\ $end
$var wire 1 s \ALT_INV_A[1]~input_o\ $end
$var wire 1 t \ALT_INV_B[4]~input_o\ $end
$var wire 1 u \ALT_INV_A[4]~input_o\ $end
$var wire 1 v \ALT_INV_B[3]~input_o\ $end
$var wire 1 w \ALT_INV_A[3]~input_o\ $end
$var wire 1 x \ALT_INV_B[2]~input_o\ $end
$var wire 1 y \ALT_INV_A[2]~input_o\ $end
$var wire 1 z \ALT_INV_Amayor~0_combout\ $end
$var wire 1 { \ALT_INV_LessThan0~2_combout\ $end
$var wire 1 | \ALT_INV_LessThan0~1_combout\ $end
$var wire 1 } \ALT_INV_LessThan0~0_combout\ $end
$var wire 1 ~ \ALT_INV_Equal0~3_combout\ $end
$var wire 1 !! \ALT_INV_Equal0~2_combout\ $end
$var wire 1 "! \ALT_INV_Equal0~1_combout\ $end
$var wire 1 #! \ALT_INV_Equal0~0_combout\ $end
$upscope $end
$upscope $end
$enddefinitions $end
#0
$dumpvars
1)
0*
03
04
15
x6
17
18
19
1:
1;
1<
0M
1N
0O
xP
0Q
1R
0S
0T
1U
1V
0W
0X
1Y
0Z
0[
0\
0]
1^
0_
0`
0a
0b
1c
0d
0e
1f
0g
0h
0i
1j
0k
0l
1m
0n
1o
1p
0q
1r
1s
0t
1u
1v
1w
1x
0y
1z
1{
1|
0}
1~
1!!
1"!
1#!
1!
1"
0#
0$
0%
1&
0'
0(
0+
0,
1-
1.
0/
00
01
12
1=
1>
0?
0@
0A
1B
0C
0D
0E
0F
1G
1H
0I
0J
0K
1L
$end
#10000
1#
1$
1%
1+
1,
0-
1/
11
02
1A
1@
1?
0L
1K
1I
0G
1F
1E
1T
1S
0U
1`
1[
0Y
1Q
1X
1_
0w
0u
0j
1q
0r
0v
1l
0m
0o
#20000
0$
0%
1-
0/
12
0&
1'
1(
0.
1D
1C
0B
0A
0@
1L
0I
0H
1G
1U
0c
0`
1Y
0X
0_
0^
1\
1Z
0p
0s
1y
1w
1u
0q
1v
1t
0l
1W
1b
1g
1]
0f
1}
0!!
0|
0#!
0"!
1h
1i
1d
0g
1|
0~
0z
0i
1M
1O
0N
13
1*
0)
0O
0*
#30000
1%
0-
1/
02
1&
0(
1.
0#
01
0!
0D
1B
1A
0?
0=
0L
0K
1I
1H
0G
0U
1c
1`
0[
0Y
0R
0Q
1_
1^
0Z
1p
0y
0w
1j
1n
1q
1r
0v
0t
1l
0d
0W
1e
0b
0]
1!!
1#!
0{
1"!
1~
1i
0M
03
1O
1*
#40000
1(
0.
1!
0+
1D
1=
0H
0E
0T
0c
1R
1Z
0p
0n
1t
1o
0e
1{
0h
0i
1z
0O
1N
0*
1)
#50000
0(
1.
0!
0&
1$
0'
0,
0"
0D
0C
0B
1@
0>
0=
1H
0F
0S
1c
0R
0V
1X
0^
0\
0Z
1p
1s
1y
0u
1k
1n
0t
1m
1W
1b
1]
0!!
0#!
0"!
1d
0~
1h
0z
1M
13
0N
0)
#60000
1(
0.
1!
0$
1'
1"
1#
11
1D
1C
0@
1?
1>
1=
1K
0H
0c
1[
1R
1V
1Q
0X
1\
1Z
0p
0s
1u
0j
0k
0n
0r
1t
0W
0]
1!!
1"!
0d
1~
0h
1z
0M
03
1N
1)
#70000
0(
0!
0'
0#
1&
12
0D
0C
1B
0?
0=
1L
1Y
0R
0Q
1^
0\
0Z
1p
1s
0y
1j
1n
0q
0b
1f
0}
1#!
#80000
1'
0&
01
0%
10
1C
0B
0A
0K
1J
1a
0[
0_
0^
1\
0s
1y
1w
1r
0x
1g
0f
1}
0|
#90000
1&
11
1%
1!
1#
1.
0"
1,
0/
1B
1A
1?
0>
1=
1K
0I
1H
1F
1S
1c
0`
1[
1R
0V
1Q
1_
1^
0y
0w
0j
1k
0n
0r
1v
0t
0m
1f
0g
1|
0}
#100000
0&
0!
0#
1"
0,
1/
0'
00
1(
1+
1D
0C
0B
0?
1>
0=
0J
1I
0F
1E
1T
0S
1`
0a
0R
1V
0Q
0^
0\
1Z
0p
1s
1y
1j
0k
1n
1x
0v
1m
0o
1e
1b
1g
0|
0#!
0{
1h
1i
0z
1O
0N
1*
0)
#110000
0"
1,
0/
1'
10
0(
0+
0%
0.
1$
1-
0D
1C
0A
1@
0>
1J
0I
0H
1G
1F
0E
0T
1S
1U
0c
0`
1a
0V
1X
0_
1\
0Z
1p
0s
1w
0u
1k
0x
1v
1t
0l
0m
1o
0b
1#!
#120000
0,
0'
00
1.
1&
1!
1#
02
0L
0J
1H
0F
0C
1B
1?
1=
1R
1Q
1^
0\
0S
1c
0a
0Y
1q
1x
0t
1m
1s
0y
0j
0n
0e
0g
1|
1{
0h
0i
1z
0O
1N
0*
1)
#130000
1,
10
0.
0&
0#
12
1"
1/
1(
1+
0$
0-
01
1L
0K
1J
1I
0H
0G
1F
1E
1D
0B
0@
0?
1>
1V
0Q
0X
0^
1Z
1T
1S
0U
0c
1`
1a
0[
1Y
0q
1r
0x
0v
1t
1l
0m
0o
0p
1y
1u
1j
0k
1W
1g
1]
0f
1}
0!!
0|
0"!
1h
1i
0z
1O
0N
1*
0)
#140000
0,
1&
02
0"
1$
0!
1%
0L
0F
1B
1A
1@
0>
0=
0R
0V
1X
1_
1^
0S
0Y
1q
1m
0y
0w
0u
1k
1n
0h
0i
1b
0g
0W
1e
0]
1!!
0{
1"!
1|
0#!
1z
1h
1i
0z
0O
1N
0*
1)
1O
0N
1*
0)
#150000
1,
0&
1"
0$
0%
00
0/
0(
0+
1-
1'
0J
0I
1G
1F
0E
0D
1C
0B
0A
0@
1>
1V
0X
0_
0^
1\
0Z
0T
1S
1U
0`
0a
1x
1v
0l
0m
1o
1p
0s
1y
1w
1u
0k
#160000
1&
0"
1$
1%
1/
1(
1+
0-
1!
1.
1#
11
1D
1B
1A
1@
1?
0>
1=
1K
1I
1H
0G
1E
1T
0U
1c
1`
1[
1R
0V
1Q
1X
1_
1^
1Z
0p
0y
0w
0u
0j
1k
0n
0r
0v
0t
1l
0o
0b
1#!
#170000
0$
0%
0/
0(
0+
0!
0.
01
0,
10
0'
12
0D
0C
0A
0@
0=
1L
0K
1J
0I
0H
0F
0E
0T
0S
0c
0`
1a
0[
1Y
0R
0X
0_
0\
0Z
1p
1s
1w
1u
1n
0q
1r
0x
1v
1t
1m
1o
0e
1b
1f
0}
0#!
1{
0h
0i
1g
0|
1z
0O
1N
0*
1)
#180000
1!
1.
1,
02
1-
0#
0?
1=
0L
1H
1G
1F
1S
1U
1c
0Y
1R
0Q
1j
0n
1q
0t
0l
0m
1]
0f
1}
0!!
0g
1|
#190000
0!
0,
12
1#
1$
1%
1/
1(
11
0&
1"
1D
0B
1A
1@
1?
1>
0=
1L
1K
1I
0F
0S
1`
1[
1Y
0R
1V
1Q
1X
1_
0^
1Z
0p
1y
0w
0u
0j
0k
1n
0q
0r
0v
1m
0b
1g
0]
1f
0}
1!!
0|
1#!
#200000
1,
02
0"
1+
0L
1F
1E
0>
0V
1T
1S
0Y
1q
0m
0o
1k
1e
0{
1h
1i
0z
1O
0N
1*
0)
#210000
1"
1!
0#
0$
0%
0(
01
0-
1'
0D
1C
0A
0@
0?
1>
1=
0K
0G
0U
0[
1R
1V
0Q
0X
0_
1\
0Z
1p
0s
1w
1u
1j
0k
0n
1r
1l
1W
0e
0f
1}
1{
0"!
#220000
0!
1$
1-
0,
0+
0.
1@
0=
0H
1G
0F
0E
0T
0S
1U
0c
0R
1X
0u
1n
1t
0l
1m
1o
0W
0h
0i
1z
1"!
0O
1N
0*
1)
#230000
1!
0$
0-
0"
1#
1%
0'
0/
00
0C
1A
0@
1?
0>
1=
0J
0I
0G
0U
0`
0a
1R
0V
1Q
0X
1_
0\
1s
0w
1u
0j
1k
0n
1x
1v
1l
0g
1]
0!!
1|
#240000
0!
0#
1/
1,
12
0?
0=
1L
1I
1F
1S
1`
1Y
0R
0Q
1j
1n
0q
0v
0m
1b
0]
1f
1e
0{
0}
1!!
0#!
1g
1h
1i
0z
0|
1O
0N
1*
0)
#250000
1#
1$
1-
1"
10
1@
1?
1>
1J
1G
1U
1a
1V
1Q
1X
0u
0j
0k
0x
0l
0b
1W
0e
1{
0"!
1#!
0h
0i
1z
0O
1N
0*
1)
#260000
0#
0$
0"
00
1!
02
0%
1'
1+
1.
11
1&
1C
1B
0A
0@
0?
0>
1=
0L
1K
0J
1H
1E
1T
1c
0a
1[
0Y
1R
0V
0Q
0X
0_
1^
1\
0s
0y
1w
1u
1j
1k
0n
1q
0r
1x
0t
0o
0W
1e
1h
1i
1]
0f
1}
0!!
0z
0{
1"!
1O
0N
1*
0)
#270000
10
0!
12
1%
0.
01
1L
0K
1J
0H
1A
0=
0R
1_
0c
1a
0[
1Y
0q
1r
0x
1t
0w
1n
1b
0g
0]
1!!
1|
0#!
#280000
02
0%
11
1#
0&
0/
1(
0L
1K
0I
1D
0B
0A
1?
1Q
0_
0^
1Z
0`
1[
0Y
1q
0r
1v
0p
1y
1w
0j
0b
1g
0|
1#!
#290000
01
0#
0(
00
1$
0+
0-
0,
0K
0J
0G
0F
0E
0D
1@
0?
0Q
1X
0Z
0T
0S
0U
0a
0[
1r
1x
1l
1m
1o
1p
0u
1j
1W
0e
1b
0g
1|
0#!
1{
0"!
0h
0i
1z
0O
1N
0*
1)
#300000
1(
1-
1,
12
1%
1&
1/
1D
1B
1A
1L
1I
1G
1F
1S
1U
1`
1Y
1_
1^
1Z
0p
0y
0w
0q
0v
0l
0m
0W
1e
0b
1#!
0{
1"!
1h
1i
0z
1O
0N
1*
0)
#310000
0(
11
1#
10
1+
1"
0D
1?
1>
1K
1J
1E
1T
1a
1[
1V
1Q
0Z
1p
0j
0k
0r
0x
0o
1b
1f
0}
0#!
1g
0|
#320000
1(
01
0+
0"
0-
02
0/
0$
1!
1D
0@
0>
1=
0L
0K
0I
0G
0E
0T
0U
0`
0[
0Y
1R
0V
0X
1Z
0p
1u
1k
0n
1q
1r
1v
1l
1o
0b
0g
0e
0f
1}
1{
1|
1#!
0h
0i
1z
0O
1N
0*
1)
#330000
0(
1+
1-
1/
1$
0!
0#
00
0%
0D
0A
1@
0?
0=
0J
1I
1G
1E
1T
1U
1`
0a
0R
0Q
1X
0_
0Z
1p
1w
0u
1j
1n
1x
0v
0l
0o
1e
1g
0|
0{
1h
1i
0z
1O
0N
1*
0)
#340000
1(
0+
0$
1!
1#
1%
11
12
0&
1.
1D
0B
1A
0@
1?
1=
1L
1K
1H
0E
0T
1c
1[
1Y
1R
1Q
0X
1_
0^
1Z
0p
1y
0w
1u
0j
0n
0q
0r
0t
1o
0e
1b
0g
1]
0!!
1|
0#!
1{
0h
0i
1z
0O
1N
0*
1)
#350000
0(
0!
0%
01
02
0.
0-
0/
1"
0,
0'
0D
0C
0A
1>
0=
0L
0K
0I
0H
0G
0F
0S
0U
0c
0`
0[
0Y
0R
1V
0_
0\
0Z
1p
1s
1w
0k
1n
1q
1r
1v
1t
1l
1m
#360000
11
1-
0"
1,
1'
1+
1$
0#
1K
1G
1F
1E
1C
1@
0?
0>
0V
0Q
1X
1\
1T
1S
1U
1[
0r
0l
0m
0o
0s
0u
1j
1k
1e
0{
1h
1i
0z
1O
0N
1*
0)
#370000
01
0-
0'
1!
1%
1/
1&
10
0K
1J
1I
0G
0C
1B
1A
1=
1R
1_
1^
0\
0U
1`
1a
0[
1r
0x
0v
1l
1s
0y
0w
0n
#380000
1-
0!
0%
0/
0&
0+
0$
1#
12
1L
0I
1G
0E
0B
0A
0@
1?
0=
0R
1Q
0X
0_
0^
0T
1U
0`
1Y
0q
1v
0l
1o
1y
1w
1u
0j
1n
0b
1g
0]
1f
0}
1!!
0|
1#!
#390000
0-
1!
1+
0#
00
1"
1(
1.
0J
1H
0G
1E
1D
0?
1>
1=
1R
1V
0Q
1Z
1T
0U
1c
0a
1x
0t
1l
0o
0p
1j
0k
0n
1]
0f
1W
0e
1b
0#!
1{
0"!
1}
0!!
0g
1|
#400000
1-
0!
0+
10
0"
0(
0.
1%
1/
0,
1J
1I
0H
1G
0F
0E
0D
1A
0>
0=
0R
0V
1_
0Z
0T
0S
1U
0c
1`
1a
0x
0v
1t
0l
1m
1o
1p
0w
1k
1n
0]
1f
0W
1e
1d
0h
0i
0b
1g
0|
1#!
1z
0~
0{
1"!
0}
1!!
0d
1h
0z
1~
0O
1M
1N
1i
0*
13
1)
0M
0N
03
0)
1O
1*
#410000
00
1(
1.
0/
1&
0J
0I
1H
1D
1B
1^
1Z
1c
0`
0a
1x
1v
0t
0p
0y
1]
0f
0g
1|
1}
0!!
#420000
0(
0.
1/
1!
0%
1,
02
1'
0D
1C
0A
1=
0L
1I
0H
1F
1S
0c
1`
0Y
1R
0_
1\
0Z
1p
0s
1w
0n
1q
0v
1t
0m
0e
1g
0]
1!!
0|
1{
0h
0i
1z
0O
1N
0*
1)
#430000
1(
1.
0/
0!
1%
10
0-
1+
1"
1D
1A
1>
0=
1J
0I
1H
0G
1E
1T
0U
1c
0`
1a
0R
1V
1_
1Z
0p
0w
0k
1n
0x
1v
0t
1l
0o
1e
0g
1|
0{
1h
1i
0z
1O
0N
1*
0)
#440000
0(
0.
1!
00
0+
0'
0&
1#
11
0D
0C
0B
1?
1=
1K
0J
0H
0E
0T
0c
0a
1[
1R
1Q
0^
0\
0Z
1p
1s
1y
0j
0n
0r
1x
1t
1o
0e
1f
0}
1{
0h
0i
1z
0O
1N
0*
1)
#450000
1(
0!
10
1/
0%
1-
0"
12
1$
1D
0A
1@
0>
0=
1L
1J
1I
1G
1U
1`
1a
1Y
0R
0V
1X
0_
1Z
0p
1w
0u
1k
1n
0q
0x
0v
0l
1e
1g
0|
0{
1h
1i
0z
1O
0N
1*
0)
#460000
0(
1!
00
1%
0-
1"
1.
1&
0#
01
0D
1B
1A
0?
1>
1=
0K
0J
1H
0G
0U
1c
0a
0[
1R
1V
0Q
1_
1^
0Z
1p
0y
0w
1j
0k
0n
1r
1x
0t
1l
0e
0g
1|
1{
0h
0i
1z
0O
1N
0*
1)
#470000
1(
0"
0.
0&
11
1'
0,
1D
1C
0B
0>
1K
0H
0F
0S
0c
1[
0V
0^
1\
1Z
0p
0s
1y
1k
0r
1t
1m
1b
1g
1]
0f
1}
0!!
0|
0#!
0g
1|
#480000
0(
1"
1.
01
0'
10
1#
02
0$
1+
0D
0C
0@
1?
1>
0L
0K
1J
1H
1E
1T
1c
1a
0[
0Y
1V
1Q
0X
0\
0Z
1p
1s
1u
0j
0k
1q
1r
0x
0t
0o
0b
1g
0|
1#!
#490000
1(
0.
00
0#
1$
1&
0!
1-
0/
1D
1B
1@
0?
0=
0J
0I
0H
1G
1U
0c
0`
0a
0R
0Q
1X
1^
1Z
0p
0y
0u
1j
1n
1x
1v
1t
0l
1e
0g
0]
1!!
1|
0{
1h
1i
0z
1O
0N
1*
0)
#500000
1.
11
1'
0+
1,
0%
1K
1H
1F
0E
1C
0A
0_
1\
0T
1S
1c
1[
0r
0t
0m
1o
0s
1w
#510000
0'
1+
0,
0(
1#
0$
1/
12
0D
0C
0@
1?
1L
1I
0F
1E
1T
0S
1`
1Y
1Q
0X
0\
0Z
1p
1s
1u
0j
0q
0v
1m
0o
1g
1f
0}
0|
#520000
1'
0+
0/
0.
1%
1C
1A
0I
0H
0E
0T
0c
0`
1_
1\
0s
0w
1v
1t
1o
0e
0g
1|
1{
0h
0i
1z
0O
1N
0*
1)
#530000
0'
1+
1.
0%
1$
0C
0A
1@
1H
1E
1T
1c
1X
0_
0\
1s
1w
0u
0t
0o
1e
0{
1h
1i
0z
1O
0N
1*
0)
#540000
1'
0.
1%
1/
02
0&
1!
0-
0"
1C
0B
1A
0>
1=
0L
1I
0H
0G
0U
0c
1`
0Y
1R
0V
1_
0^
1\
0s
1y
0w
1k
0n
1q
0v
1t
1l
0e
1b
1g
1]
0f
1}
0!!
0|
0#!
1{
0h
0i
0g
1|
1z
0O
1N
0*
1)
#550000
0'
0%
1-
1"
0$
1,
0#
0C
0A
0@
0?
1>
1G
1F
1S
1U
1V
0Q
0X
0_
0\
1s
1w
1u
1j
0k
0l
0m
1e
0b
1g
0]
1f
0}
1!!
0|
1#!
0{
1h
1i
0z
1O
0N
1*
0)
#560000
1%
0-
0"
0/
12
1&
0+
01
1B
1A
0>
1L
0K
0I
0G
0E
0T
0U
0`
0[
1Y
0V
1_
1^
0y
0w
1k
0q
1r
1v
1l
1o
0e
0g
1|
1{
0h
0i
1z
0O
1N
0*
1)
#570000
0%
11
1'
0,
1#
1.
10
1C
0A
1?
1K
1J
1H
0F
0S
1c
1a
1[
1Q
0_
1\
0s
1w
0j
0r
0x
0t
1m
1b
1g
0|
0#!
#580000
1%
01
0.
1"
1$
0!
1(
1D
1A
1@
1>
0=
0K
0H
0c
0[
0R
1V
1X
1_
1Z
0p
0w
0u
0k
1n
1r
1t
0b
0g
0f
1}
1|
1#!
#590000
0$
1!
0(
1,
1-
1/
02
0D
0@
1=
0L
1I
1G
1F
1S
1U
1`
0Y
1R
0X
0Z
1p
1u
0n
1q
0v
0l
0m
1b
0#!
#600000
0!
0,
0-
12
0%
11
1.
0'
0C
0A
0=
1L
1K
1H
0G
0F
0S
0U
1c
1[
1Y
0R
0_
0\
1s
1w
1n
0q
0r
0t
1l
1m
0b
1g
1f
0}
0|
1#!
#610000
1!
1,
1-
02
1%
0.
1'
0#
00
0&
1C
0B
1A
0?
1=
0L
0J
0H
1G
1F
1S
1U
0c
0a
0Y
1R
0Q
1_
0^
1\
0s
1y
0w
1j
0n
1q
1x
1t
0l
0m
1b
1]
0f
1}
0!!
0#!
0g
1|
#620000
0!
0%
10
1&
0/
0"
1+
1B
0A
0>
0=
1J
0I
1E
1T
0`
1a
0R
0V
0_
1^
0y
1w
1k
1n
0x
1v
0o
1e
0{
1h
1i
0z
1O
0N
1*
0)
#630000
1%
0&
1"
0+
0-
12
0'
1#
1(
1D
0C
0B
1A
1?
1>
1L
0G
0E
0T
0U
1Y
1V
1Q
1_
0^
0\
1Z
0p
1s
1y
0w
0j
0k
0q
1l
1o
0e
0b
0]
1f
0}
1!!
1#!
1{
0h
0i
1z
0O
1N
0*
1)
#640000
0"
1+
1'
0#
0(
1!
0,
1.
01
0D
1C
0?
0>
1=
0K
1H
0F
1E
1T
0S
1c
0[
1R
0V
0Q
1\
0Z
1p
0s
1j
1k
0n
1r
0t
1m
0o
1W
0f
1}
0"!
1h
1i
0z
1O
0N
1*
0)
#650000
0'
0!
0%
1&
1-
02
1/
1$
0C
1B
0A
1@
0=
0L
1I
1G
1U
1`
0Y
0R
1X
0_
1^
0\
1s
0y
1w
0u
1n
1q
0v
0l
0W
1e
0h
0i
1g
1]
0!!
0|
1z
0{
1"!
1h
1i
0z
0O
1N
0*
1)
1O
0N
1*
0)
#660000
1'
1!
0-
12
1"
1#
1(
1,
0.
1D
1C
1?
1>
1=
1L
0H
0G
1F
1S
0U
0c
1Y
1R
1V
1Q
1\
1Z
0p
0s
0j
0k
0n
0q
1t
1l
0m
0e
0]
1!!
1{
0h
0i
1z
0O
1N
0*
1)
#670000
0'
0!
02
0#
0,
1%
0/
0$
0+
11
0C
1A
0@
0?
0=
0L
1K
0I
0F
0E
0T
0S
0`
1[
0Y
0R
0Q
0X
1_
0\
1s
0w
1u
1j
1n
1q
0r
1v
1m
1o
0g
1f
0}
1|
#680000
1!
12
1#
1+
01
0"
00
1?
0>
1=
1L
0K
0J
1E
1T
0a
0[
1Y
1R
0V
1Q
0j
1k
0n
0q
1r
1x
0o
1]
0f
1}
0!!
#690000
0!
02
0#
1"
10
1/
1-
0(
1.
0D
0?
1>
0=
0L
1J
1I
1H
1G
1U
1c
1`
1a
0Y
0R
1V
0Q
0Z
1p
1j
0k
1n
1q
0x
0v
0t
0l
1b
1e
0{
0#!
1h
1i
0z
1O
0N
1*
0)
#700000
12
1#
0"
0.
0+
1'
0&
1L
0H
0E
1C
0B
1?
0>
0V
1Q
0^
1\
0T
0c
1Y
0q
1t
1o
0s
1y
0j
1k
0b
1g
1W
0e
0]
1!!
1{
0"!
0|
1#!
#710000
1.
1&
0/
11
1,
1K
0I
1H
1F
1B
1^
1S
1c
0`
1[
0r
1v
0t
0m
0y
0W
1e
0g
1f
0}
1|
0{
1"!
#720000
01
02
0#
1"
0'
1!
00
0-
1(
1$
0L
0K
0J
0G
1D
0C
1@
0?
1>
1=
1R
1V
0Q
1X
0\
1Z
0U
0a
0[
0Y
1q
1r
1x
1l
0p
1s
0u
1j
0k
0n
0e
0f
1}
1{
0h
0i
1z
0O
1N
0*
1)
#730000
12
0"
10
0&
1/
0,
1+
0%
1L
1J
1I
0F
1E
0B
0A
0>
0V
0_
0^
1T
0S
1`
1a
1Y
0q
0x
0v
1m
0o
1y
1w
1k
1W
1g
1]
0!!
0|
0"!
1h
1i
0z
1O
0N
1*
0)
#740000
00
0+
0(
0.
0J
0H
0E
0D
0Z
0T
0c
0a
1x
1t
1o
1p
0]
1f
0W
0h
0i
1z
1"!
0}
1!!
0O
1N
0*
1)
#750000
10
1+
02
1,
1%
11
1#
1'
0$
0L
1K
1J
1F
1E
1C
1A
0@
1?
1Q
0X
1_
1\
1T
1S
1a
1[
0Y
1q
0r
0x
0m
0o
0s
0w
1u
0j
1e
1]
0f
1}
0!!
0{
1h
1i
0z
1O
0N
1*
0)
#760000
00
12
0%
0#
1$
1(
1&
0/
0!
1-
1L
0J
0I
1G
1D
1B
0A
1@
0?
0=
0R
0Q
1X
0_
1^
1Z
1U
0`
0a
1Y
0q
1x
1v
0l
0p
0y
1w
0u
1j
1n
0g
1|
#770000
10
02
1%
1#
0(
0-
0'
1.
1"
0L
1J
1H
0G
0D
0C
1A
1?
1>
1V
1Q
1_
0\
0Z
0U
1c
1a
0Y
1q
0x
0t
1l
1p
1s
0w
0j
0k
0]
1f
0}
1!!
#780000
0%
0#
1'
0.
0&
1/
1C
0B
0A
0?
1I
0H
0c
1`
0Q
0_
0^
1\
0s
1y
1w
1j
0v
1t
1g
1]
0f
1}
0!!
0|
#790000
1.
1&
0/
00
1(
0"
0$
0+
01
0K
0J
0I
1H
0E
1D
1B
0@
0>
0V
0X
1^
1Z
0T
1c
0`
0a
0[
1r
1x
1v
0t
1o
0p
0y
1u
1k
0g
0]
1!!
1|
#800000
10
1"
1$
11
1%
1#
1-
0,
1K
1J
1G
0F
1A
1@
1?
1>
1V
1Q
1X
1_
0S
1U
1a
1[
0r
0x
0l
1m
0w
0u
0j
0k
0e
1{
0h
0i
1z
0O
1N
0*
1)
#810000
01
0-
1,
0.
1/
0(
1+
0'
12
1L
0K
1I
0H
0G
1F
1E
0D
0C
0\
0Z
1T
1S
0U
0c
1`
0[
1Y
0q
1r
0v
1t
1l
0m
0o
1p
1s
1e
1b
1f
0}
0#!
0{
1h
1i
1g
0|
0z
1O
0N
1*
0)
#820000
11
0/
0&
1K
0I
0B
0^
0`
1[
0r
1v
1y
0b
0g
1|
1#!
#830000
01
1&
1-
1.
00
0$
0%
0K
0J
1H
1G
1B
0A
0@
0X
0_
1^
1U
1c
0a
0[
1r
1x
0t
0l
0y
1w
1u
#840000
0.
10
1$
0,
1(
1'
0"
0#
1!
1J
0H
0F
1D
1C
1@
0?
0>
1=
1R
0V
0Q
1X
1\
1Z
0S
0c
1a
0x
1t
1m
0p
0s
0u
1j
1k
0n
0f
1b
1g
0|
0#!
1}
0g
1|
#850000
1.
00
0$
0&
1%
02
0L
0J
1H
0B
1A
0@
0X
1_
0^
1c
0a
0Y
1q
1x
0t
1y
0w
1u
0b
1#!
#860000
1$
1&
0%
1,
0(
0'
1"
1#
1/
0D
0C
1B
0A
1@
1?
1>
1I
1F
1S
1`
1V
1Q
1X
0_
1^
0\
0Z
1p
1s
0y
1w
0u
0j
0k
0v
0m
1W
0e
1g
1]
0!!
0|
1{
0"!
#870000
0$
0&
0,
0"
0#
10
12
0!
0-
0B
0@
0?
0>
0=
1L
1J
0G
0F
0S
0U
1a
1Y
0R
0V
0Q
0X
0^
1y
1u
1j
1k
1n
0q
0x
1l
1m
0]
1f
0W
1e
0{
1"!
0}
1!!
#880000
1,
1"
02
1!
1-
0/
11
0+
0L
1K
0I
1G
1F
0E
1>
1=
1R
1V
0T
1S
1U
0`
1[
0Y
1q
0r
1v
0l
0m
1o
0k
0n
0e
1{
0h
0i
1z
0O
1N
0*
1)
#890000
12
0-
1/
01
1+
1#
00
1%
1(
1'
1L
0K
0J
1I
0G
1E
1D
1C
1A
1?
1Q
1_
1\
1Z
1T
0U
1`
0a
0[
1Y
0q
1r
1x
0v
1l
0o
0p
0s
0w
0j
1b
0f
1}
0#!
0g
1|
#900000
02
11
0(
0'
0"
0!
1$
1&
0L
1K
0D
0C
1B
1@
0>
0=
0R
0V
1X
1^
0\
0Z
1[
0Y
1q
0r
1p
1s
0y
0u
1k
1n
1e
0b
1f
0}
1#!
0{
1h
1i
0z
1O
0N
1*
0)
#910000
12
1(
0$
0/
0#
10
0.
1L
1J
0I
0H
1D
0@
0?
0Q
0X
1Z
0c
0`
1a
1Y
0q
0x
1v
1t
0p
1u
1j
#920000
02
1/
1#
1!
1-
0+
0%
0,
0L
1I
1G
0F
0E
0A
1?
1=
1R
1Q
0_
0T
0S
1U
1`
0Y
1q
0v
0l
1m
1o
1w
0j
0n
0e
1g
0|
1{
0h
0i
1z
0O
1N
0*
1)
#930000
12
0!
0-
1%
1,
0(
1.
1'
1"
1L
1H
0G
1F
0D
1C
1A
1>
0=
0R
1V
1_
1\
0Z
1S
0U
1c
1Y
0q
0t
1l
0m
1p
0s
0w
0k
1n
1b
0#!
#940000
02
0.
0'
0"
0/
0#
1+
1$
01
0L
0K
0I
0H
1E
0C
1@
0?
0>
0V
0Q
1X
0\
1T
0c
0`
0[
0Y
1q
1r
1v
1t
0o
1s
0u
1j
1k
1e
0b
0g
1]
0f
1}
0!!
1|
1#!
0{
1h
1i
0z
1O
0N
1*
0)
#950000
12
1.
1#
0$
11
1-
0%
0,
1L
1K
1H
1G
0F
0A
0@
1?
1Q
0X
0_
0S
1U
1c
1[
1Y
0q
0r
0t
0l
1m
1w
1u
0j
1b
0]
1f
0}
1!!
0#!
1g
0|
