VHDL TEST/mux8bits/simulation/qsim/mux8bits.msim.vcd
$comment
	File created using the following command:
		vcd file mux8bits.msim.vcd -direction
$end
$date
	Thu Nov 28 16:24:57 2024
$end
$version
	ModelSim Version 2020.1
$end
$timescale
	1ps
$end

$scope module mux8bits_vhd_vec_tst $end
$var wire 1 ! A [7] $end
$var wire 1 " A [6] $end
$var wire 1 # A [5] $end
$var wire 1 $ A [4] $end
$var wire 1 % A [3] $end
$var wire 1 & A [2] $end
$var wire 1 ' A [1] $end
$var wire 1 ( A [0] $end
$var wire 1 ) B [7] $end
$var wire 1 * B [6] $end
$var wire 1 + B [5] $end
$var wire 1 , B [4] $end
$var wire 1 - B [3] $end
$var wire 1 . B [2] $end
$var wire 1 / B [1] $end
$var wire 1 0 B [0] $end
$var wire 1 1 C [7] $end
$var wire 1 2 C [6] $end
$var wire 1 3 C [5] $end
$var wire 1 4 C [4] $end
$var wire 1 5 C [3] $end
$var wire 1 6 C [2] $end
$var wire 1 7 C [1] $end
$var wire 1 8 C [0] $end
$var wire 1 9 selector $end

$scope module i1 $end
$var wire 1 : gnd $end
$var wire 1 ; vcc $end
$var wire 1 < unknown $end
$var wire 1 = devoe $end
$var wire 1 > devclrn $end
$var wire 1 ? devpor $end
$var wire 1 @ ww_devoe $end
$var wire 1 A ww_devclrn $end
$var wire 1 B ww_devpor $end
$var wire 1 C ww_A [7] $end
$var wire 1 D ww_A [6] $end
$var wire 1 E ww_A [5] $end
$var wire 1 F ww_A [4] $end
$var wire 1 G ww_A [3] $end
$var wire 1 H ww_A [2] $end
$var wire 1 I ww_A [1] $end
$var wire 1 J ww_A [0] $end
$var wire 1 K ww_B [7] $end
$var wire 1 L ww_B [6] $end
$var wire 1 M ww_B [5] $end
$var wire 1 N ww_B [4] $end
$var wire 1 O ww_B [3] $end
$var wire 1 P ww_B [2] $end
$var wire 1 Q ww_B [1] $end
$var wire 1 R ww_B [0] $end
$var wire 1 S ww_selector $end
$var wire 1 T ww_C [7] $end
$var wire 1 U ww_C [6] $end
$var wire 1 V ww_C [5] $end
$var wire 1 W ww_C [4] $end
$var wire 1 X ww_C [3] $end
$var wire 1 Y ww_C [2] $end
$var wire 1 Z ww_C [1] $end
$var wire 1 [ ww_C [0] $end
$var wire 1 \ \~QUARTUS_CREATED_GND~I_combout\ $end
$var wire 1 ] \B[0]~input_o\ $end
$var wire 1 ^ \selector~input_o\ $end
$var wire 1 _ \A[0]~input_o\ $end
$var wire 1 ` \C~0_combout\ $end
$var wire 1 a \B[1]~input_o\ $end
$var wire 1 b \A[1]~input_o\ $end
$var wire 1 c \C~1_combout\ $end
$var wire 1 d \B[2]~input_o\ $end
$var wire 1 e \A[2]~input_o\ $end
$var wire 1 f \C~2_combout\ $end
$var wire 1 g \B[3]~input_o\ $end
$var wire 1 h \A[3]~input_o\ $end
$var wire 1 i \C~3_combout\ $end
$var wire 1 j \B[4]~input_o\ $end
$var wire 1 k \A[4]~input_o\ $end
$var wire 1 l \C~4_combout\ $end
$var wire 1 m \B[5]~input_o\ $end
$var wire 1 n \A[5]~input_o\ $end
$var wire 1 o \C~5_combout\ $end
$var wire 1 p \B[6]~input_o\ $end
$var wire 1 q \A[6]~input_o\ $end
$var wire 1 r \C~6_combout\ $end
$var wire 1 s \B[7]~input_o\ $end
$var wire 1 t \A[7]~input_o\ $end
$var wire 1 u \C~7_combout\ $end
$var wire 1 v \ALT_INV_selector~input_o\ $end
$var wire 1 w \ALT_INV_B[0]~input_o\ $end
$var wire 1 x \ALT_INV_A[0]~input_o\ $end
$var wire 1 y \ALT_INV_B[1]~input_o\ $end
$var wire 1 z \ALT_INV_A[1]~input_o\ $end
$var wire 1 { \ALT_INV_B[2]~input_o\ $end
$var wire 1 | \ALT_INV_A[2]~input_o\ $end
$var wire 1 } \ALT_INV_B[3]~input_o\ $end
$var wire 1 ~ \ALT_INV_A[3]~input_o\ $end
$var wire 1 !! \ALT_INV_B[4]~input_o\ $end
$var wire 1 "! \ALT_INV_A[4]~input_o\ $end
$var wire 1 #! \ALT_INV_B[5]~input_o\ $end
$var wire 1 $! \ALT_INV_A[5]~input_o\ $end
$var wire 1 %! \ALT_INV_B[6]~input_o\ $end
$var wire 1 &! \ALT_INV_A[6]~input_o\ $end
$var wire 1 '! \ALT_INV_B[7]~input_o\ $end
$var wire 1 (! \ALT_INV_A[7]~input_o\ $end
$upscope $end
$upscope $end
$enddefinitions $end
#0
$dumpvars
19
0:
1;
x<
1=
1>
1?
1@
1A
1B
1S
x\
0]
1^
1_
0`
0a
1b
0c
1d
1e
1f
1g
0h
1i
1j
0k
1l
0m
1n
0o
1p
0q
1r
1s
0t
1u
0v
1w
0x
1y
0z
0{
0|
0}
1~
0!!
1"!
1#!
0$!
0%!
1&!
0'!
1(!
0!
0"
1#
0$
0%
1&
1'
1(
1)
1*
0+
1,
1-
1.
0/
00
0C
0D
1E
0F
0G
1H
1I
1J
1K
1L
0M
1N
1O
1P
0Q
0R
1T
1U
0V
1W
1X
1Y
0Z
0[
11
12
03
14
15
16
07
08
$end
#10000
1"
1$
1%
0(
0)
1+
0,
0.
10
0J
1G
1F
1D
1R
0P
0N
1M
0K
0s
1m
0j
0d
1]
1q
1k
1h
0_
1x
0~
0"!
0&!
0w
1{
1!!
0#!
1'!
0u
1o
0f
0l
1`
1[
0W
0Y
1V
0T
18
06
04
13
01
#20000
0"
0%
1)
0+
09
0&
0'
0*
0-
1/
0I
0H
0G
0D
1Q
0O
0M
0L
1K
0S
0^
1s
0p
0m
0g
1a
0q
0h
0e
0b
1z
1|
1~
1&!
0y
1}
1#!
1%!
0'!
1v
0`
1l
0r
0i
0X
0U
1W
0[
08
05
14
02
#30000
1"
1%
0)
1+
1'
1*
1-
0#
1I
1G
0E
1D
1O
1M
1L
0K
0s
1p
1m
1g
1q
0n
1h
1b
0z
0~
1$!
0&!
0}
0#!
0%!
1'!
1r
0o
1i
1c
1Z
1X
0V
1U
17
15
03
12
#40000
0%
0*
0-
1#
19
0/
0$
1,
0G
0F
1E
0Q
0O
1N
0L
1S
1^
0p
1j
0g
0a
1n
0k
0h
1~
1"!
0$!
1y
1}
0!!
1%!
0v
1`
0r
0c
1o
0i
0X
1V
0Z
0U
1[
18
07
05
13
02
#50000
1%
1*
1/
1$
1)
0+
0'
1&
1(
1.
00
1J
0I
1H
1G
1F
0R
1Q
1P
0M
1L
1K
1s
1p
0m
1d
1a
0]
1k
1h
1e
0b
1_
0x
1z
0|
0~
0"!
1w
0y
0{
1#!
0%!
0'!
1u
1r
0o
1f
1c
0`
0[
1Z
1Y
0V
1U
1T
08
17
16
03
12
11
#60000
0*
1+
0&
1-
0#
09
0,
1!
1O
0N
1M
0L
0H
0E
1C
0S
0^
1t
0n
0e
0p
1m
0j
1g
0}
1!!
0#!
1%!
1|
1$!
0(!
1v
1`
0c
0f
1i
1X
0Y
0Z
1[
18
07
06
15
#70000
1*
0-
1#
0!
0%
0/
1'
0"
0Q
0O
1L
1I
0G
1E
0D
0C
0t
0q
1n
0h
1b
1p
0g
0a
1y
1}
0%!
0z
1~
0$!
1&!
1(!
0u
1o
0r
0i
1c
1Z
0X
0U
1V
0T
17
05
13
02
01
#80000
1-
1/
0'
0+
0)
0.
10
1R
1Q
0P
1O
0M
0K
0I
0b
0s
0m
1g
0d
1a
1]
0w
0y
1{
0}
1#!
1'!
1z
0c
0Z
07
#90000
0/
1)
1.
0#
1"
1&
0(
0Q
1P
1K
0J
1H
0E
1D
1q
0n
1e
0_
1s
1d
0a
1y
0{
0'!
1x
0|
1$!
0&!
1r
0o
0`
1f
1Y
0[
0V
1U
08
16
03
12
#100000
0)
1#
0"
00
0*
1%
0$
0R
0L
0K
1G
0F
1E
0D
0q
1n
0k
1h
0s
0p
0]
1w
1%!
1'!
0~
1"!
0$!
1&!
1o
0l
1i
0r
0U
1X
0W
1V
15
04
13
02
#110000
1)
10
1*
1/
0&
0-
1+
1!
1,
1R
1Q
0O
1N
1M
1L
1K
0H
1C
1t
0e
1s
1p
1m
1j
0g
1a
1]
0w
0y
1}
0!!
0#!
0%!
0'!
1|
0(!
0f
1u
1T
0Y
06
11
#120000
00
0*
1&
0!
1'
19
0R
0L
1I
1H
0C
1S
1^
0t
1e
1b
0p
0]
1w
1%!
0z
0|
1(!
0v
0i
1l
1f
1c
1Z
1Y
1W
0X
17
16
05
14
#130000
1!
09
0/
1-
0+
0,
0.
1C
0S
0Q
0P
1O
0N
0M
0m
0j
1g
0d
0a
0^
1t
0(!
1v
1y
1{
0}
1!!
1#!
1i
0l
0W
1X
15
04
#140000
19
1+
1,
1.
0&
0'
0%
1S
1P
1N
1M
0I
0H
0G
0h
0e
0b
1m
1j
1d
1^
0v
0{
0!!
0#!
1z
1|
1~
0c
1l
1W
0Z
07
14
#150000
09
0+
0.
0-
1*
0)
1$
1(
0S
0P
0O
0M
1L
0K
1J
1F
1k
1_
0s
1p
0m
0g
0d
0^
1v
1{
1}
1#!
0%!
1'!
0x
0"!
1`
0f
0i
0X
0Y
1[
18
06
05
#160000
1+
1.
1'
1/
10
0#
1"
1R
1Q
1P
1M
1I
0E
1D
1q
0n
1b
1m
1d
1a
1]
0w
0y
0{
0#!
0z
1$!
0&!
1r
0o
1c
1Z
0V
1U
17
03
12
#170000
0+
00
19
0*
0$
0(
0,
1&
1%
0R
0N
0M
0L
1S
0J
1H
1G
0F
0k
1h
1e
0_
1^
0p
0m
0j
0]
1w
1!!
1#!
1%!
0v
1x
0|
0~
1"!
1f
0u
0r
0l
0`
0[
0W
0U
0T
1Y
08
16
04
02
01
#180000
1$
1,
0.
1-
1)
1F
0P
1O
1N
1K
1s
1j
1g
0d
1k
0"!
1{
0}
0!!
0'!
1u
1i
0f
1l
1W
0Y
1X
1T
06
15
14
11
#190000
0$
0-
1+
10
1*
1(
0&
0%
1#
0"
0!
1J
0H
0G
0F
1E
0D
0C
1R
0O
1M
1L
1p
1m
0g
1]
0t
0q
1n
0k
0h
0e
1_
0x
1|
1~
1"!
0$!
1&!
1(!
0w
1}
0#!
0%!
1r
1o
0i
1`
1[
0X
1V
1U
18
05
13
12
#200000
0+
00
1&
0#
1"
1!
1.
0)
0/
0R
0Q
1P
0M
0K
1H
0E
1D
1C
1t
1q
0n
1e
0s
0m
1d
0a
0]
1w
1y
0{
1#!
1'!
0|
1$!
0&!
0(!
0u
0o
1f
0c
0`
0[
0Z
1Y
0V
0T
08
07
16
03
01
#210000
0"
0*
0,
0D
0N
0L
0p
0j
0q
1&!
1!!
1%!
0l
0r
0U
0W
04
02
#220000
1,
0.
1/
1%
09
0'
1Q
0P
1N
0I
1G
0S
0^
1h
0b
1j
0d
1a
0y
1{
0!!
1z
0~
1v
1`
1u
1i
1X
1T
1[
18
15
11
#230000
0/
0%
1'
1*
0&
0!
1)
1-
0(
0Q
1O
1L
1K
0J
1I
0H
0G
0C
0t
0h
0e
1b
0_
1s
1p
1g
0a
1y
0}
0%!
0'!
1x
0z
1|
1~
1(!
0f
0`
0u
0i
1c
1Z
0X
0T
0[
0Y
08
17
06
05
01
#240000
0)
1.
1"
10
1#
1R
1P
0K
1E
1D
1q
1n
0s
1d
1]
0w
0{
1'!
0$!
0&!
1r
1o
1V
1U
13
12
#250000
1)
00
0#
1/
1%
0'
1!
0-
0R
1Q
0O
1K
0I
1G
0E
1C
1t
0n
1h
0b
1s
0g
1a
0]
1w
0y
1}
0'!
1z
0~
1$!
0(!
0o
1u
1i
0c
0Z
1X
1T
0V
07
15
03
11
#260000
10
1#
0/
0%
1'
1-
1&
1(
0,
19
1+
1R
0Q
1O
0N
1M
1J
1I
1H
0G
1E
1S
1^
1n
0h
1e
1b
1_
1m
0j
1g
0a
1]
0w
1y
0}
1!!
0#!
0x
0z
0|
1~
0$!
0v
1f
1o
1`
1[
1V
1Y
18
16
13
#270000
00
0'
0+
0)
0.
0"
0*
1$
0R
0P
0M
0L
0K
0I
1F
0D
0q
1k
0b
0s
0p
0m
0d
0]
1w
1{
1#!
1%!
1'!
1z
0"!
1&!
0u
0r
0o
0f
0`
0[
0Y
0V
0U
0T
08
06
03
02
01
#280000
1'
0$
1/
0-
0(
0J
1I
0F
1Q
0O
0g
1a
0k
1b
0_
1x
0z
1"!
0y
1}
0i
1c
1Z
0X
17
05
#290000
1$
0/
1(
1)
1"
1*
1%
0&
1,
09
1J
0H
1G
1F
1D
0Q
1N
1L
1K
0S
0^
1s
1p
1j
0a
1q
1k
1h
0e
1_
0x
1|
0~
0"!
0&!
1y
0!!
0%!
0'!
1v
1o
1u
1r
1l
1i
1`
1[
1X
1W
1U
1T
1V
18
15
14
13
12
11
#300000
0(
0)
0"
0*
0,
0'
1-
10
1.
0#
0J
0I
0E
0D
1R
1P
1O
0N
0L
0K
0s
0p
0j
1g
1d
1]
0q
0n
0b
0_
1x
1z
1$!
1&!
0w
0{
0}
1!!
1%!
1'!
0r
0o
0c
0`
0[
0Z
0V
0U
08
07
03
02
#310000
1)
1*
1'
0-
00
0.
1#
1&
19
0R
0P
0O
1L
1K
1I
1H
1E
1S
1^
1n
1e
1b
1s
1p
0g
0d
0]
1w
1{
1}
0%!
0'!
0z
0|
0$!
0v
0l
1r
0i
0X
1U
0W
05
04
12
#320000
0*
0'
0#
0&
09
1"
0$
0%
1+
0!
1M
0L
0I
0H
0G
0F
0E
1D
0C
0S
0^
0t
1q
0n
0k
0h
0e
0b
0p
1m
0#!
1%!
1z
1|
1~
1"!
1$!
0&!
1(!
1v
0u
0T
01
#330000
19
1%
0+
1!
1,
1/
1S
1G
1C
1Q
1N
0M
0m
1j
1a
1t
1h
1^
0v
0~
0(!
0y
0!!
1#!
1c
1l
0r
1u
1T
0U
1W
1Z
17
14
02
11
#340000
1+
0!
0/
1*
1'
1&
0"
0)
1-
1.
1(
0Q
1P
1O
1M
1L
0K
1J
1I
1H
0D
0C
0t
0q
1e
1b
1_
0s
1p
1m
1g
1d
0a
1y
0{
0}
0#!
0%!
1'!
0x
0z
0|
1&!
1(!
0u
1r
1o
1i
1f
0c
0Z
1Y
1X
1V
1U
0T
07
16
15
13
12
01
#350000
0+
0'
0&
1"
1)
0-
0(
09
0,
1#
1$
10
1R
0O
0N
0M
1K
0J
0I
0H
1F
1E
1D
0S
0^
1q
1n
1k
0e
0b
0_
1s
0m
0j
0g
1]
0w
1}
1!!
1#!
0'!
1x
1z
1|
0"!
0$!
0&!
1v
0f
0Y
06
#360000
0"
0)
1,
0$
1!
0*
0.
0F
0D
1C
0P
1N
0L
0K
0s
0p
1j
0d
1t
0q
0k
1"!
1&!
0(!
1{
0!!
1%!
1'!
1u
0r
0l
0W
0U
1T
04
02
11
#370000
1"
1)
1$
1'
1&
1I
1H
1F
1D
1K
1s
1q
1k
1e
1b
0z
0|
0"!
0&!
0'!
1r
1l
1f
1c
1Z
1Y
1W
1U
17
16
14
12
#380000
0&
1*
1+
1(
19
1/
0%
1J
0H
0G
1Q
1M
1L
1S
1^
1p
1m
1a
0h
0e
1_
0x
1|
1~
0y
0#!
0%!
0v
0i
0f
1`
1[
0Y
0X
18
06
05
#390000
0*
09
1%
0,
0!
1-
0#
1O
0N
0L
0S
1G
0E
0C
0t
0n
1h
0^
0p
0j
1g
0}
1!!
1%!
1v
0~
1$!
1(!
0o
0u
1i
1X
0T
0V
15
03
01
#400000
1*
19
0%
0-
1#
1&
0+
0(
0/
0"
0$
0'
1.
00
0R
0Q
1P
0O
0M
1L
1S
0J
0I
1H
0G
0F
1E
0D
0q
1n
0k
0h
1e
0b
0_
1^
1p
0m
0g
1d
0a
0]
1w
1y
0{
1}
1#!
0%!
0v
1x
1z
0|
1~
1"!
0$!
1&!
0l
1u
0i
1f
0c
0`
0[
0Z
1Y
0X
1T
0W
08
07
16
05
04
11
#410000
09
1-
1(
1$
10
1,
0S
1R
1O
1N
1J
1F
1k
1_
1j
1g
1]
0^
1v
0w
0}
0!!
0x
0"!
1`
1l
1o
0r
0u
0T
0U
1V
1W
1[
18
14
13
02
01
#420000
19
0-
00
0,
1%
0#
1+
1/
1"
0.
1!
1S
0R
1Q
0P
0O
0N
1M
1G
0E
1D
1C
1t
1q
0n
1h
1m
0j
0g
0d
1a
0]
1^
0v
1w
0y
1{
1}
1!!
0#!
0~
1$!
0&!
0(!
0`
1c
0f
0l
1r
1u
1T
1U
0W
0Y
1Z
0[
08
17
06
04
12
11
#430000
1#
0/
1.
0!
0(
0*
0)
0J
1E
0C
0Q
1P
0L
0K
0s
0p
1d
0a
0t
1n
0_
1x
0$!
1(!
1y
0{
1%!
1'!
0r
1f
0c
0u
0T
0Z
1Y
0U
07
16
02
01
#440000
0#
0.
1!
10
0&
0H
0E
1C
1R
0P
0d
1]
1t
0n
0e
1|
1$!
0(!
0w
1{
1`
0f
0Y
1[
18
06
#450000
0!
1&
1*
1)
1-
0$
1H
0F
0C
1O
1L
1K
1s
1p
1g
0t
0k
1e
0|
1"!
1(!
0}
0%!
0'!
1r
1i
1u
1T
1X
1U
15
12
11
#460000
00
09
0%
0"
1'
0R
0S
1I
0G
0D
0q
0h
1b
0^
0]
1w
1v
0z
1~
1&!
1c
1f
0i
0o
0r
0u
0`
0[
0T
0U
0V
0X
1Y
1Z
08
17
16
05
03
02
01
#470000
19
0&
1.
1,
1S
0H
1P
1N
1j
1d
0e
1^
0v
1|
0{
0!!
0c
1i
1l
1o
1r
1u
1T
1U
1V
1W
1X
0Z
07
15
14
13
12
11
#480000
09
10
1%
1"
1!
0-
1$
0S
1R
0O
1G
1F
1D
1C
1t
1q
1k
1h
0g
1]
0^
1v
0w
1}
0~
0"!
0&!
0(!
1c
0f
0o
0V
0Y
1Z
17
06
03
#490000
19
00
0!
1-
1&
0,
0'
0*
0)
1(
1S
0R
1O
0N
0L
0K
1J
0I
1H
0C
0t
1e
0b
1_
0s
0p
0j
1g
0]
1^
0v
1w
0}
1!!
1%!
1'!
0x
1z
0|
1(!
0c
1f
0l
1o
0r
0u
0T
0U
1V
0W
1Y
0Z
07
16
04
13
02
01
#500000
1!
0-
1*
0(
0"
0J
0D
1C
0O
1L
1p
0g
1t
0q
0_
1x
1&!
0(!
1}
0%!
0i
1r
1U
0X
05
12
#510000
1-
1(
1"
09
0&
1)
0.
1#
0P
1O
1K
1J
0H
1E
1D
0S
0^
1q
1n
0e
1_
1s
1g
0d
1{
0}
0'!
0x
1|
0$!
0&!
1v
1l
1`
1u
1i
0f
0Y
1X
1T
1[
1W
18
06
15
14
11
#520000
0*
1,
1'
0%
0$
1/
0+
1Q
1N
0M
0L
1I
0G
0F
0k
0h
1b
0p
0m
1j
1a
0y
0!!
1#!
1%!
0z
1~
1"!
0i
0l
1c
1Z
0W
0X
17
05
04
#530000
1%
0-
0)
0#
10
1G
0E
1R
0O
0K
0s
0g
1]
0n
1h
0~
1$!
0w
1}
1'!
0o
1i
1X
0V
15
03
#540000
1-
1)
00
1*
0,
0'
1$
0(
19
1&
1.
0R
1P
1O
0N
1L
1K
0J
0I
1H
1F
1S
1^
1k
1e
0b
0_
1s
1p
0j
1g
1d
0]
1w
0{
0}
1!!
0%!
0'!
1x
1z
0|
0"!
0v
1f
0`
0[
1Y
08
16
#550000
0)
10
1,
1'
1(
09
1#
0/
1+
1R
0Q
1N
1M
0K
1J
1I
1E
0S
0^
1n
1b
1_
0s
1m
1j
0a
1]
0w
1y
0!!
0#!
1'!
0x
0z
0$!
1v
1o
1l
1`
1[
1W
1V
18
14
13
#560000
00
0,
0#
0*
0&
0%
0"
0R
0N
0L
0H
0G
0E
0D
0q
0n
0h
0e
0p
0j
0]
1w
1!!
1%!
1|
1~
1$!
1&!
0o
0i
0f
0r
0U
0Y
0X
0V
06
05
03
02
#570000
1#
1)
0'
0(
1/
0+
0-
0$
0.
0!
0J
0I
0F
1E
0C
1Q
0P
0O
0M
1K
1s
0m
0g
0d
1a
0t
1n
0k
0b
0_
1x
1z
1"!
0$!
1(!
0y
1{
1}
1#!
0'!
0u
1o
0l
0c
0`
0[
0Z
0W
1V
0T
08
07
04
13
01
#580000
0)
1(
0/
1$
10
1%
1"
19
1R
0Q
0K
1J
1G
1F
1D
1S
1^
1q
1k
1h
1_
0s
0a
1]
0w
1y
1'!
0x
0~
0"!
0&!
0v
0o
1`
1[
0V
18
03
#590000
1/
0$
00
0%
1'
1-
1!
1,
1*
1&
0R
1Q
1O
1N
1L
1I
1H
0G
0F
1C
1t
0k
0h
1e
1b
1p
1j
1g
1a
0]
1w
0y
0}
0!!
0%!
0z
0|
1~
1"!
0(!
1r
1l
1i
1c
0`
0[
1Z
1X
1W
1U
08
17
15
14
12
#600000
0/
0'
0,
0&
0(
09
0#
1.
0Q
1P
0N
0J
0I
0H
0E
0S
0^
0n
0e
0b
0_
0j
1d
0a
1y
0{
1!!
1x
1z
1|
1$!
1v
0i
1u
0l
0c
0Z
0W
1T
0X
07
05
04
11
#610000
1'
1,
19
1#
0-
0!
0*
0"
1+
1I
1E
0D
0C
0O
1N
1M
0L
1S
1^
0p
1m
1j
0g
0t
0q
1n
1b
0z
0$!
1&!
1(!
1}
0!!
0#!
1%!
0v
1f
1l
0u
0r
1o
1V
0U
0T
1W
1Y
16
14
13
02
01
#620000
0'
09
1!
1"
10
1%
0I
1G
1D
1C
0S
1R
1]
0^
1t
1q
1h
0b
1z
0~
0&!
0(!
1v
0w
0f
0l
1u
1r
1i
1X
1U
1T
0W
0Y
06
15
04
12
11
#630000
1'
19
0!
1-
1*
0+
1/
1&
1(
1$
1)
1J
1I
1H
1F
0C
1S
1Q
1O
0M
1L
1K
1s
1p
0m
1g
1a
1^
0t
1k
1e
1b
1_
0x
0z
0|
0"!
1(!
0v
0y
0}
1#!
0%!
0'!
0o
1l
1f
1c
1`
1[
1Z
1Y
1W
0V
18
17
16
14
03
#640000
1!
0-
0*
0/
0)
0"
00
0#
0.
0E
0D
1C
0R
0Q
0P
0O
0L
0K
0s
0p
0g
0d
0a
0]
1t
0q
0n
1$!
1&!
0(!
1w
1y
1{
1}
1%!
1'!
0i
0f
0c
0`
0u
0r
0U
0T
0[
0Z
0Y
0X
08
07
06
05
02
01
#650000
1-
1*
1)
1.
0'
0%
1P
1O
1L
1K
0I
0G
0h
0b
1s
1p
1g
1d
0{
0}
0%!
0'!
1z
1~
1u
1r
1i
1f
1Y
1X
1U
1T
16
15
12
11
#660000
0.
0!
10
1#
1+
0&
0(
0$
0,
1R
0P
0N
1M
0J
0H
0F
1E
0C
0t
1n
0k
0e
0_
1m
0j
0d
1]
0w
1{
1!!
0#!
1x
1|
1"!
0$!
1(!
1o
0l
0f
1`
1[
0Y
0W
1V
18
06
04
13
#670000
1.
00
0#
1,
0-
1"
0R
1P
0O
1N
0E
1D
1q
0n
1j
0g
1d
0]
1w
0{
1}
0!!
1$!
0&!
1l
0i
1f
0`
0[
1Y
0X
1W
08
16
05
14
#680000
0.
1-
0"
1!
0+
1&
1(
0)
0P
1O
0M
0K
1J
1H
0D
1C
1t
0q
1e
1_
0s
0m
1g
0d
1{
0}
1#!
1'!
0x
0|
1&!
0(!
0u
0o
1i
0f
0Y
1X
0V
0T
06
15
03
01
#690000
1"
0(
1#
0*
1%
09
0J
1G
1E
1D
0L
0S
0^
0p
1q
1n
1h
0_
1x
0~
0$!
0&!
1%!
1v
1f
0l
1u
1o
1V
1T
0W
1Y
16
04
13
11
#700000
0"
1(
0-
0!
10
1/
1J
0D
0C
1R
1Q
0O
0g
1a
1]
0t
0q
1_
0x
1&!
1(!
0w
0y
1}
0u
0r
1`
1[
0U
0T
18
02
01
#710000
0(
1!
00
0#
1*
1+
1)
0,
1$
0J
1F
0E
1C
0R
0N
1M
1L
1K
1s
1p
1m
0j
0]
1t
0n
1k
0_
1x
0"!
1$!
0(!
1w
1!!
0#!
0%!
0'!
1u
0o
1l
0`
0[
1W
0V
1T
08
14
03
11
#720000
10
1,
0$
1-
0/
0%
19
1.
0&
1R
0Q
1P
1O
1N
0H
0G
0F
1S
1^
0k
0h
0e
1j
1g
1d
0a
1]
0w
1y
0{
0}
0!!
1|
1~
1"!
0v
1o
1r
1`
1[
1U
1V
18
13
12
#730000
0,
0-
09
0.
1&
0!
0+
0P
0O
0N
0M
0S
1H
0C
0t
1e
0^
0m
0j
0g
0d
1{
1}
1!!
1#!
1v
0|
1(!
0`
0r
0u
0o
0l
0i
0X
0W
0V
0T
0U
0[
08
05
04
03
02
01
#740000
1,
19
1!
1+
00
0*
0)
0R
1N
1M
0L
0K
1S
1C
1t
1^
0s
0p
1m
1j
0]
1w
0!!
0#!
1%!
1'!
0v
0(!
0f
1o
1l
1W
1V
0Y
06
14
13
#750000
09
10
1*
1-
1$
1/
1%
1(
1#
0S
1R
1Q
1O
1L
1J
1G
1F
1E
1n
1k
1h
1_
1p
1g
1a
1]
0^
1v
0w
0y
0}
0%!
0x
0~
0"!
0$!
1`
1f
1i
1u
1T
1X
1Y
1[
18
16
15
11
#760000
0*
0/
0%
0,
1'
0Q
0N
0L
1I
0G
0h
1b
0p
0j
0a
1y
1!!
1%!
0z
1~
0i
1c
1Z
0X
17
05
#770000
0'
0-
0!
0+
1)
1.
0I
0C
1P
0O
0M
1K
1s
0m
0g
1d
0t
0b
1z
1(!
0{
1}
1#!
0'!
0u
0c
0Z
0T
07
01
#780000
1'
1-
1+
0.
1*
1/
1%
19
00
0$
0(
0#
0&
0J
1I
0H
1G
0F
0E
0R
1Q
0P
1O
1M
1L
1S
1^
1p
1m
1g
0d
1a
0]
0n
0k
1h
0e
1b
0_
1x
0z
1|
0~
1"!
1$!
1w
0y
1{
0}
0#!
0%!
0v
1u
1r
0l
1i
0f
1c
0`
0[
1Z
0Y
1X
0W
1U
1T
08
17
06
15
04
12
11
#790000
0'
0+
0/
0%
09
1$
1(
1#
1!
0)
1,
1"
1J
0I
0G
1F
1E
1D
1C
0Q
1N
0M
0K
0S
0^
0s
0m
1j
0a
1t
1q
1n
1k
0h
0b
1_
0x
1z
1~
0"!
0$!
0&!
0(!
1y
0!!
1#!
1'!
1v
1l
0i
0c
1`
1[
0Z
0X
1W
18
07
05
14
#800000
1+
1/
0(
0!
1)
0,
1.
1&
1Q
1P
0N
1M
1K
0J
1H
0C
0t
1e
0_
1s
1m
0j
1d
1a
0y
0{
1!!
0#!
0'!
1x
0|
1(!
0`
0u
1f
1Y
0T
0[
08
16
01
#810000
0)
1,
0.
0&
1'
0-
0*
0P
0O
1N
0L
0K
1I
0H
0e
1b
0s
0p
1j
0g
0d
1{
1}
0!!
1%!
1'!
0z
1|
1c
0f
0Y
1Z
17
06
#820000
1.
1&
0'
1-
1%
0$
0#
1P
1O
0I
1H
1G
0F
0E
0n
0k
1h
1e
0b
1g
1d
0{
0}
1z
0|
0~
1"!
1$!
0o
0l
0c
1i
1f
1Y
1X
0Z
0W
0V
07
16
15
04
03
#830000
0.
0%
1$
1)
0/
1!
0"
10
1R
0Q
0P
1K
0G
1F
0D
1C
1t
0q
1k
0h
1s
0d
0a
1]
0w
1y
1{
0'!
1~
0"!
1&!
0(!
0r
1l
0i
1u
1T
0X
1W
0U
05
14
02
11
#840000
1.
1%
0$
0)
1"
00
0&
1'
0,
1*
0+
19
0R
1P
0N
0M
1L
0K
1I
0H
1G
0F
1D
1S
1^
1q
0k
1h
0e
1b
0s
1p
0m
0j
1d
0]
1w
0{
1!!
1#!
0%!
1'!
0z
1|
0~
1"!
0&!
0v
1i
0u
1r
0l
0W
1U
0T
1X
15
04
12
01
#850000
0%
1$
0"
1&
0'
1,
0!
1(
1J
0I
1H
0G
1F
0D
0C
1N
1j
0t
0q
1k
0h
1e
0b
1_
0x
1z
0|
1~
0"!
1&!
1(!
0!!
1l
1W
14
#860000
1%
1"
0&
1'
1!
0(
0.
10
09
1/
0-
1#
0J
1I
0H
1G
1E
1D
1C
1R
1Q
0P
0O
0S
0^
0g
0d
1a
1]
1t
1q
1n
1h
0e
1b
0_
1x
0z
1|
0~
0$!
0&!
0(!
0w
0y
1{
1}
1v
1u
1o
0f
1c
1Z
0Y
1V
1T
17
06
13
11
#870000
1.
00
19
0/
0#
1)
0R
0Q
1P
1K
1S
0E
0n
1^
1s
1d
0a
0]
1w
1y
0{
0'!
0v
1$!
0i
0o
1f
0c
0Z
1Y
0V
0X
07
16
05
03
#880000
0.
0)
1&
0P
0K
1H
1e
0s
0d
1{
1'!
0|
0u
0f
0Y
0T
06
01
#890000
1.
1)
09
1/
0'
0!
1-
0$
0,
1+
1Q
1P
1O
0N
1M
1K
0S
0I
0F
0C
0t
0k
0b
0^
1s
1m
0j
1g
1d
1a
0y
0{
0}
1!!
0#!
0'!
1v
1z
1"!
1(!
0l
1i
1f
1Y
1X
0W
16
15
04
#900000
0)
1$
10
1#
0"
0*
1R
0L
0K
1F
1E
0D
0q
1n
1k
0s
0p
1]
0w
1%!
1'!
0"!
0$!
1&!
1o
1l
0r
0U
1W
1V
14
13
02
#910000
0$
00
0#
1*
0.
1'
0-
1,
0+
1(
1J
1I
0F
0E
0R
0P
0O
1N
0M
1L
1p
0m
1j
0g
0d
0]
0n
0k
1b
1_
0x
0z
1"!
1$!
1w
1{
1}
0!!
1#!
0%!
0o
0l
1c
1`
1[
1Z
0W
0V
18
17
04
03
#920000
1$
10
1-
0,
1+
0(
1)
19
0/
1!
0%
0J
0G
1F
1C
1R
0Q
1O
0N
1M
1K
1S
1^
1s
1m
0j
1g
0a
1]
1t
1k
0h
0_
1x
1~
0"!
0(!
0w
1y
0}
1!!
0#!
0'!
0v
0f
1r
1o
0c
1u
1T
0Z
1V
1U
0Y
07
06
13
12
11
