VHDL TEST/restador8bits/simulation/qsim/restador8bits.msim.vcd
$comment
	File created using the following command:
		vcd file restador8bits.msim.vcd -direction
$end
$date
	Mon Nov 18 14:38:27 2024
$end
$version
	ModelSim Version 2020.1
$end
$timescale
	1ps
$end

$scope module restador8bits_vhd_vec_tst $end
$var wire 1 ! A [7] $end
$var wire 1 " A [6] $end
$var wire 1 # A [5] $end
$var wire 1 $ A [4] $end
$var wire 1 % A [3] $end
$var wire 1 & A [2] $end
$var wire 1 ' A [1] $end
$var wire 1 ( A [0] $end
$var wire 1 ) B [7] $end
$var wire 1 * B [6] $end
$var wire 1 + B [5] $end
$var wire 1 , B [4] $end
$var wire 1 - B [3] $end
$var wire 1 . B [2] $end
$var wire 1 / B [1] $end
$var wire 1 0 B [0] $end
$var wire 1 1 desbordamiento $end
$var wire 1 2 diferencia [7] $end
$var wire 1 3 diferencia [6] $end
$var wire 1 4 diferencia [5] $end
$var wire 1 5 diferencia [4] $end
$var wire 1 6 diferencia [3] $end
$var wire 1 7 diferencia [2] $end
$var wire 1 8 diferencia [1] $end
$var wire 1 9 diferencia [0] $end

$scope module i1 $end
$var wire 1 : gnd $end
$var wire 1 ; vcc $end
$var wire 1 < unknown $end
$var wire 1 = devoe $end
$var wire 1 > devclrn $end
$var wire 1 ? devpor $end
$var wire 1 @ ww_devoe $end
$var wire 1 A ww_devclrn $end
$var wire 1 B ww_devpor $end
$var wire 1 C ww_A [7] $end
$var wire 1 D ww_A [6] $end
$var wire 1 E ww_A [5] $end
$var wire 1 F ww_A [4] $end
$var wire 1 G ww_A [3] $end
$var wire 1 H ww_A [2] $end
$var wire 1 I ww_A [1] $end
$var wire 1 J ww_A [0] $end
$var wire 1 K ww_B [7] $end
$var wire 1 L ww_B [6] $end
$var wire 1 M ww_B [5] $end
$var wire 1 N ww_B [4] $end
$var wire 1 O ww_B [3] $end
$var wire 1 P ww_B [2] $end
$var wire 1 Q ww_B [1] $end
$var wire 1 R ww_B [0] $end
$var wire 1 S ww_diferencia [7] $end
$var wire 1 T ww_diferencia [6] $end
$var wire 1 U ww_diferencia [5] $end
$var wire 1 V ww_diferencia [4] $end
$var wire 1 W ww_diferencia [3] $end
$var wire 1 X ww_diferencia [2] $end
$var wire 1 Y ww_diferencia [1] $end
$var wire 1 Z ww_diferencia [0] $end
$var wire 1 [ ww_desbordamiento $end
$var wire 1 \ \~QUARTUS_CREATED_GND~I_combout\ $end
$var wire 1 ] \B[0]~input_o\ $end
$var wire 1 ^ \A[0]~input_o\ $end
$var wire 1 _ \Add0~1_sumout\ $end
$var wire 1 ` \B[1]~input_o\ $end
$var wire 1 a \A[1]~input_o\ $end
$var wire 1 b \Add0~2\ $end
$var wire 1 c \Add0~3\ $end
$var wire 1 d \Add0~5_sumout\ $end
$var wire 1 e \A[2]~input_o\ $end
$var wire 1 f \B[2]~input_o\ $end
$var wire 1 g \Add0~6\ $end
$var wire 1 h \Add0~7\ $end
$var wire 1 i \Add0~9_sumout\ $end
$var wire 1 j \A[3]~input_o\ $end
$var wire 1 k \B[3]~input_o\ $end
$var wire 1 l \Add0~10\ $end
$var wire 1 m \Add0~11\ $end
$var wire 1 n \Add0~13_sumout\ $end
$var wire 1 o \A[4]~input_o\ $end
$var wire 1 p \B[4]~input_o\ $end
$var wire 1 q \Add0~14\ $end
$var wire 1 r \Add0~15\ $end
$var wire 1 s \Add0~17_sumout\ $end
$var wire 1 t \B[5]~input_o\ $end
$var wire 1 u \A[5]~input_o\ $end
$var wire 1 v \Add0~18\ $end
$var wire 1 w \Add0~19\ $end
$var wire 1 x \Add0~21_sumout\ $end
$var wire 1 y \A[6]~input_o\ $end
$var wire 1 z \B[6]~input_o\ $end
$var wire 1 { \Add0~22\ $end
$var wire 1 | \Add0~23\ $end
$var wire 1 } \Add0~25_sumout\ $end
$var wire 1 ~ \A[7]~input_o\ $end
$var wire 1 !! \B[7]~input_o\ $end
$var wire 1 "! \Add0~26\ $end
$var wire 1 #! \Add0~27\ $end
$var wire 1 $! \Add0~29_sumout\ $end
$var wire 1 %! \Add0~30\ $end
$var wire 1 &! \Add0~31\ $end
$var wire 1 '! \resta_temporal[8]~1_sumout\ $end
$var wire 1 (! \process_0~0_combout\ $end
$var wire 1 )! \ALT_INV_resta_temporal[8]~1_sumout\ $end
$var wire 1 *! \ALT_INV_A[7]~input_o\ $end
$var wire 1 +! \ALT_INV_B[7]~input_o\ $end
$var wire 1 ,! \ALT_INV_A[0]~input_o\ $end
$var wire 1 -! \ALT_INV_A[1]~input_o\ $end
$var wire 1 .! \ALT_INV_B[0]~input_o\ $end
$var wire 1 /! \ALT_INV_B[1]~input_o\ $end
$var wire 1 0! \ALT_INV_A[2]~input_o\ $end
$var wire 1 1! \ALT_INV_B[2]~input_o\ $end
$var wire 1 2! \ALT_INV_A[3]~input_o\ $end
$var wire 1 3! \ALT_INV_B[3]~input_o\ $end
$var wire 1 4! \ALT_INV_A[4]~input_o\ $end
$var wire 1 5! \ALT_INV_B[4]~input_o\ $end
$var wire 1 6! \ALT_INV_A[5]~input_o\ $end
$var wire 1 7! \ALT_INV_B[5]~input_o\ $end
$var wire 1 8! \ALT_INV_A[6]~input_o\ $end
$var wire 1 9! \ALT_INV_B[6]~input_o\ $end
$upscope $end
$upscope $end
$enddefinitions $end
#0
$dumpvars
01
0:
1;
x<
1=
1>
1?
1@
1A
1B
0[
x\
1]
1^
0_
0`
1a
0b
1c
1d
0e
1f
0g
0h
0i
1j
1k
0l
1m
0n
0o
0p
1q
0r
0s
1t
0u
1v
0w
1x
1y
1z
0{
1|
0}
0~
1!!
1"!
0#!
1$!
0%!
1&!
0'!
0(!
1)!
1*!
0+!
0,!
0-!
0.!
1/!
10!
01!
02!
03!
14!
15!
16!
07!
08!
09!
0!
1"
0#
0$
1%
0&
1'
1(
1)
1*
1+
0,
1-
1.
0/
10
0C
1D
0E
0F
1G
0H
1I
1J
1K
1L
1M
0N
1O
1P
0Q
1R
1S
0T
1U
0V
0W
0X
1Y
0Z
12
03
14
05
06
07
18
09
$end
#10000
0"
0%
0'
0+
0-
0.
00
0I
0G
0D
0R
0P
0O
0M
0t
0k
0f
0]
0y
0j
0a
1-!
12!
18!
1.!
11!
13!
17!
0x
1{
0|
1i
0m
1_
0c
1}
0"!
1#!
0d
1g
0i
1l
1d
0g
1n
0q
1s
0v
1i
0l
0n
1q
0Y
1T
1Z
1X
0U
0s
1v
1n
0q
1x
0{
19
08
17
04
13
1W
1Y
0X
0}
1s
0v
0x
1{
18
07
16
0W
1X
1V
1}
1x
0{
17
06
15
1U
1W
0V
0}
16
05
14
0U
1V
0T
15
04
03
1U
1T
14
13
0T
03
#20000
1"
1%
1-
1#
0)
0*
1,
1G
1E
1D
1O
1N
0L
0K
0!!
0z
1p
1k
1y
1u
1j
02!
06!
08!
03!
05!
19!
1+!
0$!
1%!
0&!
0s
1w
0#!
0x
1$!
0%!
1x
1'!
0U
0V
0S
0)!
05
04
02
1U
1S
14
12
#30000
0%
0-
1)
1'
1.
10
1$
0(
0J
1I
0G
1F
1R
1P
0O
1K
1!!
0k
1f
1]
1o
0j
1a
0^
1,!
0-!
12!
04!
0.!
01!
13!
0+!
0$!
1&!
1(!
0i
1m
1s
0w
0d
1c
1d
0x
0n
1q
0'!
1)!
0s
1v
0Y
1V
0X
1[
0S
0(!
1x
08
07
15
02
11
0W
0U
1Y
18
06
04
0V
0[
05
1U
01
14
#40000
0)
0'
00
1(
0R
0K
1J
0I
0a
1^
0!!
0]
1.!
1+!
0,!
1-!
0d
1g
1$!
0&!
0c
1d
0g
1'!
1i
0)!
0i
1S
0Y
08
12
1X
1Y
18
17
0X
07
#50000
1)
10
0(
1-
1*
0,
1+
1&
1R
1O
0N
1M
1L
1K
0J
1H
1e
0^
1!!
1z
1t
0p
1k
1]
0.!
03!
15!
07!
09!
0+!
1,!
00!
1i
0m
0$!
1&!
1(!
1}
0x
1{
1s
0v
1n
0q
1r
1c
0d
1g
1x
0{
0}
1"!
0'!
0n
1)!
1$!
1}
0"!
0i
1l
1W
1V
0U
1T
1[
0S
1X
0(!
1n
0$!
17
16
15
04
13
02
11
0W
0T
1U
0Y
08
06
14
03
0X
1T
1S
0[
07
13
12
0S
1W
01
16
02
#60000
00
0-
0+
1'
1%
0$
0"
0#
1/
0R
1Q
0O
0M
1I
1G
0F
0E
0D
0y
0u
0o
1j
1a
0t
0k
1`
0]
1.!
0/!
13!
17!
0-!
02!
14!
16!
18!
0}
1#!
0s
1v
0r
0_
1s
0v
0x
1{
1$!
1}
1x
0{
0Z
0V
0T
0}
09
05
03
1S
0U
1V
15
04
12
1U
1T
14
13
0T
03
#70000
10
0'
0/
0)
1,
0&
1R
0Q
1N
0K
0I
0H
0e
0a
0!!
1p
0`
1]
0.!
1/!
05!
1+!
1-!
10!
1i
0l
1m
0$!
1%!
0&!
0s
1w
1_
0x
1{
1}
1Z
0V
0S
1X
19
17
05
02
0U
04
1T
13
#80000
00
0,
1&
1+
0%
1$
1"
1#
1(
1!
0R
0N
1M
1J
1H
0G
1F
1E
1D
1C
1~
1y
1u
1o
0j
1e
1^
1t
0p
0]
1.!
15!
07!
0,!
00!
12!
04!
06!
08!
0*!
1$!
0%!
1(!
0}
1"!
0#!
0n
1q
0i
1l
0m
0w
0c
1d
0g
1x
0{
1s
1'!
0)!
1}
0"!
1i
0l
0X
0W
0T
1[
1S
0(!
1n
0q
0$!
07
06
03
12
11
1V
1U
1Y
0s
18
15
14
1X
1T
0[
17
13
0S
1W
01
16
02
0V
05
#90000
1,
0+
0"
0#
0(
1'
1)
1-
0*
1O
1N
0M
0L
1K
0J
1I
0E
0D
0y
0u
1a
0^
1!!
0z
0t
1p
1k
03!
05!
17!
19!
0+!
1,!
0-!
16!
18!
0d
0_
1c
1$!
1s
0n
1r
0s
1v
1d
0x
1{
0W
1V
1S
0Z
0Y
0}
1"!
09
08
06
15
12
1Y
0V
0$!
1%!
18
05
0U
0'!
04
0T
1)!
03
0S
02
#100000
0,
0'
10
0$
0!
1/
1R
1Q
0N
0I
0F
0C
0~
0o
0a
0p
1`
1]
0.!
0/!
15!
1-!
14!
1*!
1$!
0%!
1&!
1h
1_
0i
1l
1n
1Z
1S
19
12
0X
07
1W
16
#110000
1'
1!
0/
1#
0)
0-
1*
1I
1E
1C
0Q
0O
1L
0K
0!!
1z
0k
0`
1~
1u
1a
0-!
06!
0*!
1/!
13!
09!
1+!
1}
0"!
1#!
0n
1q
0r
0&!
1(!
1x
0{
0h
1i
0l
0}
1'!
0)!
1n
0q
1U
1[
0W
1T
0(!
1s
0v
06
14
13
11
0T
1X
0x
17
03
1W
0[
16
1V
01
15
0U
04
#120000
1-
0*
00
1$
1"
1(
0R
1O
0L
1J
1F
1D
1y
1o
1^
0z
1k
0]
1.!
03!
19!
0,!
04!
08!
0s
0#!
0n
1r
0c
0d
1s
0$!
0W
0V
06
05
0S
1V
0Y
08
15
02
#130000
10
0$
0"
0'
0!
1/
1)
1+
0&
1%
0.
1R
1Q
0P
1M
1K
0I
0H
1G
0F
0D
0C
0~
0y
0o
1j
0e
0a
1!!
1t
0f
1`
1]
0.!
0/!
11!
07!
0+!
1-!
10!
02!
14!
18!
1*!
1}
0s
1v
1n
0r
1&!
1(!
1x
1h
0_
1c
1d
0i
1l
0'!
1s
0v
0x
1{
1)!
0}
1"!
1x
0{
0n
1q
0Z
1U
1[
1W
0V
1T
0(!
0s
1v
1}
0"!
1$!
09
16
05
14
13
11
0U
1V
0X
1Y
0$!
0x
1{
18
07
15
04
0W
1U
0T
0[
0}
1"!
06
14
03
1S
1T
0V
01
1$!
05
13
12
0U
0S
04
02
0T
03
1S
12
#140000
00
0/
0+
0%
1*
0(
0#
0R
0Q
0M
1L
0J
0G
0E
0u
0j
0^
1z
0t
0`
0]
1.!
1/!
17!
09!
1,!
12!
16!
1n
0q
1r
1}
0"!
1#!
0d
1g
0h
0Y
1T
1W
08
16
13
#150000
1/
1+
0*
1(
1#
1"
1,
1Q
1N
1M
0L
1J
1E
1D
1y
1u
1^
0z
1t
1p
1`
0/!
05!
07!
19!
0,!
06!
08!
1_
0c
0#!
1s
0v
1w
1d
0g
1h
0$!
0d
1Y
1V
1Z
19
18
15
0Y
0S
08
02
#160000
0/
0+
10
1%
1$
1!
0)
1&
0-
1R
0Q
0O
0M
0K
1H
1G
1F
1C
1~
1o
1j
1e
0!!
0t
0k
0`
1]
0.!
1/!
13!
17!
1+!
00!
02!
04!
0*!
0s
1v
0w
1i
0l
0&!
1(!
1x
0{
0r
1d
0h
0_
1c
0d
1g
0i
1s
0v
0}
1'!
0n
0)!
0x
1i
0Z
1Y
1U
1[
1X
0V
0(!
09
18
17
05
14
11
0W
0T
1V
0X
0Y
08
07
06
15
03
1X
0U
0[
17
04
01
#170000
1/
0%
0!
1-
1*
0#
0,
1Q
1O
0N
1L
0G
0E
0C
0~
0u
0j
1z
0p
1k
1`
0/!
03!
15!
09!
12!
16!
1*!
1$!
1x
1}
0s
1r
1d
0g
1h
1s
1Y
0V
1T
1U
1S
18
05
14
13
12
1V
15
#180000
0/
1!
0*
1,
00
0$
0&
0"
1.
0R
0Q
1P
1N
0L
0H
0F
0D
1C
1~
0y
0o
0e
0z
1p
1f
0`
0]
1.!
1/!
01!
05!
19!
10!
14!
18!
0*!
0$!
1w
1m
0d
1g
0h
1_
0c
1d
0g
1n
0x
1{
0}
1"!
0i
1Z
0Y
0S
1$!
19
08
02
0U
1W
1Y
18
16
04
0X
0T
07
03
1S
12
#190000
1/
0!
0,
1$
0.
1%
1+
1)
0(
1'
1Q
0P
0N
1M
1K
0J
1I
1G
1F
0C
0~
1o
1j
1a
0^
1!!
1t
0p
0f
1`
0/!
11!
15!
07!
0+!
1,!
0-!
02!
04!
1*!
0n
1q
0r
0_
1c
1&!
1(!
1x
0{
1|
0w
1i
0m
1n
0q
0x
0'!
0d
1g
1)!
0i
1l
0s
1X
1U
1[
0Z
0W
0(!
0n
1q
09
17
06
14
11
0Y
0U
1W
1s
08
16
04
0V
0X
0[
07
05
0W
01
06
1V
15
#200000
0/
1!
0%
0+
0)
1(
0'
1&
1"
1#
0Q
0M
0K
1J
0I
1H
0G
1E
1D
1C
1~
1y
1u
0j
1e
0a
1^
0!!
0t
0`
1/!
17!
1+!
0,!
1-!
00!
12!
06!
08!
0*!
1}
0"!
1n
0q
1r
1i
0l
1_
0c
0&!
1(!
0|
0}
1'!
1d
0g
0n
0$!
0)!
0i
1[
1Z
1X
1W
1T
0(!
11
19
17
16
13
0S
0W
1Y
0T
18
06
03
02
0X
0[
07
01
#210000
1/
0!
0(
0#
1,
1.
10
0-
1R
1Q
1P
0O
1N
0J
0E
0C
0~
0u
0^
1p
0k
1f
1`
1]
0.!
0/!
01!
13!
05!
1,!
16!
1*!
1$!
1x
0s
1v
1n
0r
1i
0d
1h
1c
1d
0i
1l
1s
0v
0x
1{
1}
1x
0{
0n
1q
0Y
1X
1W
0V
1U
1S
0s
1v
0}
08
17
16
05
14
12
0U
1V
0X
1Y
0x
1{
18
07
15
04
0W
1U
1T
1}
06
14
13
0T
0V
05
03
0U
04
1T
13
#220000
0,
0.
00
0$
1*
0R
0P
0N
1L
0F
0o
1z
0p
0f
0]
1.!
11!
15!
09!
14!
0}
1"!
1i
0l
0_
1n
0q
0$!
1%!
0'!
1s
0v
0Z
1X
0T
1)!
1x
0{
09
17
03
0S
1W
1}
0"!
16
02
1V
1$!
0%!
15
1U
1'!
14
1T
0)!
13
1S
12
#230000
1.
0*
0/
1(
1#
1)
1'
0&
0"
0Q
1P
0L
1K
1J
1I
0H
1E
0D
0y
1u
0e
1a
1^
1!!
0z
1f
0`
1/!
01!
19!
0+!
0,!
0-!
10!
06!
18!
0x
1_
0c
0$!
1&!
1(!
1m
0h
0i
0n
1q
0'!
0d
1)!
0s
1v
1[
0S
1Z
0U
0(!
1x
11
19
04
02
0Y
0W
0X
08
07
06
0V
0[
05
1U
01
14
#240000
0.
0(
0#
1&
1,
10
1-
1%
1+
1R
0P
1O
1N
1M
0J
1H
1G
0E
0u
1j
1e
0^
1t
1p
1k
0f
1]
0.!
11!
03!
05!
07!
1,!
00!
02!
16!
1|
1s
0v
1w
0m
1c
1d
1n
0q
0}
1"!
1$!
0s
1V
15
0T
1W
1Y
18
16
03
0V
1S
05
12
#250000
1.
0,
00
1/
0)
1"
0R
1Q
1P
0N
0K
1D
1y
0!!
0p
1f
1`
0]
1.!
0/!
01!
15!
1+!
08!
1}
0"!
0$!
1%!
0&!
1s
0w
1i
0d
1g
0_
0i
1l
0x
1$!
0%!
1'!
0n
1q
0Z
0Y
1X
1V
0S
1T
0)!
0s
1v
09
08
17
15
13
02
1S
0U
0X
1x
07
04
12
0W
06
0V
05
1U
14
#260000
1,
0/
0"
1#
0&
0%
1!
0Q
1N
0H
0G
1E
0D
1C
1~
0y
1u
0j
0e
1p
0`
1/!
05!
10!
12!
06!
18!
0*!
0$!
0}
1"!
0x
1{
0|
1n
0q
1r
1i
0l
1m
1s
0v
1w
1d
0g
0i
1$!
1Y
1V
1X
1W
0U
0T
0S
18
17
16
15
04
03
02
1S
0X
07
12
#270000
1/
1"
0!
1*
0'
1$
1Q
1L
0I
1F
1D
0C
0~
1y
1o
0a
1z
1`
0/!
09!
1-!
04!
08!
1*!
0$!
1%!
0s
1v
0w
1h
1i
0'!
1)!
0V
0S
05
02
1X
17
#280000
0/
0"
1'
0,
0.
1(
0Q
0P
0N
1J
1I
0D
0y
1a
1^
0p
0f
0`
1/!
11!
15!
0,!
0-!
18!
1}
0"!
1#!
1_
0c
1s
0v
0i
1l
0m
0h
1i
0l
1x
0{
0d
0}
0n
0X
1V
1Z
1T
19
07
15
13
0Y
1U
1X
08
17
14
0W
0T
06
03
#290000
1/
1"
1.
0(
1!
0*
0$
1%
1)
0+
1Q
1P
0M
0L
1K
0J
1G
0F
1D
1C
1~
1y
0o
1j
0^
1!!
0z
0t
1f
1`
0/!
01!
17!
19!
0+!
1,!
02!
14!
08!
0*!
0s
1v
1n
0r
0_
1c
0#!
0x
0i
1m
1d
0n
1q
1$!
0%!
0d
1g
1s
0v
1x
0x
1i
1'!
0s
1v
1Y
0X
0U
0Z
1W
0V
0)!
1x
09
18
07
16
05
04
1U
1V
0Y
1S
0W
08
06
15
14
12
0V
1X
0U
17
05
04
1U
14
#300000
0"
0.
1(
1+
1,
1&
10
1J
1H
0D
1R
0P
1N
1M
1t
1p
0f
1]
0y
1e
1^
0,!
00!
18!
0.!
11!
05!
07!
0x
1{
1s
0v
1w
1}
0m
1n
0q
0}
1"!
0$!
1%!
0s
1T
1V
0U
0'!
15
04
13
0T
1W
1)!
16
03
0V
0S
05
02
#310000
1.
0+
0&
00
1*
1$
0)
0'
0-
0R
1P
0O
0M
1L
0K
0I
0H
1F
1o
0e
0a
0!!
1z
0t
0k
1f
0]
1.!
01!
13!
17!
09!
1+!
1-!
10!
04!
1s
0w
1d
0g
1h
1$!
0%!
1(!
1}
0"!
1#!
1x
0{
0n
1m
1_
0c
0d
1n
0}
1'!
0x
0)!
1Z
0W
1U
1T
1[
1S
1Y
1V
0(!
19
18
06
15
14
13
12
11
0U
0T
1W
0Y
08
16
04
03
0[
01
#320000
10
0*
1)
1'
1-
0,
0%
0#
1R
1O
0N
0L
1K
1I
0G
0E
0u
0j
1a
1!!
0z
0p
1k
1]
0.!
03!
15!
19!
0+!
0-!
12!
16!
1x
1d
0h
0$!
1%!
1}
0#!
0s
1r
0_
1c
0d
1g
1s
1$!
0%!
0'!
0i
1)!
1'!
1i
0Z
0V
1T
0S
1Y
1U
0)!
09
18
05
14
13
02
0X
1S
1V
0Y
08
07
15
12
1X
17
#330000
0)
0'
0-
1%
1#
1+
1&
0O
1M
0K
0I
1H
1G
1E
1u
1j
1e
0a
0!!
1t
0k
13!
07!
1+!
1-!
00!
02!
06!
0i
1l
0m
1d
0g
1h
0$!
0r
0s
0S
1Y
0X
18
07
02
0V
05
#340000
1'
1-
0%
0&
1,
1"
0/
1I
0H
0G
1D
0Q
1O
1N
1p
1k
0`
1y
0j
0e
1a
0-!
10!
12!
08!
1/!
03!
05!
1s
0}
1r
1i
0l
1m
0h
0i
0s
1v
0x
1{
1X
0T
1V
1}
17
15
03
0V
0X
07
05
0U
04
1T
13
#350000
0'
0-
1%
0+
0.
0$
0(
0J
0I
1G
0F
0P
0O
0M
0t
0k
0f
0o
1j
0a
0^
1,!
1-!
02!
14!
11!
13!
17!
1x
0{
1i
0m
1s
0v
1w
0r
0d
1g
1_
0i
1l
0s
0n
0}
1n
1Z
0Y
1V
1X
1U
19
08
17
15
14
0T
0W
0V
0X
07
06
05
03
1W
16
#360000
1'
1-
1.
1$
1&
0,
0"
1)
1I
1H
1F
0D
1P
1O
0N
1K
1!!
0p
1k
1f
0y
1o
1e
1a
0-!
00!
04!
18!
01!
03!
15!
0+!
1$!
0n
1q
1}
0w
1d
0g
1i
0l
0x
1s
1n
0q
1Y
1T
0W
1S
0s
18
06
13
12
1V
0U
1X
17
15
04
1W
16
0V
05
#370000
0'
0&
1+
1(
0#
00
0!
1J
0I
0H
0E
0C
0R
1M
1t
0]
0~
0u
0e
0a
1^
0,!
1-!
10!
16!
1*!
1.!
07!
0$!
1&!
1(!
1|
0i
1m
0d
1g
0c
1d
0g
1i
0n
1q
0}
1"!
0'!
1)!
1$!
1s
0i
0Y
0X
1[
0S
0(!
08
07
02
11
0T
0W
1X
1Y
18
17
06
03
0X
1V
1S
0[
07
15
12
01
#380000
1'
0+
0.
1,
0%
1I
0G
0P
1N
0M
0t
1p
0f
0j
1a
0-!
12!
11!
05!
17!
1x
0|
0s
1v
1i
0m
1n
0q
1r
0d
0n
0x
1{
1}
0"!
0$!
0}
1"!
0Y
1W
1X
0V
1U
1$!
08
17
16
05
14
1T
0U
0W
06
04
13
0T
0S
03
02
1S
12
#390000
1.
1&
0(
10
1!
0-
0$
1R
1P
0O
0J
1H
0F
1C
1~
0o
1e
0^
0k
1f
1]
0.!
01!
13!
1,!
00!
14!
0*!
0$!
1%!
0&!
1s
0v
1w
1n
0r
1c
1d
0s
1W
1V
0S
16
15
02
0V
1Y
18
05
#400000
0&
1(
00
1$
1#
0)
1/
1J
0H
1F
1E
0R
1Q
0K
0!!
1`
0]
1u
1o
0e
1^
0,!
10!
04!
06!
1.!
0/!
1+!
1$!
0%!
1(!
0d
1g
1x
0{
1s
0w
0i
1m
0c
1d
0g
0n
1q
0x
1}
0"!
1i
1'!
0)!
0$!
0s
1v
0i
0X
1V
1U
0Y
1[
1S
0(!
1x
08
07
15
14
12
11
1X
1T
0U
0W
1Y
18
17
06
04
13
0X
0V
0S
0[
07
05
02
1U
01
14
#410000
1&
0(
0$
0#
0/
0!
1-
0'
1%
1"
1*
0J
0I
1H
1G
0F
0E
1D
0C
0Q
1O
1L
1z
1k
0`
0~
1y
0u
0o
1j
1e
0a
0^
1,!
1-!
00!
02!
14!
16!
08!
1*!
1/!
03!
09!
1$!
0x
1{
1s
0v
1w
1i
0m
0_
1c
0d
1g
1n
0q
0}
1"!
0$!
1%!
0s
0i
1l
0Z
1X
1V
0U
1S
0n
1q
0'!
09
17
15
04
12
0T
1W
0Y
1)!
1s
08
16
03
0X
0V
0S
07
05
02
0W
06
1V
15
#420000
0&
1#
1!
0-
1'
0%
0"
10
0.
1+
1I
0H
0G
1E
0D
1C
1R
0P
0O
1M
1t
0k
0f
1]
1~
0y
1u
0j
0e
1a
0-!
10!
12!
06!
18!
0*!
0.!
11!
13!
07!
1_
1$!
0%!
1(!
1}
0"!
1#!
1d
0g
1i
0l
1'!
0)!
1n
0q
1Y
1T
1[
1S
1Z
0(!
0s
19
18
13
12
11
1X
17
1W
0[
16
0V
01
05
#430000
0#
0'
00
1.
0+
1$
1/
1)
0,
0I
1F
0E
0R
1Q
1P
0N
0M
1K
1!!
0t
0p
1f
1`
0]
0u
1o
0a
1-!
04!
16!
1.!
0/!
01!
15!
17!
0+!
0$!
1%!
0i
1m
0_
0w
1h
1i
1x
0{
0n
1q
0'!
1)!
1s
0}
0Z
0X
0S
09
07
02
0W
1U
1X
17
06
14
0T
1V
15
03
#440000
1'
10
0.
1+
0$
0/
1&
0!
1%
1"
1(
0*
1J
1I
1H
1G
0F
1D
0C
1R
0Q
0P
1M
0L
0z
1t
0f
0`
1]
0~
1y
0o
1j
1e
1a
1^
0,!
0-!
00!
02!
14!
08!
1*!
0.!
1/!
11!
07!
19!
0x
1|
1$!
0%!
1&!
0#!
0s
1v
1n
0q
0m
0h
0i
0n
1s
0v
1x
0$!
1}
0x
1W
0V
1S
0U
16
05
04
12
1T
0S
1U
1V
0W
0X
07
06
15
14
13
02
0U
04
#450000
1.
0+
1/
0&
1!
0%
0(
1-
1Q
1P
1O
0M
0J
0H
0G
1C
1~
0j
0e
0^
0t
1k
1f
1`
0/!
01!
03!
17!
1,!
10!
12!
0*!
1$!
0&!
1_
1x
0|
1r
1m
0d
1g
1i
1n
0s
1v
0}
1'!
0)!
0x
1{
0Y
1U
1Z
1S
1}
19
08
14
12
0T
0V
1W
1X
17
16
05
03
0U
04
1T
13
#460000
0.
1(
00
0"
1*
0)
0R
0P
1L
0K
1J
0D
0y
1^
0!!
1z
0f
0]
1.!
11!
09!
1+!
0,!
18!
0$!
1#!
0i
1l
0m
0c
1d
0g
1$!
1i
0l
0X
0S
0n
07
02
1S
1Y
18
12
1X
17
0W
06
#470000
0(
1"
0*
1+
0!
1%
0-
1$
1#
1,
0J
1G
1F
1E
1D
0C
0O
1N
1M
0L
0z
1t
1p
0k
0~
1y
1u
1o
1j
0^
1,!
02!
04!
06!
08!
1*!
13!
05!
07!
19!
0$!
1%!
0#!
0r
0_
1c
0d
1g
1s
0v
1$!
0%!
0'!
1)!
1'!
1x
0{
0i
1l
0Z
0S
0)!
1n
0}
09
02
1S
1V
0Y
08
15
12
0X
1U
07
14
0T
1W
16
03
#480000
0"
1*
0+
1!
0$
0#
0,
0/
1&
0'
0I
1H
0F
0E
0D
1C
0Q
0N
0M
1L
1z
0t
0p
0`
1~
0y
0u
0o
1e
0a
1-!
00!
14!
16!
18!
0*!
1/!
15!
17!
09!
0$!
1#!
1i
0l
0n
1$!
1X
0S
17
02
1S
0W
06
12
#490000
0*
0!
1#
1,
1/
1(
1.
1)
1Q
1P
1N
0L
1K
1J
1E
0C
0~
1u
1^
1!!
0z
1p
1f
1`
0/!
01!
05!
19!
0+!
0,!
06!
1*!
0x
1_
0c
1&!
1(!
1}
0#!
0s
1w
0i
1l
1d
0g
1h
1n
1x
0$!
0'!
0d
1)!
1Y
0X
0V
1T
1[
1Z
0U
0(!
19
18
07
05
04
13
11
0Y
0S
1U
1W
08
16
14
02
0[
01
#500000
0(
0.
1$
0%
1-
10
0J
0G
1F
1R
0P
1O
1k
0f
1]
1o
0j
0^
1,!
12!
04!
0.!
11!
03!
1i
0l
1s
0w
1r
1c
1d
0s
1v
0x
0n
1x
1V
1X
17
15
0W
0U
0V
1Y
18
06
05
04
1U
14
#510000
1(
1.
00
0,
0/
1+
0&
1J
0H
0R
0Q
1P
0N
1M
1t
0p
1f
0`
0]
0e
1^
0,!
10!
1.!
1/!
01!
15!
07!
0x
1{
1s
0v
0d
1g
0h
1m
0c
1d
0g
1n
1x
0{
0}
1"!
1$!
1}
0"!
0i
0Y
1V
0U
0$!
08
15
04
0T
1U
1W
1Y
18
16
14
03
0X
1T
1S
07
13
12
0S
02
#520000
0.
10
1/
1%
1*
0#
1'
1R
1Q
0P
1L
1I
1G
0E
0u
1j
1a
1z
0f
1`
1]
0.!
0/!
11!
09!
0-!
02!
16!
0x
1|
0n
1q
0r
0}
1#!
1i
0m
0_
1c
0d
1g
1n
0q
1$!
1}
0s
0i
1l
0Z
1X
0T
0W
0U
0n
1q
09
17
06
04
03
1T
1S
1W
0Y
1s
08
16
13
12
0X
0V
07
05
0W
06
1V
15
#530000
0%
0*
1#
0'
0+
1&
0)
1"
0I
1H
0G
1E
1D
0M
0L
0K
0!!
0z
0t
1y
1u
0j
1e
0a
1-!
00!
12!
06!
08!
17!
19!
1+!
0$!
1%!
0&!
0#!
0|
1n
0q
1r
1i
0l
1d
0g
1h
0n
0}
1$!
0%!
1'!
1Y
1X
1W
0S
0)!
18
17
16
02
1S
0T
0W
06
03
12
#540000
1)
0"
1.
00
1,
0-
1!
0R
1P
0O
1N
1K
0D
1C
1~
0y
1!!
1p
0k
1f
0]
1.!
01!
13!
05!
0+!
18!
0*!
1}
0s
1v
1n
0r
0i
1l
1_
0c
0d
0n
1q
1s
0v
1x
0x
0s
1v
1Z
0X
1W
0V
1T
1x
19
07
16
05
13
1U
1V
0W
0Y
08
06
15
14
0V
0U
05
04
1U
14
#550000
0)
0.
0,
0!
1+
0&
0(
0$
0P
0N
1M
0K
0J
0H
0F
0C
0~
0o
0e
0^
0!!
1t
0p
0f
11!
15!
07!
1+!
1,!
10!
14!
1*!
0_
1c
0x
1{
0}
1"!
1d
0$!
1%!
0U
0Z
0'!
09
04
1Y
0T
1)!
18
03
0S
02
#560000
1)
1.
0+
1&
1"
10
1%
1'
0/
1R
0Q
1P
0M
1K
1I
1H
1G
1D
1y
1j
1e
1a
1!!
0t
1f
0`
1]
0.!
1/!
01!
17!
0+!
0-!
00!
02!
08!
1}
0"!
1n
0q
1$!
0%!
1&!
1x
0{
0h
1_
1i
0l
0}
1s
0v
0$!
0x
0n
1Z
1U
1S
1W
1T
19
16
14
13
12
0S
1V
0T
1X
17
15
03
02
0W
0U
06
04
