VHDL TEST/multiplicador8bits/simulation/qsim/multiplicador8bits.msim.vcd
$comment
	File created using the following command:
		vcd file multiplicador8bits.msim.vcd -direction
$end
$date
	Mon Nov 18 14:40:35 2024
$end
$version
	ModelSim Version 2020.1
$end
$timescale
	1ps
$end

$scope module multiplicador8bits_vhd_vec_tst $end
$var wire 1 ! A [7] $end
$var wire 1 " A [6] $end
$var wire 1 # A [5] $end
$var wire 1 $ A [4] $end
$var wire 1 % A [3] $end
$var wire 1 & A [2] $end
$var wire 1 ' A [1] $end
$var wire 1 ( A [0] $end
$var wire 1 ) B [7] $end
$var wire 1 * B [6] $end
$var wire 1 + B [5] $end
$var wire 1 , B [4] $end
$var wire 1 - B [3] $end
$var wire 1 . B [2] $end
$var wire 1 / B [1] $end
$var wire 1 0 B [0] $end
$var wire 1 1 en $end
$var wire 1 2 final $end
$var wire 1 3 producto [15] $end
$var wire 1 4 producto [14] $end
$var wire 1 5 producto [13] $end
$var wire 1 6 producto [12] $end
$var wire 1 7 producto [11] $end
$var wire 1 8 producto [10] $end
$var wire 1 9 producto [9] $end
$var wire 1 : producto [8] $end
$var wire 1 ; producto [7] $end
$var wire 1 < producto [6] $end
$var wire 1 = producto [5] $end
$var wire 1 > producto [4] $end
$var wire 1 ? producto [3] $end
$var wire 1 @ producto [2] $end
$var wire 1 A producto [1] $end
$var wire 1 B producto [0] $end

$scope module i1 $end
$var wire 1 C gnd $end
$var wire 1 D vcc $end
$var wire 1 E unknown $end
$var wire 1 F devoe $end
$var wire 1 G devclrn $end
$var wire 1 H devpor $end
$var wire 1 I ww_devoe $end
$var wire 1 J ww_devclrn $end
$var wire 1 K ww_devpor $end
$var wire 1 L ww_A [7] $end
$var wire 1 M ww_A [6] $end
$var wire 1 N ww_A [5] $end
$var wire 1 O ww_A [4] $end
$var wire 1 P ww_A [3] $end
$var wire 1 Q ww_A [2] $end
$var wire 1 R ww_A [1] $end
$var wire 1 S ww_A [0] $end
$var wire 1 T ww_B [7] $end
$var wire 1 U ww_B [6] $end
$var wire 1 V ww_B [5] $end
$var wire 1 W ww_B [4] $end
$var wire 1 X ww_B [3] $end
$var wire 1 Y ww_B [2] $end
$var wire 1 Z ww_B [1] $end
$var wire 1 [ ww_B [0] $end
$var wire 1 \ ww_en $end
$var wire 1 ] ww_final $end
$var wire 1 ^ ww_producto [15] $end
$var wire 1 _ ww_producto [14] $end
$var wire 1 ` ww_producto [13] $end
$var wire 1 a ww_producto [12] $end
$var wire 1 b ww_producto [11] $end
$var wire 1 c ww_producto [10] $end
$var wire 1 d ww_producto [9] $end
$var wire 1 e ww_producto [8] $end
$var wire 1 f ww_producto [7] $end
$var wire 1 g ww_producto [6] $end
$var wire 1 h ww_producto [5] $end
$var wire 1 i ww_producto [4] $end
$var wire 1 j ww_producto [3] $end
$var wire 1 k ww_producto [2] $end
$var wire 1 l ww_producto [1] $end
$var wire 1 m ww_producto [0] $end
$var wire 1 n \Mult0~8_AX_bus\ [7] $end
$var wire 1 o \Mult0~8_AX_bus\ [6] $end
$var wire 1 p \Mult0~8_AX_bus\ [5] $end
$var wire 1 q \Mult0~8_AX_bus\ [4] $end
$var wire 1 r \Mult0~8_AX_bus\ [3] $end
$var wire 1 s \Mult0~8_AX_bus\ [2] $end
$var wire 1 t \Mult0~8_AX_bus\ [1] $end
$var wire 1 u \Mult0~8_AX_bus\ [0] $end
$var wire 1 v \Mult0~8_AY_bus\ [7] $end
$var wire 1 w \Mult0~8_AY_bus\ [6] $end
$var wire 1 x \Mult0~8_AY_bus\ [5] $end
$var wire 1 y \Mult0~8_AY_bus\ [4] $end
$var wire 1 z \Mult0~8_AY_bus\ [3] $end
$var wire 1 { \Mult0~8_AY_bus\ [2] $end
$var wire 1 | \Mult0~8_AY_bus\ [1] $end
$var wire 1 } \Mult0~8_AY_bus\ [0] $end
$var wire 1 ~ \Mult0~8_RESULTA_bus\ [63] $end
$var wire 1 !! \Mult0~8_RESULTA_bus\ [62] $end
$var wire 1 "! \Mult0~8_RESULTA_bus\ [61] $end
$var wire 1 #! \Mult0~8_RESULTA_bus\ [60] $end
$var wire 1 $! \Mult0~8_RESULTA_bus\ [59] $end
$var wire 1 %! \Mult0~8_RESULTA_bus\ [58] $end
$var wire 1 &! \Mult0~8_RESULTA_bus\ [57] $end
$var wire 1 '! \Mult0~8_RESULTA_bus\ [56] $end
$var wire 1 (! \Mult0~8_RESULTA_bus\ [55] $end
$var wire 1 )! \Mult0~8_RESULTA_bus\ [54] $end
$var wire 1 *! \Mult0~8_RESULTA_bus\ [53] $end
$var wire 1 +! \Mult0~8_RESULTA_bus\ [52] $end
$var wire 1 ,! \Mult0~8_RESULTA_bus\ [51] $end
$var wire 1 -! \Mult0~8_RESULTA_bus\ [50] $end
$var wire 1 .! \Mult0~8_RESULTA_bus\ [49] $end
$var wire 1 /! \Mult0~8_RESULTA_bus\ [48] $end
$var wire 1 0! \Mult0~8_RESULTA_bus\ [47] $end
$var wire 1 1! \Mult0~8_RESULTA_bus\ [46] $end
$var wire 1 2! \Mult0~8_RESULTA_bus\ [45] $end
$var wire 1 3! \Mult0~8_RESULTA_bus\ [44] $end
$var wire 1 4! \Mult0~8_RESULTA_bus\ [43] $end
$var wire 1 5! \Mult0~8_RESULTA_bus\ [42] $end
$var wire 1 6! \Mult0~8_RESULTA_bus\ [41] $end
$var wire 1 7! \Mult0~8_RESULTA_bus\ [40] $end
$var wire 1 8! \Mult0~8_RESULTA_bus\ [39] $end
$var wire 1 9! \Mult0~8_RESULTA_bus\ [38] $end
$var wire 1 :! \Mult0~8_RESULTA_bus\ [37] $end
$var wire 1 ;! \Mult0~8_RESULTA_bus\ [36] $end
$var wire 1 <! \Mult0~8_RESULTA_bus\ [35] $end
$var wire 1 =! \Mult0~8_RESULTA_bus\ [34] $end
$var wire 1 >! \Mult0~8_RESULTA_bus\ [33] $end
$var wire 1 ?! \Mult0~8_RESULTA_bus\ [32] $end
$var wire 1 @! \Mult0~8_RESULTA_bus\ [31] $end
$var wire 1 A! \Mult0~8_RESULTA_bus\ [30] $end
$var wire 1 B! \Mult0~8_RESULTA_bus\ [29] $end
$var wire 1 C! \Mult0~8_RESULTA_bus\ [28] $end
$var wire 1 D! \Mult0~8_RESULTA_bus\ [27] $end
$var wire 1 E! \Mult0~8_RESULTA_bus\ [26] $end
$var wire 1 F! \Mult0~8_RESULTA_bus\ [25] $end
$var wire 1 G! \Mult0~8_RESULTA_bus\ [24] $end
$var wire 1 H! \Mult0~8_RESULTA_bus\ [23] $end
$var wire 1 I! \Mult0~8_RESULTA_bus\ [22] $end
$var wire 1 J! \Mult0~8_RESULTA_bus\ [21] $end
$var wire 1 K! \Mult0~8_RESULTA_bus\ [20] $end
$var wire 1 L! \Mult0~8_RESULTA_bus\ [19] $end
$var wire 1 M! \Mult0~8_RESULTA_bus\ [18] $end
$var wire 1 N! \Mult0~8_RESULTA_bus\ [17] $end
$var wire 1 O! \Mult0~8_RESULTA_bus\ [16] $end
$var wire 1 P! \Mult0~8_RESULTA_bus\ [15] $end
$var wire 1 Q! \Mult0~8_RESULTA_bus\ [14] $end
$var wire 1 R! \Mult0~8_RESULTA_bus\ [13] $end
$var wire 1 S! \Mult0~8_RESULTA_bus\ [12] $end
$var wire 1 T! \Mult0~8_RESULTA_bus\ [11] $end
$var wire 1 U! \Mult0~8_RESULTA_bus\ [10] $end
$var wire 1 V! \Mult0~8_RESULTA_bus\ [9] $end
$var wire 1 W! \Mult0~8_RESULTA_bus\ [8] $end
$var wire 1 X! \Mult0~8_RESULTA_bus\ [7] $end
$var wire 1 Y! \Mult0~8_RESULTA_bus\ [6] $end
$var wire 1 Z! \Mult0~8_RESULTA_bus\ [5] $end
$var wire 1 [! \Mult0~8_RESULTA_bus\ [4] $end
$var wire 1 \! \Mult0~8_RESULTA_bus\ [3] $end
$var wire 1 ]! \Mult0~8_RESULTA_bus\ [2] $end
$var wire 1 ^! \Mult0~8_RESULTA_bus\ [1] $end
$var wire 1 _! \Mult0~8_RESULTA_bus\ [0] $end
$var wire 1 `! \Mult0~24\ $end
$var wire 1 a! \Mult0~25\ $end
$var wire 1 b! \Mult0~26\ $end
$var wire 1 c! \Mult0~27\ $end
$var wire 1 d! \Mult0~28\ $end
$var wire 1 e! \Mult0~29\ $end
$var wire 1 f! \Mult0~30\ $end
$var wire 1 g! \Mult0~31\ $end
$var wire 1 h! \Mult0~32\ $end
$var wire 1 i! \Mult0~33\ $end
$var wire 1 j! \Mult0~34\ $end
$var wire 1 k! \Mult0~35\ $end
$var wire 1 l! \Mult0~36\ $end
$var wire 1 m! \Mult0~37\ $end
$var wire 1 n! \Mult0~38\ $end
$var wire 1 o! \Mult0~39\ $end
$var wire 1 p! \Mult0~40\ $end
$var wire 1 q! \Mult0~41\ $end
$var wire 1 r! \Mult0~42\ $end
$var wire 1 s! \Mult0~43\ $end
$var wire 1 t! \Mult0~44\ $end
$var wire 1 u! \Mult0~45\ $end
$var wire 1 v! \Mult0~46\ $end
$var wire 1 w! \Mult0~47\ $end
$var wire 1 x! \Mult0~48\ $end
$var wire 1 y! \Mult0~49\ $end
$var wire 1 z! \Mult0~50\ $end
$var wire 1 {! \Mult0~51\ $end
$var wire 1 |! \Mult0~52\ $end
$var wire 1 }! \Mult0~53\ $end
$var wire 1 ~! \Mult0~54\ $end
$var wire 1 !" \Mult0~55\ $end
$var wire 1 "" \Mult0~56\ $end
$var wire 1 #" \Mult0~57\ $end
$var wire 1 $" \Mult0~58\ $end
$var wire 1 %" \Mult0~59\ $end
$var wire 1 &" \Mult0~60\ $end
$var wire 1 '" \Mult0~61\ $end
$var wire 1 (" \Mult0~62\ $end
$var wire 1 )" \Mult0~63\ $end
$var wire 1 *" \Mult0~64\ $end
$var wire 1 +" \Mult0~65\ $end
$var wire 1 ," \Mult0~66\ $end
$var wire 1 -" \Mult0~67\ $end
$var wire 1 ." \Mult0~68\ $end
$var wire 1 /" \Mult0~69\ $end
$var wire 1 0" \Mult0~70\ $end
$var wire 1 1" \Mult0~71\ $end
$var wire 1 2" \~QUARTUS_CREATED_GND~I_combout\ $end
$var wire 1 3" \en~input_o\ $end
$var wire 1 4" \A[0]~input_o\ $end
$var wire 1 5" \A[1]~input_o\ $end
$var wire 1 6" \A[2]~input_o\ $end
$var wire 1 7" \A[3]~input_o\ $end
$var wire 1 8" \A[4]~input_o\ $end
$var wire 1 9" \A[5]~input_o\ $end
$var wire 1 :" \A[6]~input_o\ $end
$var wire 1 ;" \A[7]~input_o\ $end
$var wire 1 <" \B[0]~input_o\ $end
$var wire 1 =" \B[1]~input_o\ $end
$var wire 1 >" \B[2]~input_o\ $end
$var wire 1 ?" \B[3]~input_o\ $end
$var wire 1 @" \B[4]~input_o\ $end
$var wire 1 A" \B[5]~input_o\ $end
$var wire 1 B" \B[6]~input_o\ $end
$var wire 1 C" \B[7]~input_o\ $end
$var wire 1 D" \Mult0~8_resulta\ $end
$var wire 1 E" \producto~0_combout\ $end
$var wire 1 F" \Mult0~9\ $end
$var wire 1 G" \producto~1_combout\ $end
$var wire 1 H" \Mult0~10\ $end
$var wire 1 I" \producto~2_combout\ $end
$var wire 1 J" \Mult0~11\ $end
$var wire 1 K" \producto~3_combout\ $end
$var wire 1 L" \Mult0~12\ $end
$var wire 1 M" \producto~4_combout\ $end
$var wire 1 N" \Mult0~13\ $end
$var wire 1 O" \producto~5_combout\ $end
$var wire 1 P" \Mult0~14\ $end
$var wire 1 Q" \producto~6_combout\ $end
$var wire 1 R" \Mult0~15\ $end
$var wire 1 S" \producto~7_combout\ $end
$var wire 1 T" \Mult0~16\ $end
$var wire 1 U" \producto~8_combout\ $end
$var wire 1 V" \Mult0~17\ $end
$var wire 1 W" \producto~9_combout\ $end
$var wire 1 X" \Mult0~18\ $end
$var wire 1 Y" \producto~10_combout\ $end
$var wire 1 Z" \Mult0~19\ $end
$var wire 1 [" \producto~11_combout\ $end
$var wire 1 \" \Mult0~20\ $end
$var wire 1 ]" \producto~12_combout\ $end
$var wire 1 ^" \Mult0~21\ $end
$var wire 1 _" \producto~13_combout\ $end
$var wire 1 `" \Mult0~22\ $end
$var wire 1 a" \producto~14_combout\ $end
$var wire 1 b" \Mult0~23\ $end
$var wire 1 c" \producto~15_combout\ $end
$var wire 1 d" \ALT_INV_en~input_o\ $end
$var wire 1 e" \ALT_INV_Mult0~23\ $end
$var wire 1 f" \ALT_INV_Mult0~22\ $end
$var wire 1 g" \ALT_INV_Mult0~21\ $end
$var wire 1 h" \ALT_INV_Mult0~20\ $end
$var wire 1 i" \ALT_INV_Mult0~19\ $end
$var wire 1 j" \ALT_INV_Mult0~18\ $end
$var wire 1 k" \ALT_INV_Mult0~17\ $end
$var wire 1 l" \ALT_INV_Mult0~16\ $end
$var wire 1 m" \ALT_INV_Mult0~15\ $end
$var wire 1 n" \ALT_INV_Mult0~14\ $end
$var wire 1 o" \ALT_INV_Mult0~13\ $end
$var wire 1 p" \ALT_INV_Mult0~12\ $end
$var wire 1 q" \ALT_INV_Mult0~11\ $end
$var wire 1 r" \ALT_INV_Mult0~10\ $end
$var wire 1 s" \ALT_INV_Mult0~9\ $end
$var wire 1 t" \ALT_INV_Mult0~8_resulta\ $end
$upscope $end
$upscope $end
$enddefinitions $end
#0
$dumpvars
11
12
0C
1D
xE
1F
1G
1H
1I
1J
1K
1\
1]
0`!
0a!
0b!
0c!
0d!
0e!
0f!
0g!
0h!
0i!
0j!
0k!
0l!
0m!
0n!
0o!
0p!
0q!
0r!
0s!
0t!
0u!
0v!
0w!
0x!
0y!
0z!
0{!
0|!
0}!
0~!
0!"
0""
0#"
0$"
0%"
0&"
0'"
0("
0)"
0*"
0+"
0,"
0-"
0."
0/"
00"
01"
x2"
13"
14"
05"
06"
17"
08"
09"
0:"
1;"
1<"
0="
1>"
0?"
1@"
0A"
1B"
0C"
1D"
1E"
0F"
0G"
1H"
1I"
1J"
1K"
1L"
1M"
1N"
1O"
1P"
1Q"
0R"
0S"
1T"
1U"
0V"
0W"
1X"
1Y"
1Z"
1["
0\"
0]"
1^"
1_"
0`"
0a"
0b"
0c"
0d"
1e"
1f"
0g"
1h"
0i"
0j"
1k"
0l"
1m"
0n"
0o"
0p"
0q"
0r"
1s"
0t"
1!
0"
0#
0$
1%
0&
0'
1(
0)
1*
0+
1,
0-
1.
0/
10
1L
0M
0N
0O
1P
0Q
0R
1S
0T
1U
0V
1W
0X
1Y
0Z
1[
0^
0_
1`
0a
1b
1c
0d
1e
0f
1g
1h
1i
1j
1k
0l
1m
0~
0!!
0"!
0#!
0$!
0%!
0&!
0'!
0(!
0)!
0*!
0+!
0,!
0-!
0.!
0/!
00!
01!
02!
03!
04!
05!
06!
07!
08!
09!
0:!
0;!
0<!
0=!
0>!
0?!
0@!
0A!
0B!
0C!
0D!
0E!
0F!
0G!
0H!
0I!
0J!
0K!
0L!
0M!
0N!
0O!
0P!
0Q!
1R!
0S!
1T!
1U!
0V!
1W!
0X!
1Y!
1Z!
1[!
1\!
1]!
0^!
1_!
1n
0o
0p
0q
1r
0s
0t
1u
0v
1w
0x
1y
0z
1{
0|
1}
03
04
15
06
17
18
09
1:
0;
1<
1=
1>
1?
1@
0A
1B
$end
#10000
1#
1$
0%
1&
1)
0*
1-
1/
00
1Q
0P
1O
1N
0[
1Z
1X
0U
1T
1C"
0B"
1?"
1="
0<"
19"
18"
07"
16"
0}
1|
1z
0w
1v
1s
0r
1q
1p
1S!
0W!
0Y!
0Z!
0]!
1Q!
0S!
1V!
1W!
1X!
1Z!
0\!
1]!
1^!
0_!
0P"
1`"
1V"
1R"
0J"
1F"
0D"
1t"
0s"
1q"
0m"
0k"
0f"
1n"
0Q"
1a"
1W"
1S"
0K"
1G"
0E"
0m
1l
0j
1f
1d
1_
0g
0B
1A
0?
0<
1;
19
14
#20000
0#
0$
0)
1*
0-
0/
0!
1"
1'
0,
0.
01
1R
0O
0N
1M
0L
0Z
0Y
0X
0W
1U
0T
0\
03"
0C"
1B"
0@"
0?"
0>"
0="
0;"
1:"
09"
08"
15"
1d"
0|
0{
0z
0y
1w
0v
1t
0q
0p
1o
0n
0Q!
0U!
1Y!
0Z!
0]!
0R!
1S!
0T!
0V!
0[!
0^!
0`"
0X"
1P"
0N"
0H"
0^"
1\"
0Z"
0V"
0L"
0F"
1s"
1p"
1k"
1i"
0h"
1g"
1r"
1o"
0n"
1j"
1f"
0G"
0I"
0M"
0O"
0S"
0U"
0W"
0Y"
0["
0_"
0a"
0]
02
0_
0`
0b
0c
0d
0e
0f
0h
0i
0k
0l
0A
0@
0>
0=
0;
0:
09
08
07
05
04
#30000
1#
1$
1)
1-
1/
1.
0&
0(
1+
0S
0Q
1O
1N
1Z
1Y
1X
1V
1T
1C"
1A"
1?"
1>"
1="
19"
18"
06"
04"
1|
1{
1z
1x
1v
0u
0s
1q
1p
1T!
1U!
0W!
0Y!
1Q!
1R!
0S!
0U!
1W!
1Y!
1Z!
1[!
1\!
1]!
1Z"
1`"
1^"
0\"
1N"
1L"
1J"
1H"
0r"
0q"
0p"
0o"
1h"
0g"
0f"
0i"
#40000
0)
0-
1&
1(
1!
0"
1%
10
1[
0X
0T
1S
1Q
1P
0M
1L
1;"
0:"
17"
16"
14"
0C"
0?"
1<"
1u
1s
1r
0o
1n
1}
0z
0v
1P!
0Q!
1S!
0T!
0Y!
0Z!
0\!
0]!
1^!
0P!
1Q!
0R!
0S!
1T!
1U!
0W!
1Y!
1\!
0^!
1_!
0N"
0H"
0^"
1X"
0T"
1D"
0t"
1l"
0j"
1g"
1r"
1o"
#50000
1-
0&
1"
0$
0'
1,
1X
1W
0R
0Q
0O
1M
1:"
08"
06"
05"
1@"
1?"
0t
0s
0q
1o
1z
1y
1S!
1W!
0Y!
1Z!
1]!
1^!
1R!
0T!
0U!
1V!
0Z!
0\!
1\"
1T"
0P"
1H"
1F"
1^"
0Z"
0X"
1V"
0J"
1q"
0k"
1j"
1i"
0g"
0s"
0r"
1n"
0l"
0h"
#60000
0-
1&
0"
1'
0,
0!
00
0*
0[
0X
0W
0U
1R
1Q
0M
0L
0;"
0:"
16"
15"
0B"
0@"
0?"
0<"
1t
1s
0o
0n
0}
0z
0y
0w
0Q!
0R!
1U!
0X!
1Y!
0]!
0^!
0S!
0W!
1X!
1Z!
1\!
1^!
0_!
0`"
0^"
1X"
1P"
0H"
0\"
0T"
1N"
1J"
0D"
1t"
0q"
0o"
1l"
1h"
1r"
0n"
0j"
1g"
1f"
#70000
0&
0'
1*
1$
1)
0(
0%
0/
0.
0S
0R
0Q
0P
1O
0Z
0Y
1U
1T
1C"
1B"
0>"
0="
18"
07"
06"
05"
04"
0|
0{
1w
1v
0u
0t
0s
0r
1q
1W!
0X!
0Y!
0[!
0\!
0^!
1R!
1T!
0U!
0W!
0Z!
0R"
0P"
0L"
0J"
0F"
1^"
1Z"
0X"
0N"
1o"
1j"
0i"
0g"
1s"
1q"
1p"
1n"
1m"
#80000
1&
1'
0$
0)
1/
1.
1-
1"
10
1R
1Q
0O
1M
1[
1Z
1Y
1X
0T
0C"
1?"
1>"
1="
1<"
1:"
08"
16"
15"
1}
1|
1{
1z
0v
1t
1s
0q
1o
1Q!
0R!
1S!
0V!
1W!
1Y!
0Q!
1R!
0S!
1U!
0W!
0Y!
1Z!
1[!
1\!
1^!
0V"
1X"
1N"
1L"
1J"
1F"
0s"
0q"
0p"
0o"
0j"
1k"
#90000
1$
0-
0"
1(
1%
0#
1S
1P
1O
0N
0M
0X
0?"
0:"
09"
18"
17"
14"
0z
1u
1r
1q
0p
0o
0R!
1W!
1Y!
0\!
0^!
1_!
0W!
1\!
0^"
1P"
0F"
1D"
0t"
1s"
0n"
1g"
#100000
0$
1-
1"
0%
0&
0.
00
0*
1,
0Q
0P
0O
1M
0[
0Y
1X
1W
0U
0B"
1@"
1?"
0>"
0<"
1:"
08"
07"
06"
0}
0{
1z
1y
0w
0s
0r
0q
1o
1S!
0U!
1V!
1X!
0\!
1]!
0S!
1U!
1W!
0X!
0Y!
0[!
1\!
1^!
0_!
1V"
1H"
1T"
0P"
0L"
1F"
0D"
1t"
0s"
1p"
1n"
0l"
0r"
0k"
#110000
1%
1&
1*
0'
1!
0+
0R
1Q
1P
1L
0V
1U
1B"
0A"
1;"
17"
16"
05"
0x
1w
0t
1s
1r
1n
1R!
0W!
1Y!
1[!
0\!
0]!
1Q!
0R!
0U!
0V!
0Y!
0Z!
0T"
1L"
0J"
0H"
1`"
0X"
0V"
0N"
1o"
1k"
1j"
0f"
1r"
1q"
0p"
1l"
#120000
0%
0&
0!
1+
1.
1)
0/
0Q
0P
0L
0Z
1Y
1V
1T
1C"
1A"
1>"
0="
0;"
07"
06"
0|
1{
1x
1v
0s
0r
0n
0Q!
1S!
0T!
1U!
1V!
1X!
1Y!
1\!
1R!
1T!
1W!
1Z!
1]!
0^!
0`"
1\"
1X"
1V"
1R"
1P"
1J"
1^"
1T"
1N"
1H"
0F"
1s"
0r"
0o"
0l"
0g"
0q"
0n"
0m"
0k"
0j"
0h"
1f"
#130000
1%
1!
0+
0.
0"
0,
1#
1P
1N
0M
1L
0Y
0W
0V
0A"
0@"
0>"
1;"
0:"
19"
17"
0{
0y
0x
1r
1p
0o
1n
1P!
0S!
0T!
0W!
0X!
0Z!
0R!
0V!
0Y!
0[!
0]!
1b"
0\"
0Z"
0T"
0R"
0N"
0^"
0V"
0P"
0L"
0H"
1r"
1p"
1n"
1k"
1g"
1o"
1m"
1l"
1i"
1h"
0e"
#140000
0%
0!
1.
1"
1,
0*
1'
0(
0S
1R
0P
1M
0L
1Y
1W
0U
0B"
1@"
1>"
0;"
1:"
07"
15"
04"
1{
1y
0w
0u
1t
0r
1o
0n
0P!
1Q!
1T!
1X!
1[!
0\!
0Q!
1R!
1S!
0U!
1V!
1W!
1Z!
1\!
0b"
1Z"
1R"
1L"
1^"
1\"
0X"
1V"
1T"
1N"
0o"
0l"
0k"
1j"
0h"
0g"
0p"
0m"
0i"
1e"
#150000
1*
0)
1$
10
1[
1U
0T
1O
18"
0C"
1B"
1<"
1q
1}
1w
0v
1Q!
0R!
0S!
0T!
1U!
0V!
0X!
1Y!
0Q!
1R!
1T!
0U!
0[!
1^!
0\"
0V"
0R"
1P"
0L"
1F"
0s"
1p"
0n"
1m"
1k"
1h"
#160000
1)
0$
00
0.
0"
0'
1(
0-
0[
0Y
0X
1T
1S
0R
0O
0M
0:"
08"
05"
14"
1C"
0?"
0>"
0<"
1u
0t
0q
0o
0}
0{
0z
1v
0R!
1V!
1X!
1[!
1]!
0^!
1_!
1S!
0W!
0Z!
0\!
0]!
0_!
0^"
1V"
1R"
1L"
0F"
1\"
0T"
0N"
0J"
1q"
1o"
1l"
0h"
1s"
0p"
0m"
0k"
1g"
#170000
0)
1$
10
1"
0(
1+
1&
1[
1V
0T
0S
1Q
1O
1M
1:"
18"
16"
04"
0C"
1A"
1<"
0u
1s
1q
1o
1}
1x
0v
1Q!
1U!
0X!
0[!
0Q!
1R!
0T!
0U!
1W!
0Y!
1Z!
1[!
1]!
0R"
1^"
0Z"
1T"
0P"
1N"
1H"
0r"
0o"
1n"
0l"
1i"
0g"
1m"
#180000
0$
00
0+
1'
1-
1%
1!
0#
1R
1P
0O
0N
1L
0[
1X
0V
0A"
1?"
0<"
1;"
09"
08"
17"
15"
0}
1z
0x
1t
1r
0q
0p
1n
1Q!
0R!
1T!
0W!
1X!
1Y!
0[!
1\!
1^!
0S!
0T!
1U!
0Z!
1[!
0\!
0]!
0^!
1`"
0^"
0T"
1R"
1P"
0\"
1X"
0N"
0H"
1r"
1o"
0j"
1h"
0n"
0m"
1l"
1g"
0f"
#190000
10
1+
0'
1(
0*
1[
1V
0U
1S
0R
05"
14"
0B"
1A"
1<"
1u
0t
1}
1x
0w
0X!
1Z!
1\!
0Q!
1R!
1T!
0V!
1W!
1X!
0Y!
0[!
0\!
1]!
1_!
1N"
0`"
1^"
1Z"
0V"
1T"
0P"
0L"
1H"
1D"
0t"
0r"
1p"
1n"
0l"
1k"
0i"
0g"
1f"
0o"
#200000
0+
1'
1$
0!
1#
0"
1.
0,
1/
1Z
1Y
0W
0V
1R
1O
1N
0M
0L
0;"
0:"
19"
18"
15"
0A"
0@"
1>"
1="
1t
1q
1p
0o
0n
1|
1{
0y
0x
0R!
1V!
0W!
0X!
0Z!
1^!
0T!
0U!
1W!
1X!
1Z!
1[!
0]!
0^!
0^"
1V"
0Z"
0X"
1L"
0H"
1r"
0p"
1j"
1i"
0k"
1g"
#210000
1+
0'
1"
0.
1,
0/
00
0-
0%
0&
0[
0Z
0Y
0X
1W
1V
0R
0Q
0P
1M
1:"
07"
06"
05"
1A"
1@"
0?"
0>"
0="
0<"
0t
0s
0r
1o
0}
0|
0{
0z
1y
1x
1U!
0W!
0Z!
1\!
1]!
1^!
1S!
0V!
1W!
0X!
1Z!
0\!
0]!
0^!
0_!
1X"
1\"
0V"
0R"
0D"
1t"
1m"
1k"
0h"
0j"
#220000
1'
1.
0,
0#
1)
1R
0N
1Y
0W
1T
1C"
0@"
1>"
09"
15"
1{
0y
1v
1t
0p
0S!
1T!
1V!
1X!
0Z!
1R!
1S!
0T!
0V!
0X!
1Z!
0[!
1\!
1]!
1^"
0L"
1J"
1H"
0r"
0q"
1p"
0g"
#230000
1#
0)
0+
10
0$
1!
1*
0O
1N
1L
1[
0V
1U
0T
0C"
1B"
0A"
1<"
1;"
19"
08"
1}
0x
1w
0v
0q
1p
1n
1P!
0R!
0U!
1Y!
0P!
1R!
1T!
1U!
0Y!
1^!
1_!
1Z"
1F"
1D"
0t"
0s"
0i"
#240000
0#
00
0!
0*
0'
0.
1,
1/
1-
1&
0R
1Q
0N
0L
0[
1Z
0Y
1X
1W
0U
0B"
1@"
1?"
0>"
1="
0<"
0;"
09"
16"
05"
0}
1|
0{
1z
1y
0w
0t
1s
0p
0n
0R!
0T!
0U!
1V!
0W!
1X!
0Z!
1[!
0]!
0^!
0S!
1U!
1W!
0X!
0[!
0\!
1^!
0_!
0^"
0Z"
1V"
0N"
0H"
0\"
0J"
0D"
1t"
1q"
1h"
1r"
1o"
0k"
1i"
1g"
#250000
1#
10
0-
1)
1$
0(
0S
1O
1N
1[
0X
1T
1C"
0?"
1<"
19"
18"
04"
1}
0z
1v
0u
1q
1p
1T!
0U!
1X!
1Y!
1\!
0^!
1Q!
0T!
0W!
0Y!
1[!
1]!
0X"
1R"
1J"
0F"
1`"
0T"
1L"
1H"
0r"
0p"
1l"
0f"
1s"
0q"
0m"
1j"
#260000
0#
1-
0)
0$
1(
1'
1.
0"
1S
1R
0O
0N
0M
1Y
1X
0T
0C"
1?"
1>"
0:"
09"
08"
15"
14"
1{
1z
0v
1u
1t
0q
0p
0o
0Q!
1U!
0V!
0X!
0[!
0\!
1_!
0U!
1X!
1Y!
1[!
1\!
0]!
0`"
0V"
1D"
1P"
0H"
1r"
0n"
0t"
1k"
1f"
#270000
1#
1)
1$
0(
00
1!
1*
0,
0&
1%
0S
0Q
1P
1O
1N
1L
0[
0W
1U
1T
1C"
1B"
0@"
0<"
1;"
19"
18"
17"
06"
04"
0}
0y
1w
1v
0u
0s
1r
1q
1p
1n
1S!
1U!
1V!
0Y!
0[!
0\!
1]!
1^!
0_!
1P!
0V!
1W!
1Z!
1\!
0^!
1\"
1X"
0P"
0L"
1H"
0D"
1b"
1T"
1N"
0o"
0l"
0e"
1t"
0r"
1p"
1n"
0j"
0h"
#280000
0)
0$
1(
0!
0*
1,
1&
0%
0-
0.
1"
0Y
0X
1W
0U
0T
1S
1Q
0P
0O
1M
0L
0;"
1:"
08"
07"
16"
14"
0C"
0B"
1@"
0?"
0>"
1u
1s
0r
0q
1o
0n
0{
0z
1y
0w
0v
0P!
1Q!
0U!
1V!
0W!
1Y!
0\!
0]!
1^!
0Q!
0S!
1U!
1W!
0X!
0Y!
1[!
1\!
1]!
0b"
1V"
1F"
0\"
0R"
1L"
0p"
1m"
1h"
0s"
0k"
1e"
#290000
1!
1*
0"
0M
1L
1U
1B"
1;"
0:"
1w
0o
1n
1T!
0U!
1X!
1R!
1S!
0T!
1U!
0V!
0X!
1Y!
1^"
1\"
0V"
1P"
0n"
1k"
0h"
0g"
#300000
0!
0*
1"
1)
1$
1%
1.
1+
1P
1O
1M
0L
1Y
1V
0U
1T
1C"
0B"
1A"
1>"
0;"
1:"
18"
17"
1{
1x
0w
1v
1r
1q
1o
0n
0S!
1T!
0U!
0W!
1X!
0Y!
0[!
1Q!
0R!
1S!
1V!
0X!
1Y!
0Z!
0]!
1Z"
0X"
0T"
0L"
1`"
0^"
1V"
0N"
0H"
1r"
1o"
0k"
1g"
0f"
1p"
1l"
1j"
0i"
#310000
0"
0$
0%
0(
0&
10
0'
0S
0R
0Q
0P
0O
0M
1[
1<"
0:"
08"
07"
06"
05"
04"
1}
0u
0t
0s
0r
0q
0o
0Q!
0T!
1U!
1X!
0\!
0^!
1Z!
0`"
0Z"
1X"
1R"
0J"
0F"
1N"
0o"
1s"
1q"
0m"
0j"
1i"
1f"
#320000
1"
1$
1%
1(
1'
0)
0+
1-
0/
1S
1R
1P
1O
1M
0Z
1X
0V
0T
0C"
0A"
1?"
0="
1:"
18"
17"
15"
14"
0|
1z
0x
0v
1u
1t
1r
1q
1o
1Q!
1W!
1\!
1]!
1_!
0Q!
0S!
1T!
0V!
1^!
1T"
1J"
1H"
1D"
0\"
1Z"
0V"
1F"
0s"
1k"
0i"
1h"
0t"
0r"
0q"
0l"
