VHDL/mux2to1/simulation/qsim/Mux2to1.msim.vcd
$comment
	File created using the following command:
		vcd file Mux2to1.msim.vcd -direction
$end
$date
	Tue Nov 12 20:52:12 2024
$end
$version
	ModelSim Version 2020.1
$end
$timescale
	1ps
$end

$scope module mux2to1_vhd_vec_tst $end
$var wire 1 ! A $end
$var wire 1 " B $end
$var wire 1 # Sel $end
$var wire 1 $ Y $end

$scope module i1 $end
$var wire 1 % gnd $end
$var wire 1 & vcc $end
$var wire 1 ' unknown $end
$var wire 1 ( devoe $end
$var wire 1 ) devclrn $end
$var wire 1 * devpor $end
$var wire 1 + ww_devoe $end
$var wire 1 , ww_devclrn $end
$var wire 1 - ww_devpor $end
$var wire 1 . ww_A $end
$var wire 1 / ww_B $end
$var wire 1 0 ww_Sel $end
$var wire 1 1 ww_Y $end
$var wire 1 2 \Y~output_o\ $end
$var wire 1 3 \Sel~input_o\ $end
$var wire 1 4 \A~input_o\ $end
$var wire 1 5 \B~input_o\ $end
$var wire 1 6 \Y~0_combout\ $end
$upscope $end
$upscope $end
$enddefinitions $end
#0
$dumpvars
1!
0"
0#
1$
0%
1&
x'
1(
1)
1*
1+
1,
1-
1.
0/
00
11
12
03
14
05
16
$end
#10000
0!
1"
0.
1/
15
04
06
02
01
0$
#20000
1!
0"
1.
0/
05
14
16
12
11
1$
#30000
0!
1"
0.
1/
15
04
06
02
01
0$
#40000
0"
0/
05
#50000
1"
1/
15
#60000
1!
1#
1.
10
13
14
16
12
11
1$
#70000
0!
0"
0.
0/
05
04
06
02
01
0$
#80000
1!
1.
14
#90000
1"
1/
15
16
12
11
1$
#100000
0"
0/
05
06
02
01
0$
#110000
1"
1/
15
16
12
11
1$
#120000
0"
0!
0/
0.
04
05
06
02
01
0$
#130000
1!
1.
14
#140000
0!
1"
0.
1/
15
04
16
12
11
1$
#150000
1!
1.
14
#160000
0!
0"
0.
0/
05
04
06
02
01
0$
#170000
0#
00
03
#180000
1!
1.
14
16
12
11
1$
#190000
1"
1/
15
#200000
0!
0.
04
06
02
01
0$
#210000
1!
0"
1.
0/
05
14
16
12
11
1$
#220000
0!
0.
04
06
02
01
0$
#230000
1!
1.
14
16
12
11
1$
#240000
1"
1/
15
#250000
0!
0.
04
06
02
01
0$
#270000
1!
0"
1.
0/
05
14
16
12
11
1$
#290000
1"
1/
15
#300000
0"
0!
0/
0.
04
05
06
02
01
0$
#310000
1"
1/
15
#320000
0"
1!
0/
1.
14
05
16
12
11
1$
#330000
1"
1/
15
#340000
0"
0/
05
#350000
1"
0!
1/
0.
04
15
06
02
01
0$
#370000
0"
0/
05
#380000
1!
1.
14
16
12
11
1$
#390000
1"
1/
15
#400000
0"
0!
0/
0.
04
05
06
02
01
0$
#410000
1"
1!
1/
1.
14
15
16
12
11
1$
#420000
0!
0.
04
06
02
01
0$
#430000
1!
0"
1.
0/
05
14
16
12
11
1$
#440000
0!
0.
04
06
02
01
0$
#450000
1!
1.
14
16
12
11
1$
#460000
0!
0.
04
06
02
01
0$
#470000
1"
1/
15
#480000
1!
1.
14
16
12
11
1$
#500000
0!
0.
04
06
02
01
0$
#510000
1!
0"
1.
0/
05
14
16
12
11
1$
#520000
0!
1"
0.
1/
15
04
06
02
01
0$
#530000
0"
0/
05
#540000
1!
1.
14
16
12
11
1$
#550000
1"
1/
15
#570000
0"
0/
05
#580000
0!
0.
04
06
02
01
0$
#590000
1"
1/
15
#600000
0"
0/
05
#610000
1"
1/
15
#620000
1!
1.
14
16
12
11
1$
#630000
0!
0.
04
06
02
01
0$
#640000
1!
1.
14
16
12
11
1$
#660000
0!
0"
0.
0/
05
04
06
02
01
0$
#680000
1!
1"
1.
1/
15
14
16
12
11
1$
#690000
0"
0/
05
#700000
0!
0.
04
06
02
01
0$
#710000
1!
1.
14
16
12
11
1$
#720000
0!
0.
04
06
02
01
0$
#730000
1"
1/
15
#740000
0"
0/
05
#760000
1"
1/
15
#770000
0"
1!
0/
1.
14
05
16
12
11
1$
#780000
1"
1/
15
#790000
0!
0.
04
06
02
01
0$
#800000
1!
1.
14
16
12
11
1$
#820000
0"
0/
05
#830000
1"
1/
15
#840000
0!
0.
04
06
02
01
0$
#850000
1!
0"
1.
0/
05
14
16
12
11
1$
#870000
0!
1"
0.
1/
15
04
06
02
01
0$
#880000
1!
0"
1.
0/
05
14
16
12
11
1$
#890000
0!
0.
04
06
02
01
0$
#910000
1"
1/
15
#920000
0"
0/
05
#930000
1!
1.
14
16
12
11
1$
#940000
0!
0.
04
06
02
01
0$
#960000
1!
1"
1.
1/
15
14
16
12
11
1$
#970000
0"
0/
05
#980000
0!
0.
04
06
02
01
0$
#990000
1!
1"
1.
1/
15
14
16
12
11
1$
